{
  "_id": "CjtaI9O7kMVpmvpK",
  "name": "Hellbound Creature (Quick)",
  "permission": {
    "default": 0
  },
  "type": "feat",
  "data": {
    "description": {
      "value": "<p><strong>Acquired/Inherited Template</strong>&nbsp;Acquired<br><strong>Simple Template</strong>&nbsp;Yes<br><strong>Usable with Summons</strong>&nbsp;No<br><br>Hellbound creatures have consigned their souls to Hell in exchange for infernal power. A hellbound creature’s Hit Dice determine what type of devil it can summon with its summon spell-like ability and the summon ability’s spell level. It can instead choose to summon 1d3 devils of the next weaker category, or 1d4+1 devils of two categories weaker.<br><br><strong>Quick Rules:</strong> Darkvision; see in darkness; +1 to AC; +1 on rolls based on Str and Cha; contract bound*; gore attack that deals 1d4 points of damage (for Medium creatures); summon (see table; 100%).<br><br><strong>Rebuild Rules:</strong>&nbsp;Senses&nbsp;darkvision, see in darkness;&nbsp;AC&nbsp;natural armor bonus increases by 1;&nbsp;Weaknesses&nbsp;contract bound*;&nbsp;Melee&nbsp;gore attack that deals 1d4 points of damage (for Medium creatures);&nbsp;Spell-like Abilities&nbsp;summon (see table; 100%);&nbsp;Ability Scores&nbsp;+2 Str, +2 Cha.</p>\n<p><strong>Hellbound Summon</strong></p>\n<hr>\n<table class=\"inner\" style=\"border-color: white; color: #ffffff; font-family: 'Century Gothic', CenturyGothic, AppleGothic, sans-serif; font-size: 15px; background-color: #0f0f0f;\">\n<tbody style=\"margin-top: 0px;\">\n<tr style=\"margin-top: 0px;\">\n<td style=\"margin: 0px; border: 1px solid white; padding: 1px 5px; text-align: center;\"><strong style=\"margin-top: 0px;\">Hellbound Creature HD</strong></td>\n<td style=\"border: 1px solid white; padding: 1px 5px; margin: 0px; text-align: center;\"><strong style=\"margin-top: 0px;\">Devil</strong></td>\n<td style=\"border: 1px solid white; padding: 1px 5px; margin: 0px; text-align: center;\"><strong style=\"margin-top: 0px;\">Spell Level</strong></td>\n</tr>\n<tr style=\"background: #3e3e3e;\">\n<td style=\"margin: 0px; border: 1px solid white; padding: 1px 5px; text-align: center;\">8 or fewer</td>\n<td style=\"border: 1px solid white; padding: 1px 5px; margin: 0px; text-align: center;\">Lemure</td>\n<td style=\"border: 1px solid white; padding: 1px 5px; margin: 0px; text-align: center;\">2nd</td>\n</tr>\n<tr>\n<td style=\"margin: 0px; border: 1px solid white; padding: 1px 5px; text-align: center;\">9-10</td>\n<td style=\"border: 1px solid white; padding: 1px 5px; margin: 0px; text-align: center;\">Bearded devil</td>\n<td style=\"border: 1px solid white; padding: 1px 5px; margin: 0px; text-align: center;\">5th</td>\n</tr>\n<tr style=\"background: #3e3e3e;\">\n<td style=\"margin: 0px; border: 1px solid white; padding: 1px 5px; text-align: center;\">11-12</td>\n<td style=\"border: 1px solid white; padding: 1px 5px; margin: 0px; text-align: center;\">Erinyes</td>\n<td style=\"border: 1px solid white; padding: 1px 5px; margin: 0px; text-align: center;\">6th</td>\n</tr>\n<tr>\n<td style=\"margin: 0px; border: 1px solid white; padding: 1px 5px; text-align: center;\">13-14</td>\n<td style=\"border: 1px solid white; padding: 1px 5px; margin: 0px; text-align: center;\">Bone devil</td>\n<td style=\"border: 1px solid white; padding: 1px 5px; margin: 0px; text-align: center;\">7th</td>\n</tr>\n<tr style=\"background: #3e3e3e;\">\n<td style=\"margin: 0px; border: 1px solid white; padding: 1px 5px; text-align: center;\">15-16</td>\n<td style=\"border: 1px solid white; padding: 1px 5px; margin: 0px; text-align: center;\">Barbed devil</td>\n<td style=\"border: 1px solid white; padding: 1px 5px; margin: 0px; text-align: center;\">8th</td>\n</tr>\n<tr>\n<td style=\"margin: 0px; border: 1px solid white; padding: 1px 5px; text-align: center;\">17 or more</td>\n<td style=\"border: 1px solid white; padding: 1px 5px; margin: 0px; text-align: center;\">Ice devil</td>\n<td style=\"border: 1px solid white; padding: 1px 5px; margin: 0px; text-align: center;\">9th</td>\n</tr>\n</tbody>\n</table>",
      "chat": "",
      "unidentified": ""
    },
    "tags": [],
    "activation": {
      "cost": 1,
      "type": ""
    },
    "unchainedAction": {
      "activation": {
        "cost": 1,
        "type": ""
      }
    },
    "duration": {
      "value": null,
      "units": ""
    },
    "target": {
      "value": ""
    },
    "range": {
      "value": null,
      "units": "",
      "maxIncrements": 1,
      "minValue": null,
      "minUnits": "",
      "long": null
    },
    "uses": {
      "value": 0,
      "max": 0,
      "per": null,
      "autoDeductCharges": true,
      "autoDeductChargesCost": "1"
    },
    "measureTemplate": {
      "type": "",
      "size": "0",
      "overrideColor": false,
      "customColor": "",
      "overrideTexture": false,
      "customTexture": ""
    },
    "attackName": "",
    "actionType": "",
    "attackBonus": "",
    "critConfirmBonus": "",
    "damage": {
      "parts": [],
      "critParts": [],
      "nonCritParts": []
    },
    "attackParts": [],
    "formula": "",
    "ability": {
      "attack": null,
      "damage": null,
      "damageMult": 1,
      "critRange": 20,
      "critMult": 2
    },
    "save": {
      "dc": 0,
      "type": "",
      "description": ""
    },
    "effectNotes": "",
    "attackNotes": "",
    "soundEffect": "",
    "changes": [
      {
        "_id": "gqqsuro6",
        "formula": "1",
        "operator": "+",
        "target": "ac",
        "subTarget": "nac",
        "modifier": "untyped",
        "priority": 0,
        "value": 0
      },
      {
        "_id": "5cskhiyh",
        "formula": "1",
        "operator": "+",
        "target": "attack",
        "subTarget": "mattack",
        "modifier": "untyped",
        "priority": 0,
        "value": 0
      },
      {
        "_id": "cmjs18xp",
        "formula": "1",
        "operator": "+",
        "target": "damage",
        "subTarget": "wdamage",
        "modifier": "untyped",
        "priority": 0,
        "value": 0
      },
      {
        "_id": "6gg5uajb",
        "formula": "1",
        "operator": "+",
        "target": "skills",
        "subTarget": "strSkills",
        "modifier": "racial",
        "priority": 0,
        "value": 0
      },
      {
        "_id": "es2mrox2",
        "formula": "1",
        "operator": "+",
        "target": "abilityChecks",
        "subTarget": "strChecks",
        "modifier": "untyped",
        "priority": 0,
        "value": 0
      },
      {
        "_id": "3m2ym8o6",
        "formula": "1",
        "operator": "+",
        "target": "skills",
        "subTarget": "chaSkills",
        "modifier": "racial",
        "priority": 0,
        "value": 0
      },
      {
        "_id": "r3izkdeo",
        "formula": "1",
        "operator": "+",
        "target": "abilityChecks",
        "subTarget": "chaChecks",
        "modifier": "untyped",
        "priority": 0,
        "value": 0
      }
    ],
    "changeFlags": {
      "loseDexToAC": false,
      "noStr": false,
      "noDex": false,
      "oneInt": false,
      "oneWis": false,
      "oneCha": false,
      "noEncumbrance": false,
      "mediumArmorFullSpeed": false,
      "heavyArmorFullSpeed": false
    },
    "contextNotes": [],
    "links": {
      "children": [],
      "charges": []
    },
    "tag": "",
    "useCustomTag": false,
    "armorProf": {
      "value": [],
      "custom": ""
    },
    "weaponProf": {
      "value": [],
      "custom": ""
    },
    "featType": "template",
    "associations": {
      "classes": []
    },
    "showInQuickbar": false,
    "nonlethal": false,
    "abilityType": "none",
    "crOffset": "1",
    "attack": {
      "parts": []
    }
  },
  "flags": {},
  "img": "systems/pf1/icons/skills/violet_07.jpg",
  "effects": []
}