{
  "_id": "PVYC3drphaVss858",
  "name": "Pod-Spawned",
  "permission": {
    "default": 0
  },
  "type": "feat",
  "data": {
    "description": {
      "value": "<p><strong>Acquired/Inherited Template&nbsp;</strong>Acquired<br><strong>Simple Template</strong>&nbsp;No<br><strong>Usable with Summons</strong>&nbsp;No<br><br>A creature with the pod-spawned template is a duplicate created by the bodythief. It resembles the original and has all its memories, but can’t exhibit sincere emotion.<br>Pod-spawned creatures can’t reproduce and remain the same apparent age as their original at the time of replacement.<br><br>“Pod-spawned” is an acquired template that can be added to any living creature (referred to hereafter as the base creature).<br><br><strong>CR:</strong> For creatures with no class levels or only NPC class levels, this is the same as that of the base creature. For creatures with PC class levels, this is the same as that of the base creature –1. Creatures with a significant number of spells, spell-like abilities, or supernatural abilities have their CR further reduced by 1.</p>\n<p><strong>Type: </strong>Type changes to plant. Do not recalculate BAB, hit points, saves, or skill ranks.</p>\n<p><strong>Alignment: </strong>Alignment changes to lawful evil.</p>\n<p><strong>Senses: </strong>A pod-spawned creature gains low-light vision.</p>\n<p><strong>Defensive Abilities: </strong>A pod-spawned creature gains plant traits.</p>\n<p><strong>Special Abilities: </strong>The pod-spawned creature gains the mimic ability.</p>\n<p><em>Mimic (Ex)&nbsp;</em>A pod-spawned creature retains all the knowledge of its original. It can impersonate the original perfectly except for its lack of emotion. This emotionlessness can be detected with a successful DC 20 Sense Motive check. A creature familiar with the original gains a +5 circumstance bonus on this check. If the podspawned creature feigns sincere emotion, the Sense Motive check is opposed by its Bluff check instead. Podspawned creatures resemble the original down to hair and blood. Noticing small physical imperfections requires a successful Perception check with a DC determined by the spawning bodythief ’s Disguise check, made when the pod hatches.</p>\n<p><strong>Ability Scores: </strong>Cha –4.</p>\n<p><strong>Feats: </strong>All feats are retained, even if the pod-spawned creature no longer qualifies for their prerequisites.</p>\n<p><strong>Special Abilities: </strong>The creature loses any spellcasting ability and all spell-like and supernatural abilities.</p>",
      "chat": "",
      "unidentified": ""
    },
    "tags": [],
    "activation": {
      "cost": 1,
      "type": ""
    },
    "unchainedAction": {
      "activation": {
        "cost": 1,
        "type": ""
      }
    },
    "duration": {
      "value": null,
      "units": ""
    },
    "target": {
      "value": ""
    },
    "range": {
      "value": null,
      "units": "",
      "maxIncrements": 1,
      "minValue": null,
      "minUnits": "",
      "long": null
    },
    "uses": {
      "value": 0,
      "max": 0,
      "per": null,
      "autoDeductCharges": true,
      "autoDeductChargesCost": "1"
    },
    "measureTemplate": {
      "type": "",
      "size": "0",
      "overrideColor": false,
      "customColor": "",
      "overrideTexture": false,
      "customTexture": ""
    },
    "attackName": "",
    "actionType": "",
    "attackBonus": "",
    "critConfirmBonus": "",
    "damage": {
      "parts": [],
      "critParts": [],
      "nonCritParts": []
    },
    "attackParts": [],
    "formula": "",
    "ability": {
      "attack": null,
      "damage": null,
      "damageMult": 1,
      "critRange": 20,
      "critMult": 2
    },
    "save": {
      "dc": 0,
      "type": "",
      "description": ""
    },
    "effectNotes": "",
    "attackNotes": "",
    "soundEffect": "",
    "changes": [
      {
        "_id": "b28icwvo",
        "formula": "-4",
        "operator": "+",
        "target": "ability",
        "subTarget": "cha",
        "modifier": "untyped",
        "priority": 0,
        "value": 0
      }
    ],
    "changeFlags": {
      "loseDexToAC": false,
      "noStr": false,
      "noDex": false,
      "oneInt": false,
      "oneWis": false,
      "oneCha": false,
      "noEncumbrance": false,
      "mediumArmorFullSpeed": false,
      "heavyArmorFullSpeed": false
    },
    "contextNotes": [],
    "links": {
      "children": [],
      "charges": []
    },
    "tag": "",
    "useCustomTag": false,
    "armorProf": {
      "value": [],
      "custom": ""
    },
    "weaponProf": {
      "value": [],
      "custom": ""
    },
    "featType": "template",
    "associations": {
      "classes": []
    },
    "showInQuickbar": false,
    "nonlethal": false,
    "abilityType": "none",
    "crOffset": "0",
    "attack": {
      "parts": []
    }
  },
  "flags": {},
  "img": "systems/pf1/icons/skills/violet_07.jpg",
  "effects": []
}