{
  "_id": "ryBQiQNP6ZrkwZCy",
  "name": "Syrinx",
  "permission": {
    "default": 0
  },
  "type": "race",
  "data": {
    "description": {
      "value": "<h2>Standard Racial Traits</h2>\n<ul>\n<li style=\"box-sizing: border-box;\"><span style=\"box-sizing: border-box; font-weight: bold;\">Ability Score Modifiers</span>: Syrinx are contemplative and patient, traits that make them somewhat slow to act. As a result, syrinx gain a +2 bonus to&nbsp;<a href=\"https://www.d20pfsrd.com/basics-ability-scores/ability-scores#TOC-Wisdom-Wis-\">Wisdom</a>&nbsp;but suffer a –2 penalty to&nbsp;<a href=\"https://www.d20pfsrd.com/basics-ability-scores/ability-scores#TOC-Dexterity-Dex-\">Dexterity</a>.</li>\n<li style=\"box-sizing: border-box;\"><span style=\"box-sizing: border-box; font-weight: bold;\">Speed</span>: Syrinx have a base speed of 30 feet.</li>\n<li style=\"box-sizing: border-box;\"><span style=\"box-sizing: border-box; font-weight: bold;\">Flight</span>: Syrinx have a fly speed of 60 feet with average maneuverability.</li>\n<li style=\"box-sizing: border-box;\"><span style=\"box-sizing: border-box; font-weight: bold;\">Languages</span>: Syrinx begin play speaking Syrinx. Syrinx with high&nbsp;<a href=\"https://www.d20pfsrd.com/basics-ability-scores/ability-scores#TOC-Intelligence-Int-\">Intelligence</a>&nbsp;scores can choose from the following: Auran, Celestial, Strix, or Infernal. See the&nbsp;<a href=\"https://www.d20pfsrd.com/skills/linguistics\">Linguistics skill page</a>&nbsp;for more information about these languages.</li>\n</ul>\n<h3>Senses</h3>\n<ul>\n<li style=\"box-sizing: border-box;\"><span style=\"box-sizing: border-box; font-weight: bold;\">Low-Light Vision</span>: Syrinx can see twice as far as&nbsp;<a href=\"https://www.d20pfsrd.com/races/core-races/human\">humans</a>&nbsp;in conditions of dim light.</li>\n<li style=\"box-sizing: border-box;\"><span style=\"box-sizing: border-box; font-weight: bold;\">Darkvision</span>: Syrinx have&nbsp;<a href=\"https://www.d20pfsrd.com/gamemastering/special-abilities#TOC-Darkvision\">darkvision</a>&nbsp;and so can see perfectly in the dark up to 60 feet.</li>\n</ul>\n<h3>Skill Racial Abilities</h3>\n<ul>\n<li>\n<p><strong>Nocturnal:</strong> Syrinx gain a +2&nbsp;<a href=\"https://www.d20pfsrd.com/basics-ability-scores/glossary#TOC-Racial-Bonus\">racial bonus</a>&nbsp;on&nbsp;<a href=\"https://www.d20pfsrd.com/skills/perception\">Perception</a>&nbsp;and&nbsp;<a href=\"https://www.d20pfsrd.com/skills/stealth\">Stealth</a>&nbsp;checks at night.</p>\n</li>\n</ul>\n<h3>Other Racial Traits</h3>\n<ul>\n<li><strong>Speak with Avians:</strong> Syrinx can speak with all birds of the&nbsp;<a href=\"https://www.d20pfsrd.com/bestiary/rules-for-monsters/creature-types#TOC-Animal\">animal</a>&nbsp;creature type and birdlike&nbsp;<a href=\"https://www.d20pfsrd.com/bestiary/rules-for-monsters/creature-types#TOC-Magical-Beast\">magical beasts</a>&nbsp;(like&nbsp;<a href=\"https://www.d20pfsrd.com/bestiary/monster-listin/magical-beasts/phoenix\">phoenixes</a>&nbsp;and&nbsp;<a href=\"https://www.d20pfsrd.com/bestiary/monster-listin/magical-beasts/thunderbird\">thunderbirds</a>).</li>\n</ul>\n<h3>Defense Racial Abilities</h3>\n<ul>\n<li><strong>Pride</strong>: Syrinx receive a +2&nbsp;<a href=\"https://www.d20pfsrd.com/basics-ability-scores/glossary#TOC-Racial-Bonus\">racial bonus</a>&nbsp;on saving throws against&nbsp;<a href=\"https://www.d20pfsrd.com/magic#TOC-Magic-Descriptor-Mind-Affecting\">mind-affecting</a>&nbsp;effects.</li>\n</ul>",
      "chat": "",
      "unidentified": ""
    },
    "tags": [],
    "changes": [
      {
        "_id": "atvhssz0",
        "formula": "2",
        "operator": "+",
        "target": "ability",
        "subTarget": "wis",
        "modifier": "racial",
        "priority": 0,
        "value": 0
      },
      {
        "_id": "m66aoz86",
        "formula": "-2",
        "operator": "+",
        "target": "ability",
        "subTarget": "dex",
        "modifier": "racial",
        "priority": 0,
        "value": 0
      }
    ],
    "changeFlags": {
      "loseDexToAC": false,
      "noStr": false,
      "noDex": false,
      "oneInt": false,
      "oneWis": false,
      "oneCha": false,
      "noEncumbrance": false,
      "mediumArmorFullSpeed": false,
      "heavyArmorFullSpeed": false
    },
    "contextNotes": [
      {
        "formula": "",
        "operator": "+",
        "target": "skill",
        "subTarget": "skill.per",
        "modifier": "",
        "priority": 0,
        "value": 0,
        "text": "+[[2]] Racial at Night"
      },
      {
        "formula": "",
        "operator": "+",
        "target": "skill",
        "subTarget": "skill.ste",
        "modifier": "",
        "priority": 0,
        "value": 0,
        "text": "+[[2]] Racial at Night"
      },
      {
        "formula": "",
        "operator": "+",
        "target": "savingThrows",
        "subTarget": "allSavingThrows",
        "modifier": "",
        "priority": 0,
        "value": 0,
        "text": "+[[2]] Racial vs. Mind-Affecting Effects"
      }
    ],
    "links": {
      "children": []
    },
    "armorProf": {
      "value": [],
      "custom": ""
    },
    "weaponProf": {
      "value": [],
      "custom": ""
    },
    "creatureType": "humanoid",
    "subTypes": [
      [
        "Syrinx"
      ]
    ],
    "damage": {
      "parts": []
    }
  },
  "flags": {},
  "img": "systems/pf1/icons/skills/red_26.jpg",
  "effects": []
}