{
  "_id": "I4QMJ9pvFDdOyqve",
  "name": "Barbed Arrow",
  "permission": {
    "default": 0
  },
  "type": "loot",
  "data": {
    "description": {
      "value": "<p>The head of a barbed arrow resembles that of a&nbsp;<a href=\"https://www.d20pfsrd.com/equipment/weapons/weapon-descriptions/harpoon\">harpoon</a>.</p>\n<p><strong>Benefit</strong>:&nbsp;When a barbed arrow is attached to a length of silk rope and fired from a bow, the arrow&rsquo;s range increment is reduced to 30 feet, but it gains the&nbsp;<a href=\"https://www.d20pfsrd.com/equipment/weapons/#wpn-quality-grapple\">grapple</a>&nbsp;special weapon quality.</p>\n<p>Barbed bolts exist for crossbows.</p>",
      "chat": "",
      "unidentified": ""
    },
    "tags": [],
    "quantity": 1,
    "weight": 0.15,
    "price": 0.1,
    "identified": true,
    "hp": {
      "max": 1,
      "value": 1
    },
    "hardness": 5,
    "carried": true,
    "unidentified": {
      "price": 0.1,
      "name": ""
    },
    "identifiedName": "Barbed Arrow",
    "cl": 0,
    "aura": {
      "custom": false,
      "school": ""
    },
    "changes": [],
    "changeFlags": {
      "loseDexToAC": false,
      "noStr": false,
      "noDex": false,
      "oneInt": false,
      "oneWis": false,
      "oneCha": false,
      "noEncumbrance": false,
      "mediumArmorFullSpeed": false,
      "heavyArmorFullSpeed": false
    },
    "contextNotes": [],
    "links": {
      "children": []
    },
    "subType": "ammo",
    "equipped": false,
    "damage": {
      "parts": [],
      "critParts": []
    }
  },
  "flags": {},
  "img": "systems/pf1/icons/items/weapons/arrow.PNG",
  "effects": []
}