{
  "_id": "dojU5K23mPbGhP5H",
  "name": "Sharpstone Sling Bullet",
  "permission": {
    "default": 0
  },
  "type": "loot",
  "data": {
    "description": {
      "value": "<p>A thin layer of baked clay covers the spikes and jagged ridges covering this specially designed bullet. A proficient user knows how to crack the clay (a&nbsp;<a href=\"https://www.d20pfsrd.com/gamemastering/combat#TOC-Free-Actions\">free action</a>) so that it peels off from either the spikes or ridges when fired, dealing either piercing or slashing damage.</p>",
      "chat": "",
      "unidentified": ""
    },
    "tags": [],
    "quantity": 1,
    "weight": 0.5,
    "price": 0.1,
    "identified": true,
    "hp": {
      "max": 1,
      "value": 1
    },
    "hardness": 10,
    "carried": true,
    "unidentified": {
      "price": 0.1,
      "name": ""
    },
    "identifiedName": "Sharpstone Sling Bullet",
    "cl": 0,
    "aura": {
      "custom": false,
      "school": ""
    },
    "changes": [],
    "changeFlags": {
      "loseDexToAC": false,
      "noStr": false,
      "noDex": false,
      "oneInt": false,
      "oneWis": false,
      "oneCha": false,
      "noEncumbrance": false,
      "mediumArmorFullSpeed": false,
      "heavyArmorFullSpeed": false
    },
    "contextNotes": [],
    "links": {
      "children": []
    },
    "subType": "ammo",
    "equipped": false,
    "damage": {
      "parts": [],
      "critParts": []
    }
  },
  "flags": {},
  "img": "systems/pf1/icons/items/weapons/bullet.png",
  "effects": []
}