{
  "_id": "pbporbkxdlpdpnut",
  "name": "A Thread Of Silver",
  "permission": {
    "default": 0
  },
  "type": "loot",
  "data": {
    "description": {
      "value": "\r\n<p class=\"source\"><b>Source</b> <a href=\"http://www.amazon.com/gp/product/1601255101/ref=as_li_qf_sp_asin_il_tl?ie=UTF8&amp;camp=1789&amp;creative=9325&amp;creativeASIN=1601255101&amp;linkCode=as2&amp;tag=httpwwwd20pfs-20\" target=\"_blank\" rel=\"noopener\">PPC:DHB</a></p>\r\n<p><b>Price</b> 6,700 gp; <b>Accuracy</b> +7; <b>Associated Skill</b> <a href=\"https://www.d20pfsrd.com/skills/knowledge\">Knowledge</a> (engineering) (DC 25)</p>\r\n<p class=\"divider\"><a name=\"TOC-DESCRIPTION\"></a>DESCRIPTION</p>\r\n<p>This thick leather-bound book was stolen by unknown hands, and describes one of the earliest surveys of a famous mountain and nearby ruins. Assassins brutally hunt down anyone with a copy.</p>\r\n<p class=\"divider\"><a name=\"TOC-SKILL-BONUSES\"></a>SKILL BONUSES</p>\r\n<ul>\r\n<li>Disable clockwork traps (<a href=\"https://www.d20pfsrd.com/skills/disable-device\">Disable Device</a> +2)</li>\r\n<li>Evaluate certain relics (<a href=\"https://www.d20pfsrd.com/skills/appraise\">Appraise</a> +4)</li>\r\n<li>Identify <a href=\"https://www.d20pfsrd.com/bestiary/rules-for-monsters/creature-types#TOC-Construct\">construct</a> creature (<a href=\"https://www.d20pfsrd.com/skills/knowledge\">Knowledge</a> [arcana] +4)</li>\r\n</ul>\r\n",
      "chat": "",
      "unidentified": ""
    },
    "tags": [],
    "quantity": 1,
    "weight": 2,
    "price": 6700,
    "identified": true,
    "hp": {
      "max": 10,
      "value": 10
    },
    "hardness": 0,
    "carried": true,
    "unidentified": {
      "price": 0,
      "name": ""
    },
    "identifiedName": "A Thread Of Silver",
    "cl": 0,
    "aura": {
      "custom": false,
      "school": ""
    },
    "changes": [],
    "changeFlags": {
      "loseDexToAC": false,
      "noStr": false,
      "noDex": false,
      "oneInt": false,
      "oneWis": false,
      "oneCha": false,
      "noEncumbrance": false,
      "mediumArmorFullSpeed": false,
      "heavyArmorFullSpeed": false
    },
    "contextNotes": [],
    "links": {
      "children": []
    },
    "tag": "",
    "useCustomTag": false,
    "subType": "gear",
    "equipped": false,
    "damage": {
      "parts": []
    }
  },
  "flags": {},
  "img": "systems/pf1/icons/items/inventory/dice.jpg",
  "effects": []
}