{
  "_id": "ytghtcmxpllctzkj",
  "name": "Alchemical Solvent",
  "permission": {
    "default": 0
  },
  "type": "loot",
  "data": {
    "description": {
      "value": "\r\n<p><b>Price</b> 20 gp; <b>Weight</b> 1/2 lb.</p>\r\n<p>This bubbling purple gel eats through adhesives. Each vial can cover a single 5-foot square. It destroys most normal adhesives (such as tar, tree sap, or glue) in a single round but takes 1d4+1 rounds to deal with more powerful adhesives (alchemical glue, tanglefoot bags, spider webbing, and so on). It has no affect on fully magical adhesives, such as sovereign glue.</p>\r\n<p><b>Create</b>: <a href=\"https://www.d20pfsrd.com/skills/craft\">Craft</a> (alchemy) DC 20</p>\r\n",
      "chat": "",
      "unidentified": ""
    },
    "tags": [],
    "quantity": 1,
    "weight": 0.5,
    "price": 20,
    "identified": true,
    "hp": {
      "max": 10,
      "value": 10
    },
    "hardness": 0,
    "carried": true,
    "unidentified": {
      "price": 0,
      "name": ""
    },
    "identifiedName": "",
    "cl": 0,
    "aura": {
      "custom": false,
      "school": ""
    },
    "changes": [],
    "changeFlags": {
      "loseDexToAC": false,
      "noStr": false,
      "noDex": false,
      "oneInt": false,
      "oneWis": false,
      "oneCha": false,
      "noEncumbrance": false,
      "mediumArmorFullSpeed": false,
      "heavyArmorFullSpeed": false
    },
    "contextNotes": [],
    "links": {
      "children": []
    },
    "tag": "",
    "useCustomTag": false,
    "subType": "gear",
    "equipped": false,
    "damage": {
      "parts": []
    }
  },
  "flags": {},
  "img": "systems/pf1/icons/items/inventory/dice.jpg",
  "effects": []
}