{
  "_id": "rulcpiknrssjxesk",
  "name": "Ale, Luglurch",
  "permission": {
    "default": 0
  },
  "type": "loot",
  "data": {
    "description": {
      "value": "<h4><span id=\"Ale_Luglurch\"><a name=\"TOC-Ale-Luglurch\"></a>Ale, Luglurch</span></h4>\r\n<p class=\"source\"><b>Source</b> <a title=\"PPC:Halflings\" href=\"http://www.amazon.com/gp/product/1601252781/ref=as_li_qf_sp_asin_il_tl?ie=UTF8&amp;camp=1789&amp;creative=9325&amp;creativeASIN=1601252781&amp;linkCode=as2&amp;tag=httpwwwd20pfs-20\" target=\"_blank\" rel=\"noopener\">PPC:Halflings</a></p>\r\n<p>Most races find this pale and frothy beer too salty to swallow, but <a href=\"https://www.d20pfsrd.com/races/core-races/halfling\">halflings</a> simply consider it an acquired taste. Drinking three or more cups of Luglurch in a 1-minute span gives a <a href=\"https://www.d20pfsrd.com/races/core-races/halfling\">halfling</a> a -2 penalty on <a href=\"https://www.d20pfsrd.com/skills/perception\">Perception</a> checks and a +1 bonus on <a href=\"https://www.d20pfsrd.com/gamemastering/combat#TOC-Reflex\">Reflex</a> saves and <a href=\"https://www.d20pfsrd.com/skills/acrobatics\">Acrobatics</a> checks for 10 minutes.</p>\r\n<p><b>Note</b>: Non-<a href=\"https://www.d20pfsrd.com/races/core-races/halfling\">halflings</a> do not receive any bonuses from this drink.</p>\r\n",
      "chat": "",
      "unidentified": ""
    },
    "tags": [],
    "quantity": 1,
    "weight": 0,
    "price": 0,
    "identified": true,
    "hp": {
      "max": 10,
      "value": 10
    },
    "hardness": 0,
    "carried": true,
    "unidentified": {
      "price": 0,
      "name": ""
    },
    "identifiedName": "",
    "cl": 0,
    "aura": {
      "custom": false,
      "school": ""
    },
    "changes": [],
    "changeFlags": {
      "loseDexToAC": false,
      "noStr": false,
      "noDex": false,
      "oneInt": false,
      "oneWis": false,
      "oneCha": false,
      "noEncumbrance": false,
      "mediumArmorFullSpeed": false,
      "heavyArmorFullSpeed": false
    },
    "contextNotes": [],
    "links": {
      "children": []
    },
    "tag": "",
    "useCustomTag": false,
    "subType": "gear",
    "equipped": false,
    "damage": {
      "parts": []
    }
  },
  "flags": {},
  "img": "systems/pf1/icons/items/inventory/dice.jpg",
  "effects": []
}