{
  "_id": "yypdftvlyerjnuro",
  "name": "Barding, Thorny Breastplate",
  "permission": {
    "default": 0
  },
  "type": "loot",
  "data": {
    "description": {
      "value": "\r\n<p class=\"source\"><b>Source</b> <a href=\"http://www.amazon.com/gp/product/1601251726/ref=as_li_qf_sp_asin_il_tl?ie=UTF8&amp;camp=1789&amp;creative=9325&amp;creativeASIN=1601251726&amp;linkCode=as2&amp;tag=httpwwwd20pfs-20&amp;linkId=GW5FPNAVA4EAJ7JX\" target=\"_blank\" rel=\"noopener\">PCh:DDR</a></p>\r\n<p>This barding is covered in thick metal spikes and is designed to protect the <a href=\"https://www.d20pfsrd.com/bestiary/monster-list/magical-beasts/owlbear\">owlbear's</a> chest, shoulders, and neck, while leaving the limbs mostly free for moving and attacking. It provides a +5 <a href=\"https://www.d20pfsrd.com/basics-ability-scores/glossary#TOC-Armor-Bonus\">armor bonus</a> to AC, reduces the <a href=\"https://www.d20pfsrd.com/bestiary/monster-list/magical-beasts/owlbear\">owlbear's</a> speed to 20 feet, and adds +1d8 piercing damage to its <a href=\"https://www.d20pfsrd.com/gamemastering/combat#TOC-Grapple\">grapple</a> attacks.</p>\r\n\r\n",
      "chat": "",
      "unidentified": ""
    },
    "tags": [],
    "quantity": 1,
    "weight": 0,
    "price": 0,
    "identified": true,
    "hp": {
      "max": 10,
      "value": 10
    },
    "hardness": 0,
    "carried": true,
    "unidentified": {
      "price": 0,
      "name": ""
    },
    "identifiedName": "",
    "cl": 0,
    "aura": {
      "custom": false,
      "school": ""
    },
    "changes": [],
    "changeFlags": {
      "loseDexToAC": false,
      "noStr": false,
      "noDex": false,
      "oneInt": false,
      "oneWis": false,
      "oneCha": false,
      "noEncumbrance": false,
      "mediumArmorFullSpeed": false,
      "heavyArmorFullSpeed": false
    },
    "contextNotes": [],
    "links": {
      "children": []
    },
    "tag": "",
    "useCustomTag": false,
    "subType": "gear",
    "equipped": false,
    "damage": {
      "parts": []
    }
  },
  "flags": {},
  "img": "systems/pf1/icons/items/inventory/dice.jpg",
  "effects": []
}