{
  "_id": "vjvzjwusjnfnfwcy",
  "name": "Bloody Mandrake",
  "permission": {
    "default": 0
  },
  "type": "loot",
  "data": {
    "description": {
      "value": "\r\n<p class=\"source\"><b>Source</b> <a href=\"http://amzn.to/2z71S07\" target=\"_blank\" rel=\"noopener\">PZO1140</a></p>\r\n<p><b>Price</b> 15 gp</p>\r\n<p>Bloody mandrakes grow from the corpses of intelligent creatures who had <a href=\"https://www.d20pfsrd.com/magic#TOC-Supernatural-Abilities-Su-\">supernatural</a> powers in life. This <a href=\"https://www.d20pfsrd.com/bestiary/rules-for-monsters/creature-types#TOC-Plant\">plant's</a> unsettlingly <a href=\"https://www.d20pfsrd.com/bestiary/rules-for-monsters/creature-types#TOC-Humanoid\">humanoid</a>-shaped tuber-like roots increase fertility and vitality. Gather DC 20; <b>Yield</b> 1d4 doses</p>\r\n<p><b>Terrain</b> any plains or swamps</p>\r\n<p><b>Preparation</b> A bloody mandrake must be pulped so that its sticky red sap can be gathered, skimmed, and then refined into an even stickier paste; this process requires a successful DC 15 <a href=\"https://www.d20pfsrd.com/skills/craft\">Craft</a> (alchemy) check and 1d4 hours of work per yield.</p>\r\n<p><b>Use</b> One dose of bloody mandrake paste smeared on the lips (this is a <a href=\"https://www.d20pfsrd.com/gamemastering/combat#TOC-Free-Actions\">free action</a>) during spellcasting can be used as an additional material component when casting spells that remove afflictions and conditions or that provide a <a href=\"https://www.d20pfsrd.com/basics-ability-scores/glossary#TOC-Morale-Bonus\">morale bonus</a>. Doing so grants a +1 bonus to the spell's effective <a href=\"https://www.d20pfsrd.com/magic#TOC-Caster-Level\">caster level</a>.</p>\r\n",
      "chat": "",
      "unidentified": ""
    },
    "tags": [],
    "quantity": 1,
    "weight": 0,
    "price": 15,
    "identified": true,
    "hp": {
      "max": 10,
      "value": 10
    },
    "hardness": 0,
    "carried": true,
    "unidentified": {
      "price": 0,
      "name": ""
    },
    "identifiedName": "",
    "cl": 0,
    "aura": {
      "custom": false,
      "school": ""
    },
    "changes": [],
    "changeFlags": {
      "loseDexToAC": false,
      "noStr": false,
      "noDex": false,
      "oneInt": false,
      "oneWis": false,
      "oneCha": false,
      "noEncumbrance": false,
      "mediumArmorFullSpeed": false,
      "heavyArmorFullSpeed": false
    },
    "contextNotes": [],
    "links": {
      "children": []
    },
    "tag": "",
    "useCustomTag": false,
    "subType": "gear",
    "equipped": false,
    "damage": {
      "parts": []
    }
  },
  "flags": {},
  "img": "systems/pf1/icons/items/inventory/dice.jpg",
  "effects": []
}