{
  "_id": "sauykqffbjdjooko",
  "name": "Coffin",
  "permission": {
    "default": 0
  },
  "type": "loot",
  "data": {
    "description": {
      "value": " \n<table border=\"1\" cellpadding=\"5\"> \n <thead> \n  <tr> \n   <th class=\"text\">Type</th> \n   <th class=\"text\">Price</th> \n   <th class=\"text\">Weight</th> \n  </tr> \n </thead> \n <tbody> \n  <tr> \n   <td class=\"text\">Common</td> \n   <td class=\"money number\">10 gp</td> \n   <td class=\"money text\">30 lbs.</td> \n  </tr> \n  <tr> \n   <td class=\"text\">Ornate</td> \n   <td class=\"money number\">100 gp</td> \n   <td class=\"money text\">50 lbs.</td> \n  </tr> \n </tbody> \n</table> \n<p>A plain coffin is made of simple wood and has a loose, flat lid that can be nailed onto it. Ornate coffins are favored by aristocratic families for displaying their dead, and include upholstered cloth liners and a hinged lid.</p> \n",
      "chat": "",
      "unidentified": ""
    },
    "tags": [],
    "quantity": 1,
    "weight": 0,
    "price": 0,
    "identified": true,
    "hp": {
      "max": 10,
      "value": 10
    },
    "hardness": 0,
    "carried": true,
    "unidentified": {
      "price": 0,
      "name": ""
    },
    "identifiedName": "",
    "cl": 0,
    "aura": {
      "custom": false,
      "school": ""
    },
    "changes": [],
    "changeFlags": {
      "loseDexToAC": false,
      "noStr": false,
      "noDex": false,
      "oneInt": false,
      "oneWis": false,
      "oneCha": false,
      "noEncumbrance": false,
      "mediumArmorFullSpeed": false,
      "heavyArmorFullSpeed": false
    },
    "contextNotes": [],
    "links": {
      "children": []
    },
    "tag": "",
    "useCustomTag": false,
    "subType": "gear",
    "equipped": false,
    "damage": {
      "parts": []
    }
  },
  "flags": {},
  "img": "systems/pf1/icons/items/inventory/dice.jpg",
  "effects": []
}