{
  "_id": "rndukvrkduzfqamc",
  "name": "Corset",
  "permission": {
    "default": 0
  },
  "type": "loot",
  "data": {
    "description": {
      "value": " \n<p class=\"source\"><b>Source</b> <a href=\"http://amzn.to/2eT3m9D\" target=\"_blank\" rel=\"noopener\">PPZO94102</a></p> \n<p><b>Price</b> 1 SP-200 gp; <b>Weight</b> 3 lbs.</p> \n<p>Sewn-in boning and laces allow this bodice to adjust your waist size in a way considered alluring by some cultures. The restrictive nature of this garment makes it a poor choice for combat or other athletic exertions, but you can easily conceal a thin knife in the corset's boning. The price varies greatly depending on the corset's quality; the cheapest corsets are made of simple cloth and cost mere silver pieces, while the most expensive feature silk brocade and are decorated with pearls or other costly adornments.</p> \n",
      "chat": "",
      "unidentified": ""
    },
    "tags": [],
    "quantity": 1,
    "weight": 3,
    "price": 0.1,
    "identified": true,
    "hp": {
      "max": 10,
      "value": 10
    },
    "hardness": 0,
    "carried": true,
    "unidentified": {
      "price": 0,
      "name": ""
    },
    "identifiedName": "",
    "cl": 0,
    "aura": {
      "custom": false,
      "school": ""
    },
    "changes": [],
    "changeFlags": {
      "loseDexToAC": false,
      "noStr": false,
      "noDex": false,
      "oneInt": false,
      "oneWis": false,
      "oneCha": false,
      "noEncumbrance": false,
      "mediumArmorFullSpeed": false,
      "heavyArmorFullSpeed": false
    },
    "contextNotes": [],
    "links": {
      "children": []
    },
    "tag": "",
    "useCustomTag": false,
    "subType": "gear",
    "equipped": false,
    "damage": {
      "parts": []
    }
  },
  "flags": {},
  "img": "systems/pf1/icons/items/inventory/dice.jpg",
  "effects": []
}