{
  "_id": "9bGfJ3KE5ns1yYob",
  "name": "Dung grenade",
  "permission": {
    "default": 0
  },
  "type": "loot",
  "data": {
    "description": {
      "value": "<p>Source&nbsp;<a href=\"http://paizo.com/products/btpy9s2i?Pathfinder-Player-Companion-Antiheros-Handbook\" target=\"_blank\" rel=\"noopener\">Antihero's Handbook pg. 28</a><br>Price&nbsp;100 gp;&nbsp;Weight&nbsp;1 lb.<br>Category&nbsp;Alchemical Weapons</p>\n<h3>Description</h3>\n<p>The casing of this modified fuse grenadeUE&nbsp;is partially filled with animal dung or guano. You can throw a dung grenade as a splash weapon with a range increment of 10 feet. Any creature directly hit by a dung grenade or in its splash radius takes 1d6 points of fire damage and is covered with the grenade’s malodorous contents, becoming sickened for 1d4 rounds. A target can attempt a DC 15 Reflex saving throw to halve the damage and the duration of the sickened condition. Crafting a dung grenade requires a successful DC 25 Craft (alchemy) check.</p>\n<h3>Construction</h3>\n<p>Craft (Alchemy)&nbsp;DC 25</p>",
      "chat": "",
      "unidentified": ""
    },
    "tags": [],
    "quantity": 1,
    "weight": 1,
    "price": 100,
    "identified": true,
    "hp": {
      "max": 10,
      "value": 10
    },
    "hardness": 0,
    "carried": true,
    "unidentified": {
      "price": 0,
      "name": ""
    },
    "identifiedName": "Dung grenade",
    "cl": 0,
    "aura": {
      "custom": false,
      "school": ""
    },
    "changes": [],
    "changeFlags": {
      "loseDexToAC": false,
      "noStr": false,
      "noDex": false,
      "oneInt": false,
      "oneWis": false,
      "oneCha": false,
      "noEncumbrance": false,
      "mediumArmorFullSpeed": false,
      "heavyArmorFullSpeed": false
    },
    "contextNotes": [],
    "links": {
      "children": []
    },
    "tag": "",
    "useCustomTag": false,
    "subType": "gear",
    "equipped": false,
    "damage": {
      "parts": []
    }
  },
  "flags": {},
  "img": "systems/pf1/icons/items/inventory/dice.jpg",
  "effects": []
}