{
  "_id": "ojqyhmuouucqqnay",
  "name": "Kit, Undeath Aid",
  "permission": {
    "default": 0
  },
  "type": "loot",
  "data": {
    "description": {
      "value": "\r\n<p class=\"source\"><b>Source</b>: <a title=\"PZO9444\" href=\"http://www.amazon.com/gp/product/1601256043/ref=as_li_qf_sp_asin_il_tl?ie=UTF8&amp;camp=1789&amp;creative=9325&amp;creativeASIN=1601256043&amp;linkCode=as2&amp;tag=httpwwwd20pfs-20&amp;linkId=RI56HP6FPZYWBQMM\" target=\"_blank\" rel=\"noopener\">USH</a></p>\r\n<p><b>Price</b> 500 gp; <b>Weight</b> 1/2 lb.</p>\r\n<p>This small leather satchel contains various alchemical remedies that treat common maladies caused by exposure to <a href=\"https://www.d20pfsrd.com/bestiary/rules-for-monsters/creature-types#TOC-Undead\">undead</a>. An undeath aid kit contains 1 dose of each of the following alchemical remedies: <a href=\"https://www.d20pfsrd.com/equipment/goods-and-services/herbs-oils-other-substances#TOC-Antiplague\">antiplague</a>, <a href=\"https://www.d20pfsrd.com/equipment/goods-and-services/herbs-oils-other-substances#TOC-Antitoxin\">antitoxin</a>, padzahr, soul stimulant, and twitch tonic.</p>\r\n\r\n",
      "chat": "",
      "unidentified": ""
    },
    "tags": [],
    "quantity": 1,
    "weight": 0.5,
    "price": 500,
    "identified": true,
    "hp": {
      "max": 10,
      "value": 10
    },
    "hardness": 0,
    "carried": true,
    "unidentified": {
      "price": 0,
      "name": ""
    },
    "identifiedName": "",
    "cl": 0,
    "aura": {
      "custom": false,
      "school": ""
    },
    "changes": [],
    "changeFlags": {
      "loseDexToAC": false,
      "noStr": false,
      "noDex": false,
      "oneInt": false,
      "oneWis": false,
      "oneCha": false,
      "noEncumbrance": false,
      "mediumArmorFullSpeed": false,
      "heavyArmorFullSpeed": false
    },
    "contextNotes": [],
    "links": {
      "children": []
    },
    "tag": "",
    "useCustomTag": false,
    "subType": "gear",
    "equipped": false,
    "damage": {
      "parts": []
    }
  },
  "flags": {},
  "img": "systems/pf1/icons/items/inventory/dice.jpg",
  "effects": []
}