{
  "_id": "xdzgeyaejzeyilhn",
  "name": "Kit, Trickster's",
  "permission": {
    "default": 0
  },
  "type": "loot",
  "data": {
    "description": {
      "value": "\r\n<p class=\"source\"><b>Source</b>: <a title=\"PZO9434\" href=\"http://www.amazon.com/gp/product/1601255268/ref=as_li_qf_sp_asin_il_tl?ie=UTF8&amp;camp=1789&amp;creative=9325&amp;creativeASIN=1601255268&amp;linkCode=as2&amp;tag=httpwwwd20pfs-20&amp;linkId=7EXQGV2FQUCT7FFS\" target=\"_blank\" rel=\"noopener\">PZO9434</a></p>\r\n<p><b>Price</b> 474 gp; <b>Weight</b> 23 lbs.</p>\r\n<p>For those brave enough to match wits with draconic intellects, this kit can help a dragonslayer sneak into or out of a <a href=\"https://www.d20pfsrd.com/bestiary/rules-for-monsters/creature-types#TOC-Dragon\">dragon's</a> lair or trick a <a href=\"https://www.d20pfsrd.com/bestiary/rules-for-monsters/creature-types#TOC-Dragon\">dragon</a> should the interloper be discovered.</p>\r\n<p>It includes a pot of alchemical grease, a board game, five candles, a candle lamp, a common snorkel, fake footprint shoes, a <a href=\"https://www.d20pfsrd.com/gamemastering/combat#TOC-Grapple\">grappling</a> hook, a mirror, a periscope, a <a href=\"https://www.d20pfsrd.com/magic-items/potions\">potion of</a> <a class=\"spell\" href=\"https://www.d20pfsrd.com/magic/all-spells/e/eagle-s-splendor\">eagle's splendor</a>, two sacks, a <a href=\"https://www.d20pfsrd.com/gamemastering/special-abilities#TOC-Scent\">scent</a> cloak, 50 feet of silk rope, a <a href=\"https://www.d20pfsrd.com/equipment/goods-and-services#TOC-Smokestick\">smokestick</a>, a dose of sneezing powder, five tindertwigs, and 50 feet of twine.</p>\r\n\r\n",
      "chat": "",
      "unidentified": ""
    },
    "tags": [],
    "quantity": 1,
    "weight": 23,
    "price": 474,
    "identified": true,
    "hp": {
      "max": 10,
      "value": 10
    },
    "hardness": 0,
    "carried": true,
    "unidentified": {
      "price": 0,
      "name": ""
    },
    "identifiedName": "",
    "cl": 0,
    "aura": {
      "custom": false,
      "school": ""
    },
    "changes": [],
    "changeFlags": {
      "loseDexToAC": false,
      "noStr": false,
      "noDex": false,
      "oneInt": false,
      "oneWis": false,
      "oneCha": false,
      "noEncumbrance": false,
      "mediumArmorFullSpeed": false,
      "heavyArmorFullSpeed": false
    },
    "contextNotes": [],
    "links": {
      "children": []
    },
    "tag": "",
    "useCustomTag": false,
    "subType": "gear",
    "equipped": false,
    "damage": {
      "parts": []
    }
  },
  "flags": {},
  "img": "systems/pf1/icons/items/inventory/dice.jpg",
  "effects": []
}