{
  "_id": "jtnhlonprmebmcvw",
  "name": "Kit, Animal Call",
  "permission": {
    "default": 0
  },
  "type": "loot",
  "data": {
    "description": {
      "value": "\r\n<p><b>Price</b> 1 sp; <b>Weight</b> -</p>\r\n<p>These reed or bamboo whistles mimic the calls of various wild animals. Each whistle is keyed to a specific type of animal and a specific call (usually signaling the availability of food or a mate to draw the animal closer). Using the correct whistle gives you a +2 bonus on <a href=\"https://www.d20pfsrd.com/skills/survival\" target=\"_blank\" rel=\"noopener\">Survival</a> checks to track animals of the specific animal type or to get along in the wild.</p>\r\n\r\n",
      "chat": "",
      "unidentified": ""
    },
    "tags": [],
    "quantity": 1,
    "weight": 0,
    "price": 0.1,
    "identified": true,
    "hp": {
      "max": 10,
      "value": 10
    },
    "hardness": 0,
    "carried": true,
    "unidentified": {
      "price": 0,
      "name": ""
    },
    "identifiedName": "",
    "cl": 0,
    "aura": {
      "custom": false,
      "school": ""
    },
    "changes": [],
    "changeFlags": {
      "loseDexToAC": false,
      "noStr": false,
      "noDex": false,
      "oneInt": false,
      "oneWis": false,
      "oneCha": false,
      "noEncumbrance": false,
      "mediumArmorFullSpeed": false,
      "heavyArmorFullSpeed": false
    },
    "contextNotes": [],
    "links": {
      "children": []
    },
    "tag": "",
    "useCustomTag": false,
    "subType": "gear",
    "equipped": false,
    "damage": {
      "parts": []
    }
  },
  "flags": {},
  "img": "systems/pf1/icons/items/inventory/dice.jpg",
  "effects": []
}