{
  "_id": "KPNvysfviHeHJ3PY",
  "name": "Pull-cord grenade",
  "permission": {
    "default": 0
  },
  "type": "loot",
  "data": {
    "description": {
      "value": "<p>Source&nbsp;<a href=\"http://paizo.com/products/btpy9h7x?Pathfinder-Player-Companion-Black-Markets\" target=\"_blank\" rel=\"noopener\">Black Markets pg. 21</a><br>Price&nbsp;150 gp;&nbsp;Weight&nbsp;2 lbs.<br>Category&nbsp;Adventuring Gear</p>\n<h3>Description</h3>\n<p>This clay container resembles a fuse grenadeUE, but trails a pulley and wire rather than a fuse. Pulling the cord (a move action) sparks a flint and steel within the device, causing the grenade to explode. The pull cord can be attached to a door or drawer within 5 feet, or strung across a 5-foot square, causing the grenade to detonate when its tripwire is disturbed. A pull-cord grenade cannot be reused.<br><br>This can be crafted with a DC 25 Craft (traps) check.</p>\n<h2>Pull-Cord Grenade</h2>\n<p>Type&nbsp;mechanical;&nbsp;Perception&nbsp;DC 15;&nbsp;Disable Device&nbsp;DC 15</p>\n<h3>Effects</h3>\n<p>Trigger&nbsp;touch;&nbsp;Reset&nbsp;none<br>Effect&nbsp;explosion (2d6 bludgeoning damage and 1d6 fire damage); Reflex DC 15 half; multiple targets (all targets within 10 feet)</p>",
      "chat": "",
      "unidentified": ""
    },
    "tags": [],
    "quantity": 1,
    "weight": 2,
    "price": 150,
    "identified": true,
    "hp": {
      "max": 10,
      "value": 10
    },
    "hardness": 0,
    "carried": true,
    "unidentified": {
      "price": 0,
      "name": ""
    },
    "identifiedName": "Pull-cord grenade",
    "cl": 0,
    "aura": {
      "custom": false,
      "school": ""
    },
    "changes": [],
    "changeFlags": {
      "loseDexToAC": false,
      "noStr": false,
      "noDex": false,
      "oneInt": false,
      "oneWis": false,
      "oneCha": false,
      "noEncumbrance": false,
      "mediumArmorFullSpeed": false,
      "heavyArmorFullSpeed": false
    },
    "contextNotes": [],
    "links": {
      "children": []
    },
    "tag": "",
    "useCustomTag": false,
    "subType": "gear",
    "equipped": false,
    "damage": {
      "parts": []
    }
  },
  "flags": {},
  "img": "systems/pf1/icons/items/inventory/dice.jpg",
  "effects": []
}