{
  "_id": "jzvhmlzsqlmkunen",
  "name": "Rations, Orc Trail",
  "permission": {
    "default": 0
  },
  "type": "loot",
  "data": {
    "description": {
      "value": "<h4><span id=\"Rations_Orc_Trail\"><a name=\"TOC-Rations-Orc-Trail\"></a>Rations, Orc Trail</span></h4>\r\n<p><b>Price</b> 1 gp; <b>Weight</b> 1 lb.</p>\r\n<p>A typical orc trail ration consists of coarse black bread, thin sausages as hard as leather that must be chewed slowly to soften them, dried meat of uncertain origin, and pungent peppers. If you are an orc or half-orc who subsists on nothing but these rations for at least 1 week, you add +2 to the DC to resist any Intimidate checks you make. This bonus lasts until you eat a meal other than the rations or go for a full day without eating a day's worth.</p>\r\n",
      "chat": "",
      "unidentified": ""
    },
    "tags": [],
    "quantity": 1,
    "weight": 1,
    "price": 1,
    "identified": true,
    "hp": {
      "max": 10,
      "value": 10
    },
    "hardness": 0,
    "carried": true,
    "unidentified": {
      "price": 0,
      "name": ""
    },
    "identifiedName": "Rations, Orc Trail",
    "cl": 0,
    "aura": {
      "custom": false,
      "school": ""
    },
    "changes": [],
    "changeFlags": {
      "loseDexToAC": false,
      "noStr": false,
      "noDex": false,
      "oneInt": false,
      "oneWis": false,
      "oneCha": false,
      "noEncumbrance": false,
      "mediumArmorFullSpeed": false,
      "heavyArmorFullSpeed": false
    },
    "contextNotes": [],
    "links": {
      "children": []
    },
    "tag": "",
    "useCustomTag": false,
    "subType": "gear",
    "equipped": false,
    "damage": {
      "parts": []
    }
  },
  "flags": {},
  "img": "systems/pf1/icons/items/inventory/meat.jpg",
  "effects": []
}