{
  "_id": "twywiikyzvkmxdmt",
  "name": "Rockshard Canister",
  "permission": {
    "default": 0
  },
  "type": "loot",
  "data": {
    "description": {
      "value": " \n<p class=\"source\"><b>Source</b> <a title=\"PZO9468\" href=\"http://www.amazon.com/gp/product/1601257325/ref=as_li_qf_sp_asin_il_tl?ie=UTF8&amp;camp=1789&amp;creative=9325&amp;creativeASIN=1601257325&amp;linkCode=as2&amp;tag=httpwwwd20pfs-20&amp;linkId=RTYNEYJM7WKLVCFB\" target=\"_blank\" rel=\"noopener\">PZO9468</a></p> \n<p><b>Price</b> 50 gp; <b>Weight</b> 25 lbs.</p> \n<p>Two separate compartments make up this black glass canister the size of a helmet. The large lower compartment contains hundreds of jagged shards of obsidian. The upper airtight chamber contains a sticky resin that hardens immediately upon contact with air. When you strike the canister with a bludgeoning melee weapon as a <a href=\"https://www.d20pfsrd.com/gamemastering/combat#TOC-Standard-Actions\">standard action</a>, both compartments <a class=\"spell\" href=\"https://www.d20pfsrd.com/magic/all-spells/s/shatter\">shatter</a>, causing the obsidian shards to adhere to the weapon.</p> \n<p>The weapon deals piercing damage rather than bludgeoning damage for 10 minutes, at which point the resin dries and the shards fall off, or until you roll a natural 1 on an <a href=\"https://www.d20pfsrd.com/gamemastering/combat#TOC-Attack-Roll\">attack roll</a>, which causes the shards to break off prematurely. If the weapon is made of a special material, the special properties of its material are suppressed while the obsidian shards adhere to the weapon.</p> \n<p>If you use a rockshard canister to coat an <a href=\"https://www.d20pfsrd.com/equipment/weapons/weapon-descriptions/strike-unarmed\">unarmed strike</a> or <a href=\"https://www.d20pfsrd.com/bestiary/rules-for-monsters/universal-monster-rules#TOC-Natural-Attacks\">natural weapon</a>, you take 2d6 points of piercing damage when shattering the canister to apply the shards. For unarmed attacks, this can be avoided by carefully applying thick leather or <a href=\"https://www.d20pfsrd.com/equipment/goods-and-services/hunting-camping-survival-gear#TOC-Rope\">rope</a> straps to your hands and feet, which requires 5 minutes of work, prior to smashing the canister.</p> \n",
      "chat": "",
      "unidentified": ""
    },
    "tags": [],
    "quantity": 1,
    "weight": 0,
    "price": 0,
    "identified": true,
    "hp": {
      "max": 10,
      "value": 10
    },
    "hardness": 0,
    "carried": true,
    "unidentified": {
      "price": 0,
      "name": ""
    },
    "identifiedName": "",
    "cl": 0,
    "aura": {
      "custom": false,
      "school": ""
    },
    "changes": [],
    "changeFlags": {
      "loseDexToAC": false,
      "noStr": false,
      "noDex": false,
      "oneInt": false,
      "oneWis": false,
      "oneCha": false,
      "noEncumbrance": false,
      "mediumArmorFullSpeed": false,
      "heavyArmorFullSpeed": false
    },
    "contextNotes": [],
    "links": {
      "children": []
    },
    "tag": "",
    "useCustomTag": false,
    "subType": "gear",
    "equipped": false,
    "damage": {
      "parts": []
    }
  },
  "flags": {},
  "img": "systems/pf1/icons/items/inventory/dice.jpg",
  "effects": []
}