{
  "_id": "spzuundslwhwcrfn",
  "name": "Telescope",
  "permission": {
    "default": 0
  },
  "type": "loot",
  "data": {
    "description": {
      "value": "\r\n<p class=\"source\"><b>Source</b>: <a href=\"http://www.amazon.com/gp/product/1601256744/ref=as_li_qf_sp_asin_il_tl?ie=UTF8&amp;camp=1789&amp;creative=9325&amp;creativeASIN=1601256744&amp;linkCode=as2&amp;tag=httpwwwd20pfs-20&amp;linkId=4CUCLPOLIRC4OYCF\" target=\"_blank\" rel=\"noopener\">PZO9449</a></p>\r\n<p><b>Price</b> 2,000-8,000 gp; <b>Weight</b> 12-44 lbs.</p>\r\n<p>This basic, semi-portable telescope allows the user to see greater detail on very distant objects. Telescopes can be built to a variety of specifications, but those most often used by adventuring stargazers are listed here. A telescope grants the listed <a href=\"https://www.d20pfsrd.com/basics-ability-scores/glossary#TOC-Circumstance-Bonus\">circumstance bonus</a> (+2, +4, or +6) on <a href=\"https://www.d20pfsrd.com/skills/perception\">Perception</a> checks (see table above) to discern celestial bodies and on <a href=\"https://www.d20pfsrd.com/skills/knowledge\">Knowledge</a> (geography) checks to learn about the planets when used at night.</p>\r\n<p>A telescope can be used to look at either terrestrial or celestial objects. Distance penalties on <a href=\"https://www.d20pfsrd.com/skills/perception\">Perception</a> checks for viewing objects through the telescope are divided by the telescope's magnification. Assembling, disassembling, or significantly moving a telescope takes 1 minute.</p>\r\n\r\n",
      "chat": "",
      "unidentified": ""
    },
    "tags": [],
    "quantity": 1,
    "weight": 12,
    "price": 2000,
    "identified": true,
    "hp": {
      "max": 10,
      "value": 10
    },
    "hardness": 0,
    "carried": true,
    "unidentified": {
      "price": 0,
      "name": ""
    },
    "identifiedName": "",
    "cl": 0,
    "aura": {
      "custom": false,
      "school": ""
    },
    "changes": [],
    "changeFlags": {
      "loseDexToAC": false,
      "noStr": false,
      "noDex": false,
      "oneInt": false,
      "oneWis": false,
      "oneCha": false,
      "noEncumbrance": false,
      "mediumArmorFullSpeed": false,
      "heavyArmorFullSpeed": false
    },
    "contextNotes": [],
    "links": {
      "children": []
    },
    "tag": "",
    "useCustomTag": false,
    "subType": "gear",
    "equipped": false,
    "damage": {
      "parts": []
    }
  },
  "flags": {},
  "img": "systems/pf1/icons/items/inventory/dice.jpg",
  "effects": []
}