{
  "_id": "vdmttqpwhvyukpyh",
  "name": "Thurible",
  "permission": {
    "default": 0
  },
  "type": "loot",
  "data": {
    "description": {
      "value": "<h4><span id=\"Thurible\"><a name=\"TOC-Thurible\"></a>Thurible</span></h4>\r\n<p><b>Price</b> 50 gp; <b>Weight</b> 3 lbs.</p>\r\n<p>When filled with coal and common herbs worth 2 sp, this miniature brazier fills an area 30 feet in diameter with light smoke for 1 hour. Any creature in the area of this smoke gains a +2 circumstance bonus on <a href=\"https://www.d20pfsrd.com/gamemastering/combat/#TOC-Fortitude\">Fortitude</a> saves to resist inhaled diseases.</p>\r\n",
      "chat": "",
      "unidentified": ""
    },
    "tags": [],
    "quantity": 1,
    "weight": 3,
    "price": 50,
    "identified": true,
    "hp": {
      "max": 10,
      "value": 10
    },
    "hardness": 0,
    "carried": true,
    "unidentified": {
      "price": 0,
      "name": ""
    },
    "identifiedName": "",
    "cl": 0,
    "aura": {
      "custom": false,
      "school": ""
    },
    "changes": [],
    "changeFlags": {
      "loseDexToAC": false,
      "noStr": false,
      "noDex": false,
      "oneInt": false,
      "oneWis": false,
      "oneCha": false,
      "noEncumbrance": false,
      "mediumArmorFullSpeed": false,
      "heavyArmorFullSpeed": false
    },
    "contextNotes": [],
    "links": {
      "children": []
    },
    "tag": "",
    "useCustomTag": false,
    "subType": "gear",
    "equipped": false,
    "damage": {
      "parts": []
    }
  },
  "flags": {},
  "img": "systems/pf1/icons/items/inventory/dice.jpg",
  "effects": []
}