{
  "_id": "nsdvnijfbvjmamwv",
  "name": "Tonic, Twitch",
  "permission": {
    "default": 0
  },
  "type": "loot",
  "data": {
    "description": {
      "value": "\r\n<p><b>Price</b> 45 gp; <b>Weight</b> -</p>\r\n<p>This thick syrup is extracted from bitter herbs and enhanced by alchemy to ward against <a class=\"spell\" href=\"https://www.d20pfsrd.com/magic/all-spells/s/sleep\">sleep</a>, <a href=\"https://www.d20pfsrd.com/gamemastering/special-abilities#TOC-Paralysis\">paralysis</a>, and the <a href=\"https://www.d20pfsrd.com/gamemastering/conditions#TOC-Staggered\">staggered</a> condition. If you drink twitch tonic, you gain a +2 <a href=\"https://www.d20pfsrd.com/basics-ability-scores/glossary#TOC-Bonus-Alchemical-\">alchemical bonus</a> on saving throws made against these effects for the next hour. If you drink twitch tonic while suffering from any of these effects, you may immediately roll another saving throw against the effect (with the +2 bonus); you may gain this particular benefit only once per day. You can administer twitch tonic to an <a href=\"https://www.d20pfsrd.com/gamemastering/conditions#TOC-Unconscious\">unconscious</a> or <a href=\"https://www.d20pfsrd.com/gamemastering/conditions#TOC-Paralyzed\">paralyzed</a> creature as a <a href=\"https://www.d20pfsrd.com/gamemastering/combat#TOC-Full-Round-Actions\">full-round action</a>, similar to administering a <a class=\"magic-item\" href=\"https://www.d20pfsrd.com/magic-items/potions\">potion</a>.</p>\r\n",
      "chat": "",
      "unidentified": ""
    },
    "tags": [],
    "quantity": 1,
    "weight": 0,
    "price": 45,
    "identified": true,
    "hp": {
      "max": 10,
      "value": 10
    },
    "hardness": 0,
    "carried": true,
    "unidentified": {
      "price": 0,
      "name": ""
    },
    "identifiedName": "",
    "cl": 0,
    "aura": {
      "custom": false,
      "school": ""
    },
    "changes": [],
    "changeFlags": {
      "loseDexToAC": false,
      "noStr": false,
      "noDex": false,
      "oneInt": false,
      "oneWis": false,
      "oneCha": false,
      "noEncumbrance": false,
      "mediumArmorFullSpeed": false,
      "heavyArmorFullSpeed": false
    },
    "contextNotes": [],
    "links": {
      "children": []
    },
    "tag": "",
    "useCustomTag": false,
    "subType": "gear",
    "equipped": false,
    "damage": {
      "parts": []
    }
  },
  "flags": {},
  "img": "systems/pf1/icons/items/inventory/dice.jpg",
  "effects": []
}