{
  "_id": "pkqnjlqjlxlhyfjk",
  "name": "Tool, Masterwork",
  "permission": {
    "default": 0
  },
  "type": "loot",
  "data": {
    "description": {
      "value": "\r\n<p><b>Price</b> 50 gp; <b>Weight</b> 1 lb.</p>\r\n<p>This tool is perfect for its intended job. It grants a +2 <a href=\"https://www.d20pfsrd.com/basics-ability-scores/glossary#TOC-Circumstance-Bonus\">circumstance bonus</a> on a related skill check (if any). The bonuses provided by multiple masterwork items do not stack.</p>\r\n<p>Several common items already count as masterwork tools for particular skills. These are the alchemist's lab, climber's kit, disguise kit, healer's kit, masterwork musical instrument, and masterwork thieves' tools. Therefore, there is no masterwork climber's kit, masterwork healer's kit, and so on-those items are already the best available for general checks with the relevant skill.</p>\r\n<p>Some skills have no appropriate tool or masterwork tool-no non-magical item exists that grants a bonus for all uses of that skill. For example, just because a certain perfume is favored by local nobles (granting a +2 <a href=\"https://www.d20pfsrd.com/basics-ability-scores/glossary#TOC-Circumstance-Bonus\">circumstance bonus</a> on <a href=\"https://www.d20pfsrd.com/skills/diplomacy\">Diplomacy</a> checks to influence them) doesn't mean that perfume has the same effect on a member of the thieves' guild, a foreign berserker, or a medusa. Likewise, just because a fake beard woven by <a href=\"https://www.d20pfsrd.com/races/core-races/dwarf\">dwarves</a> out of the beards of famous <a href=\"https://www.d20pfsrd.com/races/core-races/dwarf\">dwarves</a> may grant a +2 <a href=\"https://www.d20pfsrd.com/basics-ability-scores/glossary#TOC-Circumstance-Bonus\">circumstance bonus</a> on <a href=\"https://www.d20pfsrd.com/skills/use-magic-device\">Use Magic Device</a> checks to emulate the dwarven race doesn't mean the beard has any effect on using that skill to <a href=\"https://www.d20pfsrd.com/gamemastering/combat#TOC-Activate-Magic-Item\">activate</a> elven items or <a href=\"https://www.d20pfsrd.com/classes/core-classes/paladin\">paladin</a> items, or to decipher a written spell.</p>\r\n<p>Individual GMs may want to allow masterwork tools for other skills at the listed cost. The <a href=\"https://www.d20pfsrd.com/basics-ability-scores/glossary#TOC-Circumstance-Bonus\">circumstance bonus</a> for such a tool should never be more than +2. The tool should either have a limited number of uses (such as the disguise and healer's kits) or only apply to certain aspects of the skill (such as the balancing pole's bonus on <a href=\"https://www.d20pfsrd.com/skills/acrobatics\">Acrobatics</a> checks to traverse a narrow surface or the magnifying glass's bonus on <a href=\"https://www.d20pfsrd.com/skills/appraise\">Appraise</a> checks for detailed items).</p>\r\n\r\n",
      "chat": "",
      "unidentified": ""
    },
    "tags": [],
    "quantity": 1,
    "weight": 1,
    "price": 50,
    "identified": true,
    "hp": {
      "max": 10,
      "value": 10
    },
    "hardness": 0,
    "carried": true,
    "unidentified": {
      "price": 0,
      "name": ""
    },
    "identifiedName": "",
    "cl": 0,
    "aura": {
      "custom": false,
      "school": ""
    },
    "changes": [],
    "changeFlags": {
      "loseDexToAC": false,
      "noStr": false,
      "noDex": false,
      "oneInt": false,
      "oneWis": false,
      "oneCha": false,
      "noEncumbrance": false,
      "mediumArmorFullSpeed": false,
      "heavyArmorFullSpeed": false
    },
    "contextNotes": [],
    "links": {
      "children": []
    },
    "tag": "",
    "useCustomTag": false,
    "subType": "gear",
    "equipped": false,
    "damage": {
      "parts": []
    }
  },
  "flags": {},
  "img": "systems/pf1/icons/items/inventory/dice.jpg",
  "effects": []
}