{
  "_id": "9OAxJICb7xkxnclB",
  "name": "Tools, Thieves' (Concealable)",
  "permission": {
    "default": 0
  },
  "type": "loot",
  "data": {
    "description": {
      "value": "<p>This kit contains lockpicks and other tools you need to use the @Compendium[pf1.skills.CCy1fajKKU3K02iQ]{Disable Device} skill. Without these tools, you must use improvised tools, and you take a -2 circumstance penalty on @Compendium[pf1.skills.CCy1fajKKU3K02iQ]{Disable Device} checks.</p>\n<p>Smaller and made of stronger materials than most <a href=\"https://www.d20pfsrd.com/equipment/goods-and-services/hunting-camping-survival-geaR/#TOC-Tools-Thieves-\">thieves' tools</a>, the items in this kit are much easier to conceal. You gain a +4 bonus on @Compendium[pf1.skills.zK0CbvpYLZhTN5Wn]{Sleight of Hand}&nbsp;skill checks to conceal these tools on your body. They otherwise function as masterwork thieves tools (granting a +2 <a href=\"https://www.d20pfsrd.com/basics-ability-scores/glossary#TOC-Circumstance-Bonus\">circumstance bonus</a> on @Compendium[pf1.skills.CCy1fajKKU3K02iQ]{Disable Device}&nbsp;checks). <strong>Source</strong> <a href=\"http://www.opengamingstore.com/collections/all-products/products/ultimate-intrigue-pathfinder-rpg\" target=\"_blank\" rel=\"noopener\">PZO1134</a></p>",
      "chat": "",
      "unidentified": ""
    },
    "tags": [],
    "quantity": 1,
    "weight": 0.5,
    "price": 190,
    "identified": true,
    "hp": {
      "max": 10,
      "value": 10
    },
    "hardness": 0,
    "carried": true,
    "unidentified": {
      "price": 0,
      "name": ""
    },
    "identifiedName": "Tools, Thieves' (Concealable)",
    "cl": 0,
    "aura": {
      "custom": false,
      "school": ""
    },
    "changes": [],
    "changeFlags": {
      "loseDexToAC": false,
      "noStr": false,
      "noDex": false,
      "oneInt": false,
      "oneWis": false,
      "oneCha": false,
      "noEncumbrance": false,
      "mediumArmorFullSpeed": false,
      "heavyArmorFullSpeed": false
    },
    "contextNotes": [],
    "links": {
      "children": []
    },
    "tag": "",
    "useCustomTag": false,
    "subType": "gear",
    "equipped": false,
    "damage": {
      "parts": [],
      "critParts": [],
      "nonCritParts": []
    }
  },
  "flags": {},
  "img": "systems/pf1/icons/items/inventory/lockpick.jpg",
  "effects": []
}