{
  "_id": "jkqojuedexzlhlzb",
  "name": "Twilight Dagger",
  "permission": {
    "default": 0
  },
  "type": "loot",
  "data": {
    "description": {
      "value": "\r\n<p class=\"source\"><b>Source</b> <a href=\"http://www.amazon.com/gp/product/1601257333/ref=as_li_qf_sp_asin_il_tl?ie=UTF8&amp;camp=1789&amp;creative=9325&amp;creativeASIN=1601257333&amp;linkCode=as2&amp;tag=httpwwwd20pfs-20&amp;linkId=WZYATLHD5OTE6DCI\" target=\"_blank\" rel=\"noopener\">Heroes of the Wild</a></p>\r\n<p><b>Price</b> 50 gp; <b>Check</b> <a href=\"https://www.d20pfsrd.com/skills/profession\">Profession</a> (herbalist) DC 18; <b>Weight</b> -; <b>Terrain</b> deserts</p>\r\n<p>Found most often in lands heavily modified by magic, this bulbous cactus is topped with twilight-blue flowers.</p>\r\n<p>The <a href=\"https://www.d20pfsrd.com/equipment/weapons/weapon-descriptions/sap\">sap</a> from the cactus can be used as an additive when crafting <a class=\"magic-item\" href=\"https://www.d20pfsrd.com/magic-items/potions\">potions</a>, causing all variable numeric effects of the <a class=\"magic-item\" href=\"https://www.d20pfsrd.com/magic-items/potions\">potion</a> to be determined as if the <a class=\"magic-item\" href=\"https://www.d20pfsrd.com/magic-items/potions\">potion's</a> <a href=\"https://www.d20pfsrd.com/magic#TOC-Caster-Level\">caster level</a> were 1 higher.</p>\r\n<p>When processed into a powder with a successful DC 15 <a href=\"https://www.d20pfsrd.com/skills/craft\">Craft</a> (alchemy) check, Twilight dagger can be used as an additional material component when casting spells, granting the user a +1 <a href=\"https://www.d20pfsrd.com/basics-ability-scores/glossary#TOC-Bonus-Alchemical-\">alchemical bonus</a> on <a href=\"https://www.d20pfsrd.com/magic#TOC-Caster-Level\">caster level</a> checks to overcome <a href=\"https://www.d20pfsrd.com/gamemastering/special-abilities#TOC-Spell-Resistance\">spell resistance</a>.</p>\r\n",
      "chat": "",
      "unidentified": ""
    },
    "tags": [],
    "quantity": 1,
    "weight": 0,
    "price": 50,
    "identified": true,
    "hp": {
      "max": 10,
      "value": 10
    },
    "hardness": 0,
    "carried": true,
    "unidentified": {
      "price": 0,
      "name": ""
    },
    "identifiedName": "",
    "cl": 0,
    "aura": {
      "custom": false,
      "school": ""
    },
    "changes": [],
    "changeFlags": {
      "loseDexToAC": false,
      "noStr": false,
      "noDex": false,
      "oneInt": false,
      "oneWis": false,
      "oneCha": false,
      "noEncumbrance": false,
      "mediumArmorFullSpeed": false,
      "heavyArmorFullSpeed": false
    },
    "contextNotes": [],
    "links": {
      "children": []
    },
    "tag": "",
    "useCustomTag": false,
    "subType": "gear",
    "equipped": false,
    "damage": {
      "parts": []
    }
  },
  "flags": {},
  "img": "systems/pf1/icons/items/inventory/dice.jpg",
  "effects": []
}