{
  "_id": "vVwRLC3OFfmmkTaS",
  "name": "Wrist sheath",
  "permission": {
    "default": 0
  },
  "type": "loot",
  "data": {
    "description": {
      "value": "<p>Source&nbsp;<a href=\"http://paizo.com/products/btpy8tmc?Pathfinder-Roleplaying-Game-Ultimate-Equipment\" target=\"_blank\" rel=\"noopener\">Ultimate Equipment pg. 58</a>,&nbsp;<a href=\"http://paizo.com/store/downloads/pathfinder/pathfinderCompanion/pathfinderRPG/v5748btpy8dmf\" target=\"_blank\" rel=\"noopener\">Adventurer's Armory pg. 19</a><br>Price&nbsp;1 gp;&nbsp;Weight&nbsp;1 lb.<br>Category&nbsp;Adventuring Gear</p>\n<h3>Description</h3>\n<p>This is a sheath designed to be strapped to your forearm and hidden under a long sleeve. The sheath can hold one forearmlength item, such as a dagger, dart, or wand, or up to five arrows or crossbow bolts. As a move action, you can bend your wrist to cause some or all of these items to drop into your hand (provoking attacks of opportunity as normal). You have a +2 bonus on Sleight of Hand checks made to oppose the Perception check of someone observing or frisking you to determine items in the sheath. You can only wear one wrist sheath per arm.</p>",
      "chat": "",
      "unidentified": ""
    },
    "tags": [],
    "quantity": 1,
    "weight": 1,
    "price": 1,
    "identified": true,
    "hp": {
      "max": 10,
      "value": 10
    },
    "hardness": 0,
    "carried": true,
    "unidentified": {
      "price": 0,
      "name": ""
    },
    "identifiedName": "Wrist sheath",
    "cl": 0,
    "aura": {
      "custom": false,
      "school": ""
    },
    "changes": [],
    "changeFlags": {
      "loseDexToAC": false,
      "noStr": false,
      "noDex": false,
      "oneInt": false,
      "oneWis": false,
      "oneCha": false,
      "noEncumbrance": false,
      "mediumArmorFullSpeed": false,
      "heavyArmorFullSpeed": false
    },
    "contextNotes": [],
    "links": {
      "children": []
    },
    "tag": "",
    "useCustomTag": false,
    "subType": "gear",
    "equipped": false,
    "damage": {
      "parts": []
    }
  },
  "flags": {},
  "img": "systems/pf1/icons/items/inventory/dice.jpg",
  "effects": []
}