{
  "_id": "YibSkrURB0yHprQK",
  "name": "Abyssal Bloodline",
  "permission": {
    "default": 0
  },
  "type": "feat",
  "data": {
    "description": {
      "value": "<p><em>Generations ago, a demon spread its filth into your heritage. While it does not manifest in all of your kin, for you it is particularly strong. You might sometimes have urges to chaos or evil, but your destiny (and alignment) is up to you.</em></p>\n<p><strong>Class Skill:</strong>&nbsp;<a href=\"https://www.d20pfsrd.com/skills/knowledge\" rel=\"nofollow\">Knowledge</a>&nbsp;(planes).</p>\n<p><strong>Bonus Spells:</strong></p>\n<ul>\n<li>@Compendium[pf1.spells.9tww9fc9049h6iqc]{Cause Fear}&nbsp;(3rd),</li>\n<li>@Compendium[pf1.spells.05i5rxwim12hwktu]{Bull's Strength}&nbsp;(5th),</li>\n<li>@Compendium[pf1.spells.8u1xa5javcxc6szk]{Rage}&nbsp;(7th),</li>\n<li>@Compendium[pf1.spells.knyako6zopc1chrv]{Stoneskin}(9th),</li>\n<li>@Compendium[pf1.spells.k3zn13pbr5tr9zac]{Dismissal}&nbsp;(11th),</li>\n<li>@Compendium[pf1.spells.9pbl3ktd5oqejl19]{Transformation}&nbsp;(13th),</li>\n<li>@Compendium[pf1.spells.5cdmojmydhwowzy1]{Teleport, Greater}&nbsp;(15th),</li>\n<li>@Compendium[pf1.spells.flrn1xmm2wfrxbkf]{Unholy Aura}&nbsp;(17th),</li>\n<li>@Compendium[pf1.spells.mi52crelhwuy6bmp]{Summon Monster IX}&nbsp;(19th).</li>\n</ul>\n<p><strong>Bonus Feats:</strong></p>\n<ul>\n<li>@Compendium[pf1.feats.7bJjKqNRrvpXJ4L3]{Augment Summoning},</li>\n<li>@Compendium[pf1.feats.Zeq6RWYv5otvg8q7]{Cleave},</li>\n<li>@Compendium[pf1.feats.77gXSucrxfrE9yWk]{Empower Spell},</li>\n<li>@Compendium[pf1.feats.fVRnBIHR4Jq6btvm]{Great Fortitude},</li>\n<li>@Compendium[pf1.feats.dn2KgHFQRbuoNRx0]{Improved Bull Rush},</li>\n<li>@Compendium[pf1.feats.lpXdFoT6OqS5vi2X]{Improved Sunder},</li>\n<li>@Compendium[pf1.feats.FUW5mIXHNBBIQ1Sq]{Power Attack},</li>\n<li>@Compendium[pf1.feats.7zJTztNW7hdaqjKc]{Skill Focus}&nbsp;(<a href=\"https://www.d20pfsrd.com/skills/knowledge\" rel=\"nofollow\">Knowledge</a>&nbsp;[planes]).</li>\n</ul>\n<p><a name=\"TOC-Bloodline-Arcana\"></a><strong>Bloodline Arcana:</strong> Whenever you cast a spell of the&nbsp;<a href=\"https://www.d20pfsrd.com/magic#TOC-Conjuration\" rel=\"nofollow\">summoning</a>&nbsp;subschool, the creatures summoned gain&nbsp;<a href=\"https://www.d20pfsrd.com/basics-ability-scores/glossary#TOC-Damage-Reduction-DR-\" rel=\"nofollow\">DR</a>/good equal to 1/2 your sorcerer level (minimum 1). This does not stack with any&nbsp;<a href=\"https://www.d20pfsrd.com/basics-ability-scores/glossary#TOC-Damage-Reduction-DR-\" rel=\"nofollow\">DR</a>&nbsp;the creature might have.</p>",
      "chat": "",
      "unidentified": ""
    },
    "tags": [],
    "activation": {
      "cost": 1,
      "type": ""
    },
    "unchainedAction": {
      "activation": {
        "cost": 1,
        "type": ""
      }
    },
    "duration": {
      "value": null,
      "units": ""
    },
    "target": {
      "value": ""
    },
    "range": {
      "value": null,
      "units": "",
      "maxIncrements": 1,
      "minValue": null,
      "minUnits": "",
      "long": null
    },
    "uses": {
      "value": 0,
      "max": 0,
      "per": null,
      "autoDeductCharges": true,
      "autoDeductChargesCost": "1"
    },
    "measureTemplate": {
      "type": "",
      "size": "0",
      "overrideColor": false,
      "customColor": "",
      "overrideTexture": false,
      "customTexture": ""
    },
    "attackName": "",
    "actionType": "",
    "attackBonus": "",
    "critConfirmBonus": "",
    "damage": {
      "parts": [],
      "critParts": [],
      "nonCritParts": []
    },
    "attackParts": [],
    "formula": "",
    "ability": {
      "attack": null,
      "damage": null,
      "damageMult": 1,
      "critRange": 20,
      "critMult": 2
    },
    "save": {
      "dc": 0,
      "type": "",
      "description": ""
    },
    "effectNotes": "",
    "attackNotes": "",
    "soundEffect": "",
    "changes": [],
    "changeFlags": {
      "loseDexToAC": false,
      "noStr": false,
      "noDex": false,
      "oneInt": false,
      "oneWis": false,
      "oneCha": false,
      "noEncumbrance": false,
      "mediumArmorFullSpeed": false,
      "heavyArmorFullSpeed": false
    },
    "contextNotes": [],
    "links": {
      "children": [],
      "charges": []
    },
    "tag": "",
    "useCustomTag": false,
    "armorProf": {
      "value": [],
      "custom": ""
    },
    "weaponProf": {
      "value": [],
      "custom": ""
    },
    "featType": "classFeat",
    "associations": {
      "classes": [
        [
          "Sorcerer"
        ]
      ]
    },
    "showInQuickbar": false,
    "nonlethal": false,
    "abilityType": "none",
    "crOffset": "",
    "attack": {
      "parts": []
    }
  },
  "flags": {},
  "img": "systems/pf1/icons/skills/blood_13.jpg",
  "effects": []
}