{
  "_id": "Pb9pxYrx6tS87euP",
  "name": "Bardic Knowledge",
  "permission": {
    "default": 0
  },
  "type": "feat",
  "data": {
    "description": {
      "value": "<p>A bard adds half his class level (minimum 1) to all&nbsp;<a href=\"https://www.d20pfsrd.com/skills/knowledge\">Knowledge</a>&nbsp;skill checks and may make all&nbsp;<a href=\"https://www.d20pfsrd.com/skills/knowledge\">Knowledge</a>&nbsp;skill checks untrained.</p>",
      "chat": "",
      "unidentified": ""
    },
    "tags": [],
    "activation": {
      "cost": 1,
      "type": ""
    },
    "unchainedAction": {
      "activation": {
        "cost": 1,
        "type": ""
      }
    },
    "duration": {
      "value": null,
      "units": ""
    },
    "target": {
      "value": ""
    },
    "range": {
      "value": null,
      "units": "",
      "maxIncrements": 1,
      "minValue": null,
      "minUnits": "",
      "long": null
    },
    "uses": {
      "value": 0,
      "max": 0,
      "per": null,
      "autoDeductCharges": true,
      "autoDeductChargesCost": "1"
    },
    "measureTemplate": {
      "type": "",
      "size": "0",
      "overrideColor": false,
      "customColor": "",
      "overrideTexture": false,
      "customTexture": ""
    },
    "attackName": "",
    "actionType": "",
    "attackBonus": "",
    "critConfirmBonus": "",
    "damage": {
      "parts": [],
      "critParts": [],
      "nonCritParts": []
    },
    "attackParts": [],
    "formula": "",
    "ability": {
      "attack": null,
      "damage": null,
      "damageMult": 1,
      "critRange": 20,
      "critMult": 2
    },
    "save": {
      "dc": 0,
      "type": "",
      "description": ""
    },
    "effectNotes": "",
    "attackNotes": "",
    "soundEffect": "",
    "changes": [
      {
        "_id": "6sscr87o",
        "formula": "max(1, floor(@classes.bard.level / 2))",
        "operator": "add",
        "target": "skill",
        "subTarget": "skill.kar",
        "modifier": "untyped",
        "priority": 0,
        "value": 0
      },
      {
        "_id": "94gu8vjl",
        "formula": "max(1, floor(@classes.bard.level / 2))",
        "operator": "add",
        "target": "skill",
        "subTarget": "skill.kdu",
        "modifier": "untyped",
        "priority": 0,
        "value": 0
      },
      {
        "_id": "bn6gr4pt",
        "formula": "max(1, floor(@classes.bard.level / 2))",
        "operator": "add",
        "target": "skill",
        "subTarget": "skill.ken",
        "modifier": "untyped",
        "priority": 0,
        "value": 0
      },
      {
        "_id": "fhfj3z0d",
        "formula": "max(1, floor(@classes.bard.level / 2))",
        "operator": "add",
        "target": "skill",
        "subTarget": "skill.kge",
        "modifier": "untyped",
        "priority": 0,
        "value": 0
      },
      {
        "_id": "wz4j0u2a",
        "formula": "max(1, floor(@classes.bard.level / 2))",
        "operator": "add",
        "target": "skill",
        "subTarget": "skill.khi",
        "modifier": "untyped",
        "priority": 0,
        "value": 0
      },
      {
        "_id": "dbhfna7q",
        "formula": "max(1, floor(@classes.bard.level / 2))",
        "operator": "add",
        "target": "skill",
        "subTarget": "skill.klo",
        "modifier": "untyped",
        "priority": 0,
        "value": 0
      },
      {
        "_id": "4f9cxfzj",
        "formula": "max(1, floor(@classes.bard.level / 2))",
        "operator": "add",
        "target": "skill",
        "subTarget": "skill.kna",
        "modifier": "untyped",
        "priority": 0,
        "value": 0
      },
      {
        "_id": "4qbc121d",
        "formula": "max(1, floor(@classes.bard.level / 2))",
        "operator": "add",
        "target": "skill",
        "subTarget": "skill.kno",
        "modifier": "untyped",
        "priority": 0,
        "value": 0
      },
      {
        "_id": "8x070v7o",
        "formula": "max(1, floor(@classes.bard.level / 2))",
        "operator": "add",
        "target": "skill",
        "subTarget": "skill.kpl",
        "modifier": "untyped",
        "priority": 0,
        "value": 0
      },
      {
        "_id": "oymywgls",
        "formula": "max(1, floor(@classes.bard.level / 2))",
        "operator": "add",
        "target": "skill",
        "subTarget": "skill.kre",
        "modifier": "untyped",
        "priority": 0,
        "value": 0
      }
    ],
    "changeFlags": {
      "loseDexToAC": false,
      "noStr": false,
      "noDex": false,
      "oneInt": false,
      "oneWis": false,
      "oneCha": false,
      "noEncumbrance": false,
      "mediumArmorFullSpeed": false,
      "heavyArmorFullSpeed": false
    },
    "contextNotes": [],
    "links": {
      "children": [],
      "charges": []
    },
    "tag": "",
    "useCustomTag": false,
    "armorProf": {
      "value": [],
      "custom": ""
    },
    "weaponProf": {
      "value": [],
      "custom": ""
    },
    "featType": "classFeat",
    "associations": {
      "classes": [
        [
          "Bard"
        ]
      ]
    },
    "showInQuickbar": false,
    "nonlethal": false,
    "abilityType": "ex",
    "crOffset": "",
    "attack": {
      "parts": []
    }
  },
  "flags": {},
  "img": "systems/pf1/icons/items/inventory/book-blue.jpg",
  "effects": []
}