{
  "_id": "VjHjPja5QABBgRvR",
  "name": "Bonus Feat (MNK)",
  "permission": {
    "default": 0
  },
  "type": "feat",
  "data": {
    "description": {
      "value": "<p>At 1st level, 2nd level, and every 4 levels thereafter, a monk may select a bonus feat. These feats must be taken from the following list:</p>\n<p>@Compendium[pf1.feats.bZ1YdzkT8NtRIEJ4]{Catch Off-Guard}, @Compendium[pf1.feats.h9nHYLxXvIXBTmup]{Combat Reflexes}, @Compendium[pf1.feats.ACEQfonKVqh0fwkK]{Deflect Arrows}, @Compendium[pf1.feats.JreaiTHdyWFNj3Tb]{Dodge}, @Compendium[pf1.feats.ZmQkRk93nbHxsQSt]{Improved Grapple}, @Compendium[pf1.feats.2AfSIVge3bg8r6wr]{Scorpion Style}, and @Compendium[pf1.feats.gGfXQq0IZrxdcZDx]{Throw Anything}.</p>\n<p>At 6th level, the following feats are added to the list:</p>\n<p>@Compendium[pf1.feats.nhUawPP4jfED3CYV]{Gorgon's Fist}, @Compendium[pf1.feats.dn2KgHFQRbuoNRx0]{Improved Bull Rush}, @Compendium[pf1.feats.711B9WNFgpdDKKf2]{Improved Disarm}, @Compendium[pf1.feats.tocde3sKG1O3GKgd]{Improved Feint}, @Compendium[pf1.feats.gTrGPxzN054GfpkM]{Improved Trip}, and&nbsp;@Compendium[pf1.feats.R7L4SlGRlnThqFrP]{Mobility}.</p>\n<p>At 10th level, the following feats are added to the list:</p>\n<p>@Compendium[pf1.feats.TbOPtIL8Fv8obXtP]{Improved Critical}, @Compendium[pf1.feats.sOCyCmNxe2MBbEaI]{Medusa's Wrath}, @Compendium[pf1.feats.bHcqTC4Lf3aVl3VO]{Snatch Arrows}, and @Compendium[pf1.feats.ugQyUpqPBDsqLyra]{Spring Attack}.</p>\n<p>A monk need not have any of the prerequisites normally required for these feats to select them.</p>",
      "chat": "",
      "unidentified": ""
    },
    "tags": [],
    "activation": {
      "cost": 1,
      "type": ""
    },
    "unchainedAction": {
      "activation": {
        "cost": 1,
        "type": ""
      }
    },
    "duration": {
      "value": null,
      "units": ""
    },
    "target": {
      "value": ""
    },
    "range": {
      "value": null,
      "units": "",
      "maxIncrements": 1,
      "minValue": null,
      "minUnits": "",
      "long": null
    },
    "uses": {
      "value": 0,
      "max": 0,
      "per": null,
      "autoDeductCharges": true,
      "autoDeductChargesCost": "1"
    },
    "measureTemplate": {
      "type": "",
      "size": "0",
      "overrideColor": false,
      "customColor": "",
      "overrideTexture": false,
      "customTexture": ""
    },
    "attackName": "",
    "actionType": "",
    "attackBonus": "",
    "critConfirmBonus": "",
    "damage": {
      "parts": [],
      "critParts": [],
      "nonCritParts": []
    },
    "attackParts": [],
    "formula": "",
    "ability": {
      "attack": null,
      "damage": null,
      "damageMult": 1,
      "critRange": 20,
      "critMult": 2
    },
    "save": {
      "dc": 0,
      "type": "",
      "description": ""
    },
    "effectNotes": "",
    "attackNotes": "",
    "soundEffect": "",
    "changes": [
      {
        "_id": "fjkapxbj",
        "formula": "1 + floor((@classes.monk.level + 2) / 4)",
        "operator": "add",
        "target": "misc",
        "subTarget": "bonusFeats",
        "modifier": "untyped",
        "priority": 0,
        "value": 0
      }
    ],
    "changeFlags": {
      "loseDexToAC": false,
      "noStr": false,
      "noDex": false,
      "oneInt": false,
      "oneWis": false,
      "oneCha": false,
      "noEncumbrance": false,
      "mediumArmorFullSpeed": false,
      "heavyArmorFullSpeed": false
    },
    "contextNotes": [],
    "links": {
      "children": [],
      "charges": []
    },
    "tag": "",
    "useCustomTag": false,
    "armorProf": {
      "value": [],
      "custom": ""
    },
    "weaponProf": {
      "value": [],
      "custom": ""
    },
    "featType": "classFeat",
    "associations": {
      "classes": [
        [
          "Monk"
        ]
      ]
    },
    "showInQuickbar": false,
    "nonlethal": false,
    "abilityType": "none",
    "crOffset": "",
    "attack": {
      "parts": []
    },
    "identifiedName": "Bonus Feat (MNK)"
  },
  "flags": {},
  "img": "systems/pf1/icons/skills/blue_10.jpg",
  "effects": []
}