{
  "_id": "WoJ2b9XzF2o4rF4e",
  "name": "Brain Drain (SHA)",
  "permission": {
    "default": 0
  },
  "type": "feat",
  "data": {
    "description": {
      "value": "<p>As a standard action, the shaman violently probes the mind of a single intelligent enemy within 30 feet. The target can attempt a Will saving throw to negate the effect. If it succeeds, it immediately knows the source of the mental prying; otherwise, it’s wracked with pain and takes 1d4 points of damage for every 2 levels the shaman possesses. On the round following her successful use of this ability, the shaman can take a fullround action to sort through the jumble of stolen thoughts and memories to attempt a single Knowledge check using the victim’s bonus with that skill. The random stolen thoughts remain in the shaman’s mind for a number of rounds equal to her Charisma modifier (minimum 1), and she can treat the knowledge gained as if she used&nbsp;detect thoughts. This is a mind-affecting effect.</p>\n<p>Once she successfully affects a creature, she cannot use this hex on that creature again for 24 hours.</p>",
      "chat": "",
      "unidentified": ""
    },
    "tags": [],
    "activation": {
      "cost": 1,
      "type": "standard"
    },
    "unchainedAction": {
      "activation": {
        "cost": 2,
        "type": "action"
      }
    },
    "duration": {
      "value": null,
      "units": "inst"
    },
    "target": {
      "value": "one creature"
    },
    "range": {
      "value": "30",
      "units": "ft",
      "maxIncrements": 1,
      "minValue": null,
      "minUnits": "",
      "long": null
    },
    "uses": {
      "value": 0,
      "max": 0,
      "per": "",
      "autoDeductCharges": true,
      "autoDeductChargesCost": "1"
    },
    "measureTemplate": {
      "type": "",
      "size": "",
      "overrideColor": false,
      "customColor": "",
      "overrideTexture": false,
      "customTexture": ""
    },
    "attackName": "",
    "actionType": "save",
    "attackBonus": "",
    "critConfirmBonus": "",
    "damage": {
      "parts": [
        [
          "(floor(@classes.shaman.level / 2))d4",
          ""
        ]
      ],
      "critParts": [],
      "nonCritParts": []
    },
    "attackParts": [],
    "formula": "",
    "ability": {
      "attack": null,
      "damage": "",
      "damageMult": 1,
      "critRange": 20,
      "critMult": 2
    },
    "save": {
      "dc": "0",
      "type": "will",
      "description": "Will negates"
    },
    "effectNotes": "",
    "attackNotes": "",
    "soundEffect": "",
    "changes": [],
    "changeFlags": {
      "loseDexToAC": false,
      "noStr": false,
      "noDex": false,
      "oneInt": false,
      "oneWis": false,
      "oneCha": false,
      "noEncumbrance": false,
      "mediumArmorFullSpeed": false,
      "heavyArmorFullSpeed": false
    },
    "contextNotes": [],
    "links": {
      "children": [],
      "charges": []
    },
    "tag": "",
    "useCustomTag": false,
    "armorProf": {
      "value": [],
      "custom": ""
    },
    "weaponProf": {
      "value": [],
      "custom": ""
    },
    "featType": "classFeat",
    "associations": {
      "classes": [
        [
          "Shaman"
        ]
      ]
    },
    "showInQuickbar": false,
    "nonlethal": false,
    "abilityType": "su",
    "crOffset": "",
    "attack": {
      "parts": []
    }
  },
  "flags": {},
  "img": "systems/pf1/icons/skills/green_03.jpg",
  "effects": []
}