{
  "_id": "Mh85MGrAFDPWHI3m",
  "name": "Chaos Domain",
  "permission": {
    "default": 0
  },
  "type": "feat",
  "data": {
    "description": {
      "value": "<p><strong>Granted Powers:</strong> Your touch infuses life and weapons with chaos, and you revel in all things anarchic.</p>\n<p><strong>Domain Spells:</strong></p>\n<ul>\n<li>1st—@Compendium[pf1.spells.ekhygw5fzfe52n35]{Protection From Law}</li>\n<li>2nd—@Compendium[pf1.spells.zujht80bgjdk9cyb]{Align Weapon} (chaos only)</li>\n<li>3rd—@Compendium[pf1.spells.5z26gs6wrom5svdd]{Magic Circle against Law}</li>\n<li>4th—@Compendium[pf1.spells.3a8l9mkxhob2gbbr]{Chaos Hammer}</li>\n<li>5th—@Compendium[pf1.spells.fhuoxhjgf9otqvzh]{Dispel Law}</li>\n<li>6th—@Compendium[pf1.spells.k9iu3d82hlo7coct]{Animate Objects}</li>\n<li>7th—@Compendium[pf1.spells.3zi4ie97hxr1d3ng]{Word Of Chaos}</li>\n<li>8th—@Compendium[pf1.spells.o0s3eo85npgigh3w]{Cloak of Chaos}</li>\n<li>9th—@Compendium[pf1.spells.mi52crelhwuy6bmp]{Summon Monster IX} (chaos spell only)</li>\n</ul>",
      "chat": "",
      "unidentified": ""
    },
    "tags": [],
    "activation": {
      "cost": 1,
      "type": ""
    },
    "unchainedAction": {
      "activation": {
        "cost": 1,
        "type": ""
      }
    },
    "duration": {
      "value": null,
      "units": ""
    },
    "target": {
      "value": ""
    },
    "range": {
      "value": null,
      "units": "",
      "maxIncrements": 1,
      "minValue": null,
      "minUnits": "",
      "long": null
    },
    "uses": {
      "value": 0,
      "max": 0,
      "per": null,
      "autoDeductCharges": true,
      "autoDeductChargesCost": "1"
    },
    "measureTemplate": {
      "type": "",
      "size": "0",
      "overrideColor": false,
      "customColor": "",
      "overrideTexture": false,
      "customTexture": ""
    },
    "attackName": "",
    "actionType": "",
    "attackBonus": "",
    "critConfirmBonus": "",
    "damage": {
      "parts": [],
      "critParts": [],
      "nonCritParts": []
    },
    "attackParts": [],
    "formula": "",
    "ability": {
      "attack": null,
      "damage": null,
      "damageMult": 1,
      "critRange": 20,
      "critMult": 2
    },
    "save": {
      "dc": 0,
      "type": "",
      "description": ""
    },
    "effectNotes": "",
    "attackNotes": "",
    "soundEffect": "",
    "changes": [],
    "changeFlags": {
      "loseDexToAC": false,
      "noStr": false,
      "noDex": false,
      "oneInt": false,
      "oneWis": false,
      "oneCha": false,
      "noEncumbrance": false,
      "mediumArmorFullSpeed": false,
      "heavyArmorFullSpeed": false
    },
    "contextNotes": [],
    "links": {
      "children": [],
      "charges": []
    },
    "tag": "",
    "useCustomTag": false,
    "armorProf": {
      "value": [],
      "custom": ""
    },
    "weaponProf": {
      "value": [],
      "custom": ""
    },
    "featType": "classFeat",
    "associations": {
      "classes": [
        [
          "Cleric"
        ]
      ]
    },
    "showInQuickbar": false,
    "nonlethal": false,
    "abilityType": "none",
    "crOffset": "",
    "attack": {
      "parts": []
    }
  },
  "flags": {},
  "img": "systems/pf1/icons/spells/rip-sky-3.jpg",
  "effects": []
}