{
  "_id": "rLeLd4AO0zQArShx",
  "name": "Cleansing Flame",
  "permission": {
    "default": 0
  },
  "type": "feat",
  "data": {
    "description": {
      "value": "<p>At 9th level, twice per day, you can use fire to restore the health of yourself or your allies. As a standard action, you can wreathe your hand in a halo of flame and touch yourself or another creature. The touch heals 2d8 + your character level points of damage. You can also remove one of the following conditions affecting the target: 1d6 points of&nbsp;<a href=\"https://www.d20pfsrd.com/basics-ability-scores/ability-scores/#Ability_Score_Damage\">ability damage</a>,&nbsp;<a href=\"https://www.d20pfsrd.com/gamemastering/conditions/#TOC-Blinded\">blinded</a>,&nbsp;<a href=\"https://www.d20pfsrd.com/gamemastering/conditions/#TOC-Confused\">confused</a>,&nbsp;<a href=\"https://www.d20pfsrd.com/gamemastering/conditions/#TOC-Dazzled\">dazzled</a>,&nbsp;<a href=\"https://www.d20pfsrd.com/gamemastering/conditions/#TOC-Deafened\">deafened</a>, diseased,&nbsp;<a href=\"https://www.d20pfsrd.com/gamemastering/conditions/#TOC-Exhausted\">exhausted</a>,&nbsp;<a href=\"https://www.d20pfsrd.com/gamemastering/conditions/#TOC-Fatigued\">fatigued</a>,&nbsp;<a href=\"https://www.d20pfsrd.com/gamemastering/conditions/#TOC-Nauseated\">nauseated</a>, poisoned, or&nbsp;<a href=\"https://www.d20pfsrd.com/gamemastering/conditions/#TOC-Sickened\">sickened</a>. At 20th level, you can use this ability three times per day.</p>",
      "chat": "",
      "unidentified": ""
    },
    "tags": [],
    "activation": {
      "cost": 1,
      "type": "standard"
    },
    "unchainedAction": {
      "activation": {
        "cost": 2,
        "type": "action"
      }
    },
    "duration": {
      "value": null,
      "units": "inst"
    },
    "target": {
      "value": "creature touched"
    },
    "range": {
      "value": null,
      "units": "touch",
      "maxIncrements": 1,
      "minValue": null,
      "minUnits": "",
      "long": null
    },
    "uses": {
      "value": 0,
      "max": 2,
      "per": "day",
      "autoDeductCharges": true,
      "autoDeductChargesCost": "1",
      "maxFormula": "@classes.sorcerer.level >= 20 ? 3 : 2"
    },
    "measureTemplate": {
      "type": "",
      "size": "0",
      "overrideColor": false,
      "customColor": "",
      "overrideTexture": false,
      "customTexture": ""
    },
    "attackName": "",
    "actionType": "heal",
    "attackBonus": "",
    "critConfirmBonus": "",
    "damage": {
      "parts": [
        [
          "2d8 + @attributes.hd.total",
          ""
        ]
      ],
      "critParts": [],
      "nonCritParts": []
    },
    "attackParts": [],
    "formula": "",
    "ability": {
      "attack": null,
      "damage": "",
      "damageMult": 1,
      "critRange": 20,
      "critMult": 2
    },
    "save": {
      "dc": "0",
      "type": "",
      "description": ""
    },
    "effectNotes": "",
    "attackNotes": "",
    "soundEffect": "",
    "changes": [],
    "changeFlags": {
      "loseDexToAC": false,
      "noStr": false,
      "noDex": false,
      "oneInt": false,
      "oneWis": false,
      "oneCha": false,
      "noEncumbrance": false,
      "mediumArmorFullSpeed": false,
      "heavyArmorFullSpeed": false
    },
    "contextNotes": [],
    "links": {
      "children": [],
      "charges": []
    },
    "tag": "",
    "useCustomTag": false,
    "armorProf": {
      "value": [],
      "custom": ""
    },
    "weaponProf": {
      "value": [],
      "custom": ""
    },
    "featType": "classFeat",
    "associations": {
      "classes": [
        [
          "Sorcerer"
        ]
      ]
    },
    "showInQuickbar": false,
    "nonlethal": false,
    "abilityType": "su",
    "crOffset": "",
    "attack": {
      "parts": []
    }
  },
  "flags": {},
  "img": "systems/pf1/icons/spells/explosion-orange-2.jpg",
  "effects": []
}