{
  "_id": "Fjsv2wNC223ofCE8",
  "name": "Expanded Element ",
  "permission": {
    "default": 0
  },
  "type": "feat",
  "data": {
    "description": {
      "value": "<p>At 7th level, a kineticist learns to use another element or expands her understanding of her own element. She can choose any element, including her primary element. She gains one of that element’s simple blast wild talents that she does not already possess, if any. She also gains all composite blast wild talents whose prerequisites she meets, as well as the basic wild talent of her chosen expanded element (for instance, basic aerokinesis if she chooses air). She doesn’t gain the defense wild talent of the expanded element.<br><br>If the kineticist’s expanded element is different from her primary element, she treats her kineticist level as 4 levels lower for the purpose of determining which wild talents she can learn from her expanded element.<br><br>If the kineticist chooses to expand her understanding of an element she already has, she gains an additional utility wild talent or infusion of her choice from that element, as if from her infusion or wild talent class feature, as appropriate.<br><br>At 15th level, the kineticist can either select a new element or expand her understanding of her original element. She can’t select the same element she selected at 7th level unless it is her primary element. She gains all the benefits from her new expanded element as listed above. However, if the kineticist selected her primary element as her expanded element at both 7th and 15th levels, her mastery of that element increases. For wild talents of her element, the kineticist gains a +1 bonus on attack rolls and damage rolls, as well as to caster level and DCs.</p>",
      "chat": "",
      "unidentified": ""
    },
    "tags": [],
    "activation": {
      "cost": 1,
      "type": ""
    },
    "unchainedAction": {
      "activation": {
        "cost": 1,
        "type": ""
      }
    },
    "duration": {
      "value": null,
      "units": ""
    },
    "target": {
      "value": ""
    },
    "range": {
      "value": null,
      "units": "",
      "maxIncrements": 1,
      "minValue": null,
      "minUnits": "",
      "long": null
    },
    "uses": {
      "value": 0,
      "max": 0,
      "per": null,
      "autoDeductCharges": true,
      "autoDeductChargesCost": "1"
    },
    "measureTemplate": {
      "type": "",
      "size": "",
      "overrideColor": false,
      "customColor": "",
      "overrideTexture": false,
      "customTexture": ""
    },
    "attackName": "",
    "actionType": "",
    "attackBonus": "",
    "critConfirmBonus": "",
    "damage": {
      "parts": [],
      "critParts": [],
      "nonCritParts": []
    },
    "attackParts": [],
    "formula": "",
    "ability": {
      "attack": null,
      "damage": null,
      "damageMult": 1,
      "critRange": 20,
      "critMult": 2
    },
    "save": {
      "dc": 0,
      "type": "",
      "description": ""
    },
    "effectNotes": "",
    "attackNotes": "",
    "soundEffect": "",
    "changes": [],
    "changeFlags": {
      "loseDexToAC": false,
      "noStr": false,
      "noDex": false,
      "oneInt": false,
      "oneWis": false,
      "oneCha": false,
      "noEncumbrance": false,
      "mediumArmorFullSpeed": false,
      "heavyArmorFullSpeed": false
    },
    "contextNotes": [],
    "links": {
      "children": [],
      "charges": []
    },
    "tag": "",
    "useCustomTag": false,
    "armorProf": {
      "value": [],
      "custom": ""
    },
    "weaponProf": {
      "value": [],
      "custom": ""
    },
    "featType": "classFeat",
    "associations": {
      "classes": [
        [
          "Kineticist"
        ]
      ]
    },
    "showInQuickbar": false,
    "nonlethal": false,
    "abilityType": "su",
    "crOffset": "",
    "attack": {
      "parts": []
    }
  },
  "flags": {},
  "img": "systems/pf1/icons/spells/fog-orange-2.jpg",
  "effects": []
}