{
  "_id": "cokp2kdswCQm9TZw",
  "name": "Good Domain",
  "permission": {
    "default": 0
  },
  "type": "feat",
  "data": {
    "description": {
      "value": "<p><strong>Granted Powers:</strong> You have pledged your life and soul to goodness and purity.</p>\n<p><strong>Domain Spells:</strong></p>\n<ul>\n<li>1st—@Compendium[pf1.spells.skgjjub1hng29nwo]{Protection From Evil}</li>\n<li>2nd—@Compendium[pf1.spells.zujht80bgjdk9cyb]{Align Weapon} (good only)</li>\n<li>3rd—@Compendium[pf1.spells.1i8b1v3dngkxj6jp]{Magic Circle against Evil}</li>\n<li>4th—@Compendium[pf1.spells.erndkoe44rgj0lob]{Holy Smite}</li>\n<li>5th—@Compendium[pf1.spells.sg3eq6xpsum65fgm]{Dispel Evil}</li>\n<li>6th—@Compendium[pf1.spells.z1j8oc2291czpinh]{Blade Barrier}</li>\n<li>7th—@Compendium[pf1.spells.odcyzsuexods8ek9]{Holy Word}</li>\n<li>8th—@Compendium[pf1.spells.n0vm6or4nwaylpfa]{Holy Aura}</li>\n<li>9th—@Compendium[pf1.spells.mi52crelhwuy6bmp]{Summon Monster IX} (good spell only)</li>\n</ul>",
      "chat": "",
      "unidentified": ""
    },
    "tags": [],
    "activation": {
      "cost": 1,
      "type": ""
    },
    "unchainedAction": {
      "activation": {
        "cost": 1,
        "type": ""
      }
    },
    "duration": {
      "value": null,
      "units": ""
    },
    "target": {
      "value": ""
    },
    "range": {
      "value": null,
      "units": "",
      "maxIncrements": 1,
      "minValue": null,
      "minUnits": "",
      "long": null
    },
    "uses": {
      "value": 0,
      "max": 0,
      "per": null,
      "autoDeductCharges": true,
      "autoDeductChargesCost": "1"
    },
    "measureTemplate": {
      "type": "",
      "size": "0",
      "overrideColor": false,
      "customColor": "",
      "overrideTexture": false,
      "customTexture": ""
    },
    "attackName": "",
    "actionType": "",
    "attackBonus": "",
    "critConfirmBonus": "",
    "damage": {
      "parts": [],
      "critParts": [],
      "nonCritParts": []
    },
    "attackParts": [],
    "formula": "",
    "ability": {
      "attack": null,
      "damage": null,
      "damageMult": 1,
      "critRange": 20,
      "critMult": 2
    },
    "save": {
      "dc": 0,
      "type": "",
      "description": ""
    },
    "effectNotes": "",
    "attackNotes": "",
    "soundEffect": "",
    "changes": [],
    "changeFlags": {
      "loseDexToAC": false,
      "noStr": false,
      "noDex": false,
      "oneInt": false,
      "oneWis": false,
      "oneCha": false,
      "noEncumbrance": false,
      "mediumArmorFullSpeed": false,
      "heavyArmorFullSpeed": false
    },
    "contextNotes": [],
    "links": {
      "children": [],
      "charges": []
    },
    "tag": "",
    "useCustomTag": false,
    "armorProf": {
      "value": [],
      "custom": ""
    },
    "weaponProf": {
      "value": [],
      "custom": ""
    },
    "featType": "classFeat",
    "associations": {
      "classes": [
        [
          "Cleric"
        ]
      ]
    },
    "showInQuickbar": false,
    "nonlethal": false,
    "abilityType": "none",
    "crOffset": "",
    "attack": {
      "parts": []
    }
  },
  "flags": {},
  "img": "systems/pf1/icons/skills/light_03.jpg",
  "effects": []
}