{
  "_id": "NsjBfVybTSINRlOG",
  "name": "Inner Strength",
  "permission": {
    "default": 0
  },
  "type": "feat",
  "data": {
    "description": {
      "value": "<p>At 6th level, once per day, you may heal yourself as a swift action, healing 1d6 hit points for every two inquisitor levels you possess. When you use this ability, you can also remove one of the following conditions from yourself: blinded, confused, dazzled, deafened, frightened, nauseated, shaken, sickened, or staggered.</p>",
      "chat": "",
      "unidentified": ""
    },
    "tags": [],
    "activation": {
      "cost": 1,
      "type": "swift"
    },
    "unchainedAction": {
      "activation": {
        "cost": 1,
        "type": "action"
      }
    },
    "duration": {
      "value": null,
      "units": "inst"
    },
    "target": {
      "value": "self"
    },
    "range": {
      "value": null,
      "units": "personal",
      "maxIncrements": 1,
      "minValue": null,
      "minUnits": "",
      "long": null
    },
    "uses": {
      "value": 0,
      "max": 1,
      "per": "day",
      "autoDeductCharges": true,
      "autoDeductChargesCost": "1",
      "maxFormula": "1"
    },
    "measureTemplate": {
      "type": "",
      "size": "",
      "overrideColor": false,
      "customColor": "",
      "overrideTexture": false,
      "customTexture": ""
    },
    "attackName": "",
    "actionType": "heal",
    "attackBonus": "",
    "critConfirmBonus": "",
    "damage": {
      "parts": [
        [
          "(floor(@classes.inquisitor.level / 2))d6",
          ""
        ]
      ],
      "critParts": [],
      "nonCritParts": []
    },
    "attackParts": [],
    "formula": "",
    "ability": {
      "attack": null,
      "damage": "",
      "damageMult": 1,
      "critRange": 20,
      "critMult": 2
    },
    "save": {
      "dc": "0",
      "type": "",
      "description": ""
    },
    "effectNotes": "",
    "attackNotes": "",
    "soundEffect": "",
    "changes": [],
    "changeFlags": {
      "loseDexToAC": false,
      "noStr": false,
      "noDex": false,
      "oneInt": false,
      "oneWis": false,
      "oneCha": false,
      "noEncumbrance": false,
      "mediumArmorFullSpeed": false,
      "heavyArmorFullSpeed": false
    },
    "contextNotes": [],
    "links": {
      "children": [],
      "charges": []
    },
    "tag": "",
    "useCustomTag": false,
    "armorProf": {
      "value": [],
      "custom": ""
    },
    "weaponProf": {
      "value": [],
      "custom": ""
    },
    "featType": "classFeat",
    "associations": {
      "classes": [
        [
          "Inquisitor"
        ]
      ]
    },
    "showInQuickbar": false,
    "nonlethal": false,
    "abilityType": "su",
    "crOffset": "",
    "attack": {
      "parts": []
    }
  },
  "flags": {},
  "img": "systems/pf1/icons/items/inventory/badge-cross.jpg",
  "effects": []
}