{
  "_id": "atSXzQN1FYT8BAoF",
  "name": "Octopus Aspect",
  "permission": {
    "default": 0
  },
  "type": "feat",
  "data": {
    "description": {
      "value": "<p><em>The octopus is a cunning hunter, able to contort its malleable body with ease.</em><br><br><strong>Minor Form:</strong> You gain a +4 competence bonus on Escape Artist checks.</p>\n<p>It increases to +6 at 8th level and +8 at 15th level.<br><br><strong>Major Form:</strong> Your shape changes to that of an&nbsp;<a href=\"https://www.aonprd.com/MonsterDisplay.aspx?ItemName=Octopus\">octopus</a>. While in this form, you gain the&nbsp;<a href=\"https://www.aonprd.com/MonsterSubtypes.aspx?ItemName=Aquatic\">aquatic</a>&nbsp;subtype, a swim speed of 30 feet, low-light vision, a bite attack (1d3), a tentacles attack (no damage) with the&nbsp;<a href=\"https://www.aonprd.com/UMR.aspx?ItemName=Grab\">grab</a>&nbsp;ability, and&nbsp;<a href=\"https://www.aonprd.com/FeatDisplay.aspx?ItemName=Multiattack\">Multiattack</a>&nbsp;as a bonus feat.</p>\n<p>At 8th level, you gain the&nbsp;<a href=\"https://www.aonprd.com/UMR.aspx?ItemName=Jet\">jet</a>&nbsp;ability (200 feet).</p>\n<p>At 15th level, you gain the ability to produce an ink cloud (see below) and deal an amount of bludgeoning damage with your tentacles attack equal to the damage dealt by your shifter claws.<br><br><em>Ink Cloud (Ex):</em> While within water, you can emit a 10-foot-radius sphere of ink once per minute as a swift action. This ink provides total concealment and persists for 1 minute.<br><br><strong>Alternate Natural Attacks:</strong> Bite (B, P, S), tentacle (B)</p>",
      "chat": "",
      "unidentified": ""
    },
    "tags": [],
    "activation": {
      "cost": 1,
      "type": ""
    },
    "unchainedAction": {
      "activation": {
        "cost": 1,
        "type": ""
      }
    },
    "duration": {
      "value": null,
      "units": ""
    },
    "target": {
      "value": ""
    },
    "range": {
      "value": null,
      "units": "",
      "maxIncrements": 1,
      "minValue": null,
      "minUnits": "",
      "long": null
    },
    "uses": {
      "value": 0,
      "max": 0,
      "per": null,
      "autoDeductCharges": true,
      "autoDeductChargesCost": "1"
    },
    "measureTemplate": {
      "type": "",
      "size": "",
      "overrideColor": false,
      "customColor": "",
      "overrideTexture": false,
      "customTexture": ""
    },
    "attackName": "",
    "actionType": "",
    "attackBonus": "",
    "critConfirmBonus": "",
    "damage": {
      "parts": [],
      "critParts": [],
      "nonCritParts": []
    },
    "attackParts": [],
    "formula": "",
    "ability": {
      "attack": null,
      "damage": null,
      "damageMult": 1,
      "critRange": 20,
      "critMult": 2
    },
    "save": {
      "dc": 0,
      "type": "",
      "description": ""
    },
    "effectNotes": "",
    "attackNotes": "",
    "soundEffect": "",
    "changes": [],
    "changeFlags": {
      "loseDexToAC": false,
      "noStr": false,
      "noDex": false,
      "oneInt": false,
      "oneWis": false,
      "oneCha": false,
      "noEncumbrance": false,
      "mediumArmorFullSpeed": false,
      "heavyArmorFullSpeed": false
    },
    "contextNotes": [],
    "links": {
      "children": [],
      "charges": []
    },
    "tag": "",
    "useCustomTag": false,
    "armorProf": {
      "value": [],
      "custom": ""
    },
    "weaponProf": {
      "value": [],
      "custom": ""
    },
    "featType": "classFeat",
    "associations": {
      "classes": [
        [
          "Shifter"
        ]
      ]
    },
    "showInQuickbar": false,
    "nonlethal": false,
    "abilityType": "none",
    "crOffset": "",
    "attack": {
      "parts": []
    }
  },
  "flags": {},
  "img": "systems/pf1/icons/skills/blue_29.jpg",
  "effects": []
}