{
  "_id": "bWAsjsqTdTH56GPV",
  "name": "Order of the Eclipse",
  "permission": {
    "default": 0
  },
  "type": "feat",
  "data": {
    "description": {
      "value": "<p>Hobgoblins have long taken advantage of the tactical edge darkvision gives them when fighting in darkness, particularly against elves, humans, and samsarans. As the ruling class of Kaoling, hobgoblin samurai have adopted the benefit of darkness as a spiritual alliance that forms a guiding principle in not only how they fight, but every aspect of their lives. This has given rise to the order of the eclipse, a respected samurai order devoted to darkness itself. Although the order is not officially restricted to hobgoblins, its edicts make it difficult for any samurai without darkvision to operate in its ranks.<br><br><strong>Edicts: </strong>The samurai cannot create light where it is not necessary—anything that can be done in darkness should be. The samurai must belong to a military organization (within Kaoling this is likely to be a warband commanded by a senior samurai, who in turn answers to Warlord Tsung-cha Kavangaki or one of the Council of Nine). The samurai must enforce his place within this order and societies that recognize its authority, obeying those senior to him without question and demanding total obedience from those beneath him. The samurai must take every opportunity to extinguish the lights of his foes.<br><br><strong>Challenge:</strong> The order of the eclipse samurai gains a +1 bonus on all Intimidate checks made against the target of his challenge. This bonus increases by 1 for every four levels the samurai possesses.<br><br><strong>Skills:</strong> An order of the eclipse samurai adds Perception (Wis) and Survival (Wis) to his list of class skills. In addition, whenever he makes a Perception check to notice an invisible creature or object, he receives a bonus on the check equal to 1/2 his samurai level (minimum +1).</p>",
      "chat": "",
      "unidentified": ""
    },
    "tags": [],
    "activation": {
      "cost": 1,
      "type": ""
    },
    "unchainedAction": {
      "activation": {
        "cost": 1,
        "type": ""
      }
    },
    "duration": {
      "value": null,
      "units": ""
    },
    "target": {
      "value": ""
    },
    "range": {
      "value": null,
      "units": "",
      "maxIncrements": 1,
      "minValue": null,
      "minUnits": "",
      "long": null
    },
    "uses": {
      "value": 0,
      "max": 0,
      "per": null,
      "autoDeductCharges": true,
      "autoDeductChargesCost": "1"
    },
    "measureTemplate": {
      "type": "",
      "size": "0",
      "overrideColor": false,
      "customColor": "",
      "overrideTexture": false,
      "customTexture": ""
    },
    "attackName": "",
    "actionType": "",
    "attackBonus": "",
    "critConfirmBonus": "",
    "damage": {
      "parts": [],
      "critParts": [],
      "nonCritParts": []
    },
    "attackParts": [],
    "formula": "",
    "ability": {
      "attack": null,
      "damage": null,
      "damageMult": 1,
      "critRange": 20,
      "critMult": 2
    },
    "save": {
      "dc": 0,
      "type": "",
      "description": ""
    },
    "effectNotes": "",
    "attackNotes": "",
    "soundEffect": "",
    "changes": [],
    "changeFlags": {
      "loseDexToAC": false,
      "noStr": false,
      "noDex": false,
      "oneInt": false,
      "oneWis": false,
      "oneCha": false,
      "noEncumbrance": false,
      "mediumArmorFullSpeed": false,
      "heavyArmorFullSpeed": false
    },
    "contextNotes": [],
    "links": {
      "children": [],
      "charges": []
    },
    "tag": "",
    "useCustomTag": false,
    "armorProf": {
      "value": [],
      "custom": ""
    },
    "weaponProf": {
      "value": [],
      "custom": ""
    },
    "featType": "classFeat",
    "associations": {
      "classes": [
        [
          "Samurai"
        ]
      ]
    },
    "showInQuickbar": false,
    "nonlethal": false,
    "abilityType": "none",
    "crOffset": "",
    "attack": {
      "parts": []
    }
  },
  "flags": {},
  "img": "systems/pf1/icons/items/inventory/banner-green.jpg",
  "effects": []
}