{
  "_id": "AWmqW7hVufXfaRii",
  "name": "Order of the Penitent",
  "permission": {
    "default": 0
  },
  "type": "feat",
  "data": {
    "description": {
      "value": "<p>Not all knights begin their careers as nobles’ children or as squires. Some start out as thieves, murderers, or cheats, and only after they see the suffering caused by their crimes do they dedicate themselves to honorable service. Cavaliers who follow this order seek to make up for the crimes they’ve committed in the past, and do whatever they can to restore their tainted honor.<br><br><strong>Edicts:</strong> The cavalier must be merciful to wrongdoers and show unfettered fairness whenever he passes judgment. He must assume that only the most heinous monsters are irrevocably evil, and must deliver all foes capable of fair trial to the appropriate local law enforcers.<br><br><strong>Challenge:</strong> Whenever an order of the penitent cavalier issues a challenge, he receives a +1 morale bonus to his CMD against combat maneuvers made by the target of his challenge whenever he is threatening the target. This bonus increases by +1 for every four levels the cavalier possesses.<br><br><strong>Skills:</strong> An order of the penitent cavalier adds Escape Artist (Dex) and Sense Motive (Wis) to his list of class skills. Whenever he makes an Escape Artist check, the cavalier may add his Strength bonus to the check in addition to his Dexterity modifier.</p>",
      "chat": "",
      "unidentified": ""
    },
    "tags": [],
    "activation": {
      "cost": 1,
      "type": ""
    },
    "unchainedAction": {
      "activation": {
        "cost": 1,
        "type": ""
      }
    },
    "duration": {
      "value": null,
      "units": ""
    },
    "target": {
      "value": ""
    },
    "range": {
      "value": null,
      "units": "",
      "maxIncrements": 1,
      "minValue": null,
      "minUnits": "",
      "long": null
    },
    "uses": {
      "value": 0,
      "max": 0,
      "per": null,
      "autoDeductCharges": true,
      "autoDeductChargesCost": "1"
    },
    "measureTemplate": {
      "type": "",
      "size": "0",
      "overrideColor": false,
      "customColor": "",
      "overrideTexture": false,
      "customTexture": ""
    },
    "attackName": "",
    "actionType": "",
    "attackBonus": "",
    "critConfirmBonus": "",
    "damage": {
      "parts": [],
      "critParts": [],
      "nonCritParts": []
    },
    "attackParts": [],
    "formula": "",
    "ability": {
      "attack": null,
      "damage": null,
      "damageMult": 1,
      "critRange": 20,
      "critMult": 2
    },
    "save": {
      "dc": 0,
      "type": "",
      "description": ""
    },
    "effectNotes": "",
    "attackNotes": "",
    "soundEffect": "",
    "changes": [],
    "changeFlags": {
      "loseDexToAC": false,
      "noStr": false,
      "noDex": false,
      "oneInt": false,
      "oneWis": false,
      "oneCha": false,
      "noEncumbrance": false,
      "mediumArmorFullSpeed": false,
      "heavyArmorFullSpeed": false
    },
    "contextNotes": [],
    "links": {
      "children": [],
      "charges": []
    },
    "tag": "",
    "useCustomTag": false,
    "armorProf": {
      "value": [],
      "custom": ""
    },
    "weaponProf": {
      "value": [],
      "custom": ""
    },
    "featType": "classFeat",
    "associations": {
      "classes": [
        [
          "Cavalier"
        ]
      ]
    },
    "showInQuickbar": false,
    "nonlethal": false,
    "abilityType": "none",
    "crOffset": "",
    "attack": {
      "parts": []
    }
  },
  "flags": {},
  "img": "systems/pf1/icons/items/inventory/banner-green.jpg",
  "effects": []
}