{
  "_id": "LI7UgRNGJ77FYqio",
  "name": "Peerless Speed",
  "permission": {
    "default": 0
  },
  "type": "feat",
  "data": {
    "description": {
      "value": "<p>At 3rd level, you can tap into the power of the Astral’s enhanced magical nature to gain the ability to accelerate your spellcasting dramatically.</p>\n<p>Once per day as a&nbsp;<a href=\"https://www.d20pfsrd.com/gamemastering/combat#TOC-Swift-Actions\">swift action</a>, you can cast one cantrip you know as though it were augmented by the @Compendium[pf1.feats.wFoLrh5FeeqBXsQ8]{Quicken Spell}&nbsp;<a href=\"https://www.d20pfsrd.com/feats/metamagic-feats\">metamagic feat</a>, without altering the cantrip’s level.</p>\n<p>At 5th level and every 2 levels thereafter, the maximum level of the spell you can augment with this ability increases by 1, to a maximum of an 8th-level spell at 19th level. If you use this ability while on the&nbsp;<a href=\"https://www.d20pfsrd.com/gamemastering/environment/the-planes#TOC-Astral-Plane\">Astral Plane</a>&nbsp;or on any plane whose enhanced magic trait allows you to cast a spell as if&nbsp;<a href=\"https://www.d20pfsrd.com/bestiary/rules-for-monsters/creature-types#TOC-Augmented\">augmented</a>&nbsp;by @Compendium[pf1.feats.wFoLrh5FeeqBXsQ8]{Quicken Spell}, you can instead choose to augment the spell as though you had applied the @Compendium[pf1.feats.77gXSucrxfrE9yWk]{Empower Spell}&nbsp;or @Compendium[pf1.feats.J1yi4hFKYdXqZE3h]{Maximize Spell}&nbsp;<a href=\"https://www.d20pfsrd.com/feats/metamagic-feats\">metamagic feats</a>&nbsp;instead.</p>",
      "chat": "",
      "unidentified": ""
    },
    "tags": [],
    "activation": {
      "cost": 1,
      "type": ""
    },
    "unchainedAction": {
      "activation": {
        "cost": 1,
        "type": ""
      }
    },
    "duration": {
      "value": null,
      "units": ""
    },
    "target": {
      "value": ""
    },
    "range": {
      "value": null,
      "units": "",
      "maxIncrements": 1,
      "minValue": null,
      "minUnits": "",
      "long": null
    },
    "uses": {
      "value": 0,
      "max": 0,
      "per": null,
      "autoDeductCharges": true,
      "autoDeductChargesCost": "1"
    },
    "measureTemplate": {
      "type": "",
      "size": "0",
      "overrideColor": false,
      "customColor": "",
      "overrideTexture": false,
      "customTexture": ""
    },
    "attackName": "",
    "actionType": "",
    "attackBonus": "",
    "critConfirmBonus": "",
    "damage": {
      "parts": [],
      "critParts": [],
      "nonCritParts": []
    },
    "attackParts": [],
    "formula": "",
    "ability": {
      "attack": null,
      "damage": null,
      "damageMult": 1,
      "critRange": 20,
      "critMult": 2
    },
    "save": {
      "dc": 0,
      "type": "",
      "description": ""
    },
    "effectNotes": "",
    "attackNotes": "",
    "soundEffect": "",
    "changes": [],
    "changeFlags": {
      "loseDexToAC": false,
      "noStr": false,
      "noDex": false,
      "oneInt": false,
      "oneWis": false,
      "oneCha": false,
      "noEncumbrance": false,
      "mediumArmorFullSpeed": false,
      "heavyArmorFullSpeed": false
    },
    "contextNotes": [],
    "links": {
      "children": [],
      "charges": []
    },
    "tag": "",
    "useCustomTag": false,
    "armorProf": {
      "value": [],
      "custom": ""
    },
    "weaponProf": {
      "value": [],
      "custom": ""
    },
    "featType": "classFeat",
    "associations": {
      "classes": [
        [
          "Sorcerer"
        ]
      ]
    },
    "showInQuickbar": false,
    "nonlethal": false,
    "abilityType": "su",
    "crOffset": "",
    "attack": {
      "parts": []
    }
  },
  "flags": {},
  "img": "systems/pf1/icons/spells/haste-royal-3.jpg",
  "effects": []
}