{
  "_id": "GJOpAqTVz53gqNv1",
  "name": "Stag Aspect",
  "permission": {
    "default": 0
  },
  "type": "feat",
  "data": {
    "description": {
      "value": "<p><em>The stag can outrun or stand its ground against almost any foe. This aspect offers majestic grace and swift speed.</em><br><br><strong>Minor Form:</strong> You gain an enhancement bonus of +5 feet to your base speed.</p>\n<p>This bonus increases to +10 feet at 8th level and +20 feet at 15th level.<br><br><strong>Major Form: </strong>Your shape changes to that of a Large stag (Pathfinder RPG Bestiary&nbsp;4 150), but its space changes to 10 feet. While in this form, you gain a base speed of 50 feet, low-light vision, scent (30 feet), a gore attack (1d6 damage), and two hoove attacks (1d4 damage).</p>\n<p>At 8th level, you gain a +4 racial bonus on Acrobatic checks when jumping.</p>\n<p>At 15th level, you gain the Awesome Blow and Improved Natural Attack feats (Bestiary&nbsp;314, 315) for gore attacks, and you can use Awesome Blow against a creature of your size or smaller.<br><br><strong>Alternate Natural Attacks:</strong> Gore (P), hoof (B)</p>",
      "chat": "",
      "unidentified": ""
    },
    "tags": [],
    "activation": {
      "cost": 1,
      "type": ""
    },
    "unchainedAction": {
      "activation": {
        "cost": 1,
        "type": ""
      }
    },
    "duration": {
      "value": null,
      "units": ""
    },
    "target": {
      "value": ""
    },
    "range": {
      "value": null,
      "units": "",
      "maxIncrements": 1,
      "minValue": null,
      "minUnits": "",
      "long": null
    },
    "uses": {
      "value": 0,
      "max": 0,
      "per": null,
      "autoDeductCharges": true,
      "autoDeductChargesCost": "1"
    },
    "measureTemplate": {
      "type": "",
      "size": "",
      "overrideColor": false,
      "customColor": "",
      "overrideTexture": false,
      "customTexture": ""
    },
    "attackName": "",
    "actionType": "",
    "attackBonus": "",
    "critConfirmBonus": "",
    "damage": {
      "parts": [],
      "critParts": [],
      "nonCritParts": []
    },
    "attackParts": [],
    "formula": "",
    "ability": {
      "attack": null,
      "damage": null,
      "damageMult": 1,
      "critRange": 20,
      "critMult": 2
    },
    "save": {
      "dc": 0,
      "type": "",
      "description": ""
    },
    "effectNotes": "",
    "attackNotes": "",
    "soundEffect": "",
    "changes": [],
    "changeFlags": {
      "loseDexToAC": false,
      "noStr": false,
      "noDex": false,
      "oneInt": false,
      "oneWis": false,
      "oneCha": false,
      "noEncumbrance": false,
      "mediumArmorFullSpeed": false,
      "heavyArmorFullSpeed": false
    },
    "contextNotes": [],
    "links": {
      "children": [],
      "charges": []
    },
    "tag": "",
    "useCustomTag": false,
    "armorProf": {
      "value": [],
      "custom": ""
    },
    "weaponProf": {
      "value": [],
      "custom": ""
    },
    "featType": "classFeat",
    "associations": {
      "classes": [
        [
          "Shifter"
        ]
      ]
    },
    "showInQuickbar": false,
    "nonlethal": false,
    "abilityType": "none",
    "crOffset": "",
    "attack": {
      "parts": []
    }
  },
  "flags": {},
  "img": "systems/pf1/icons/skills/blue_29.jpg",
  "effects": []
}