{
  "_id": "3czZB6whbQo9WhxR",
  "name": "Divine Favor",
  "permission": {
    "default": 0
  },
  "type": "buff",
  "data": {
    "description": {
      "value": "<p>You have a luck bonus to attack rolls and weapon damage rolls.</p>\n<p><strong>Usage</strong>: Set the buff's level equal to the caster level Divine Favor.</p>",
      "chat": "",
      "unidentified": ""
    },
    "tags": [],
    "changes": [
      {
        "_id": "ha13jllu",
        "formula": "min(3, max(1, floor(@item.level / 3)))",
        "operator": "add",
        "target": "attack",
        "subTarget": "attack",
        "modifier": "luck",
        "priority": 0,
        "value": 0
      },
      {
        "_id": "4n037d0l",
        "formula": "min(3, max(1, floor(@item.level / 3)))",
        "operator": "add",
        "target": "damage",
        "subTarget": "wdamage",
        "modifier": "luck",
        "priority": 0,
        "value": 0
      }
    ],
    "changeFlags": {
      "loseDexToAC": false,
      "noStr": false,
      "noDex": false,
      "oneInt": false,
      "oneWis": false,
      "oneCha": false,
      "noEncumbrance": false,
      "mediumArmorFullSpeed": false,
      "heavyArmorFullSpeed": false
    },
    "contextNotes": [],
    "links": {
      "children": []
    },
    "buffType": "temp",
    "active": false,
    "level": "1",
    "hideFromToken": false,
    "damage": {
      "parts": [],
      "critParts": []
    }
  },
  "sort": 6700000,
  "flags": {},
  "img": "systems/pf1/icons/skills/weapon_42.jpg",
  "effects": []
}