{
  "_id": "2AE81UZvQ4nstqVq",
  "name": "Adlet",
  "permission": {
    "default": 0
  },
  "type": "npc",
  "data": {
    "abilities": {
      "str": {
        "total": 18,
        "mod": 4,
        "value": 18,
        "carryBonus": 0,
        "carryMultiplier": 1,
        "checkMod": 0,
        "damage": 0,
        "drain": 0,
        "penalty": 0,
        "userPenalty": 0,
        "base": 10,
        "baseMod": 0
      },
      "dex": {
        "total": 26,
        "mod": 8,
        "value": 26,
        "checkMod": 0,
        "damage": 0,
        "drain": 0,
        "penalty": 0,
        "userPenalty": 0,
        "base": 10,
        "baseMod": 0
      },
      "con": {
        "total": 18,
        "mod": 4,
        "value": 18,
        "checkMod": 0,
        "damage": 0,
        "drain": 0,
        "penalty": 0,
        "userPenalty": 0,
        "base": 10,
        "baseMod": 0
      },
      "int": {
        "total": 13,
        "mod": 1,
        "value": 13,
        "checkMod": 0,
        "damage": 0,
        "drain": 0,
        "penalty": 0,
        "userPenalty": 0,
        "base": 10,
        "baseMod": 0
      },
      "wis": {
        "total": 17,
        "mod": 3,
        "value": 17,
        "checkMod": 0,
        "damage": 0,
        "drain": 0,
        "penalty": 0,
        "userPenalty": 0,
        "base": 10,
        "baseMod": 0
      },
      "cha": {
        "total": 13,
        "mod": 1,
        "value": 13,
        "checkMod": 0,
        "damage": 0,
        "drain": 0,
        "penalty": 0,
        "userPenalty": 0,
        "base": 10,
        "baseMod": 0
      }
    },
    "resources": {},
    "attributes": {
      "encumbrance": {
        "level": 0,
        "levels": {
          "light": 100,
          "medium": 200,
          "heavy": 300,
          "carry": 600,
          "drag": 1500
        },
        "carriedWeight": 0
      },
      "hpAbility": "con",
      "cmbAbility": "str",
      "hd": {
        "total": 15,
        "max": {
          "_deprecated": true,
          "value": 0
        }
      },
      "naturalAC": 5,
      "ac": {
        "normal": {
          "value": 0,
          "total": 10
        },
        "touch": {
          "value": 0,
          "total": 10
        },
        "flatFooted": {
          "value": 0,
          "total": 10
        }
      },
      "bab": {
        "value": 11,
        "total": 11
      },
      "cmd": {
        "value": "15",
        "total": 10,
        "flatFootedTotal": 10
      },
      "cmb": {
        "value": 35,
        "total": 0
      },
      "sr": {
        "formula": 0,
        "total": 0
      },
      "saveNotes": "",
      "acNotes": "(+8 Dex, +1 dodge, +5 natural)",
      "cmdNotes": "",
      "srNotes": "",
      "attack": {
        "general": 0,
        "shared": 0,
        "melee": 0,
        "ranged": 0,
        "meleeAbility": "str",
        "rangedAbility": "dex"
      },
      "damage": {
        "general": 0,
        "weapon": 0,
        "spell": 0
      },
      "maxDexBonus": null,
      "mDex": {
        "armorBonus": 0,
        "shieldBonus": 0
      },
      "acp": {
        "gear": 0,
        "encumbrance": 0,
        "total": 0,
        "armorBonus": 0,
        "shieldBonus": 0,
        "attackPenalty": 0
      },
      "energyDrain": 0,
      "quadruped": false,
      "savingThrows": {
        "fort": {
          "total": 9,
          "ability": "con"
        },
        "ref": {
          "total": 17,
          "ability": "dex"
        },
        "will": {
          "total": 8,
          "ability": "wis"
        }
      },
      "hp": {
        "value": 127,
        "max": 0,
        "temp": null,
        "nonlethal": null,
        "min": -100
      },
      "wounds": {
        "min": 0,
        "value": 36,
        "max": 36
      },
      "vigor": {
        "min": 0,
        "value": 67,
        "temp": 0,
        "max": 67
      },
      "woundThresholds": {
        "penalty": 0,
        "mod": 0,
        "level": 0,
        "override": -1
      },
      "init": {
        "value": 0,
        "bonus": 0,
        "total": 0,
        "ability": ""
      },
      "prof": 2,
      "speed": {
        "land": {
          "base": 40,
          "total": 40
        },
        "climb": {
          "base": 0,
          "total": 0
        },
        "swim": {
          "base": 0,
          "total": 0
        },
        "burrow": {
          "base": 0,
          "total": 0
        },
        "fly": {
          "base": 0,
          "total": 0,
          "maneuverability": "average"
        }
      },
      "conditions": {
        "bleed": false,
        "blind": false,
        "confused": false,
        "dazzled": false,
        "deaf": false,
        "entangled": false,
        "fatigued": false,
        "exhausted": false,
        "grappled": false,
        "helpless": false,
        "incorporeal": false,
        "invisible": false,
        "paralyzed": false,
        "pinned": false,
        "prone": false,
        "fear": false,
        "sickened": false,
        "staggered": false,
        "stunned": false
      },
      "spells": {
        "usedSpellbooks": [
          "spelllike"
        ],
        "spellbooks": {
          "primary": {
            "name": "Primary",
            "class": "",
            "cl": {
              "base": 0,
              "value": 0,
              "total": 0,
              "formula": ""
            },
            "concentration": 0,
            "concentrationFormula": "",
            "concentrationNotes": "",
            "clNotes": "",
            "ability": "int",
            "autoSpellLevels": true,
            "arcaneSpellFailure": true,
            "baseDCFormula": "10 + @sl + @ablMod",
            "spontaneous": false,
            "spellPoints": {
              "useSystem": false,
              "value": 0,
              "max": 0,
              "maxFormula": "",
              "restoreFormula": ""
            },
            "spellSlotAbilityBonusFormula": "",
            "domainSlotValue": 1,
            "spells": {
              "spell0": {
                "value": 0,
                "max": 0,
                "base": null
              },
              "spell1": {
                "value": 0,
                "max": 0,
                "base": null
              },
              "spell2": {
                "value": 0,
                "max": 0,
                "base": null
              },
              "spell3": {
                "value": 0,
                "max": 0,
                "base": null
              },
              "spell4": {
                "value": 0,
                "max": 0,
                "base": null
              },
              "spell5": {
                "value": 0,
                "max": 0,
                "base": null
              },
              "spell6": {
                "value": 0,
                "max": 0,
                "base": null
              },
              "spell7": {
                "value": 0,
                "max": 0,
                "base": null
              },
              "spell8": {
                "value": 0,
                "max": 0,
                "base": null
              },
              "spell9": {
                "value": 0,
                "max": 0,
                "base": null
              }
            }
          },
          "secondary": {
            "name": "Secondary",
            "class": "",
            "cl": {
              "base": 0,
              "value": 0,
              "total": 0,
              "formula": ""
            },
            "concentration": 0,
            "concentrationFormula": "",
            "concentrationNotes": "",
            "clNotes": "",
            "ability": "int",
            "autoSpellLevels": true,
            "arcaneSpellFailure": true,
            "baseDCFormula": "10 + @sl + @ablMod",
            "spontaneous": false,
            "spellPoints": {
              "useSystem": false,
              "value": 0,
              "max": 0,
              "maxFormula": "",
              "restoreFormula": ""
            },
            "spellSlotAbilityBonusFormula": "",
            "domainSlotValue": 1,
            "spells": {
              "spell0": {
                "value": 0,
                "max": 0,
                "base": null
              },
              "spell1": {
                "value": 0,
                "max": 0,
                "base": null
              },
              "spell2": {
                "value": 0,
                "max": 0,
                "base": null
              },
              "spell3": {
                "value": 0,
                "max": 0,
                "base": null
              },
              "spell4": {
                "value": 0,
                "max": 0,
                "base": null
              },
              "spell5": {
                "value": 0,
                "max": 0,
                "base": null
              },
              "spell6": {
                "value": 0,
                "max": 0,
                "base": null
              },
              "spell7": {
                "value": 0,
                "max": 0,
                "base": null
              },
              "spell8": {
                "value": 0,
                "max": 0,
                "base": null
              },
              "spell9": {
                "value": 0,
                "max": 0,
                "base": null
              }
            }
          },
          "tertiary": {
            "name": "Tertiary",
            "class": "",
            "cl": {
              "base": 0,
              "value": 0,
              "total": 0,
              "formula": ""
            },
            "concentration": 0,
            "concentrationFormula": "",
            "concentrationNotes": "",
            "clNotes": "",
            "ability": "int",
            "autoSpellLevels": true,
            "arcaneSpellFailure": true,
            "baseDCFormula": "10 + @sl + @ablMod",
            "spontaneous": false,
            "spellPoints": {
              "useSystem": false,
              "value": 0,
              "max": 0,
              "maxFormula": "",
              "restoreFormula": ""
            },
            "spellSlotAbilityBonusFormula": "",
            "domainSlotValue": 1,
            "spells": {
              "spell0": {
                "value": 0,
                "max": 0,
                "base": null
              },
              "spell1": {
                "value": 0,
                "max": 0,
                "base": null
              },
              "spell2": {
                "value": 0,
                "max": 0,
                "base": null
              },
              "spell3": {
                "value": 0,
                "max": 0,
                "base": null
              },
              "spell4": {
                "value": 0,
                "max": 0,
                "base": null
              },
              "spell5": {
                "value": 0,
                "max": 0,
                "base": null
              },
              "spell6": {
                "value": 0,
                "max": 0,
                "base": null
              },
              "spell7": {
                "value": 0,
                "max": 0,
                "base": null
              },
              "spell8": {
                "value": 0,
                "max": 0,
                "base": null
              },
              "spell9": {
                "value": 0,
                "max": 0,
                "base": null
              }
            }
          },
          "spelllike": {
            "name": "Spell-likes",
            "class": "",
            "cl": {
              "base": 0,
              "value": 10,
              "total": 10,
              "formula": "10"
            },
            "concentration": "+11",
            "concentrationFormula": "",
            "concentrationNotes": "",
            "clNotes": "",
            "ability": "cha",
            "autoSpellLevels": true,
            "arcaneSpellFailure": true,
            "baseDCFormula": "10 + @sl + @ablMod",
            "spontaneous": true,
            "spellPoints": {
              "useSystem": false,
              "value": 0,
              "max": 0,
              "maxFormula": "",
              "restoreFormula": ""
            },
            "spellSlotAbilityBonusFormula": "",
            "domainSlotValue": 1,
            "spells": {
              "spell0": {
                "value": 1,
                "max": 1,
                "base": "1"
              },
              "spell1": {
                "value": 0,
                "max": 0,
                "base": null
              },
              "spell2": {
                "value": 0,
                "max": 0,
                "base": null
              },
              "spell3": {
                "value": 0,
                "max": 0,
                "base": null
              },
              "spell4": {
                "value": 0,
                "max": 0,
                "base": null
              },
              "spell5": {
                "value": 0,
                "max": 0,
                "base": null
              },
              "spell6": {
                "value": 0,
                "max": 0,
                "base": null
              },
              "spell7": {
                "value": 0,
                "max": 0,
                "base": null
              },
              "spell8": {
                "value": 0,
                "max": 0,
                "base": null
              },
              "spell9": {
                "value": 0,
                "max": 0,
                "base": null
              }
            }
          }
        },
        "concentration": {
          "bonus": 0,
          "context": ""
        }
      },
      "spellcasting": {
        "_deprecated": true
      },
      "spelldc": {
        "_deprecated": true
      },
      "spellLevel": 0,
      "cmbNotes": "",
      "mods": {
        "skills": {}
      },
      "creatureType": "humanoid"
    },
    "details": {
      "level": {
        "value": 15,
        "min": 0,
        "max": 40
      },
      "mythicTier": 0,
      "bonusFeatFormula": "",
      "alignment": "cn",
      "biography": {
        "value": "",
        "public": ""
      },
      "notes": {
        "value": "",
        "public": ""
      },
      "bonusSkillRankFormula": "",
      "type": "",
      "environment": "",
      "cr": {
        "base": 10,
        "total": 10
      },
      "xp": {
        "value": "9600"
      }
    },
    "skills": {
      "acr": {
        "value": 0,
        "ability": "dex",
        "rt": false,
        "acp": true,
        "rank": 5,
        "mod": 13,
        "background": false,
        "notes": "(+17 when jumping)",
        "cs": false,
        "changeBonus": 0
      },
      "apr": {
        "value": 0,
        "ability": "int",
        "rt": false,
        "acp": false,
        "rank": 0,
        "mod": 1,
        "background": true,
        "notes": "",
        "cs": false,
        "changeBonus": 0
      },
      "art": {
        "value": 0,
        "ability": "int",
        "rt": false,
        "acp": false,
        "rank": 0,
        "mod": 1,
        "background": true,
        "notes": "",
        "subSkills": {},
        "cs": false,
        "changeBonus": 0
      },
      "blf": {
        "value": 0,
        "ability": "cha",
        "rt": false,
        "acp": false,
        "rank": 0,
        "mod": 1,
        "background": false,
        "notes": "",
        "cs": false,
        "changeBonus": 0
      },
      "clm": {
        "value": 0,
        "ability": "str",
        "rt": false,
        "acp": true,
        "rank": 5,
        "mod": 12,
        "background": false,
        "notes": "",
        "cs": true,
        "changeBonus": 0
      },
      "crf": {
        "value": 0,
        "ability": "int",
        "rt": false,
        "acp": false,
        "rank": 0,
        "mod": 1,
        "background": true,
        "notes": "",
        "subSkills": {},
        "cs": true,
        "changeBonus": 0
      },
      "dip": {
        "value": 0,
        "ability": "cha",
        "rt": false,
        "acp": false,
        "rank": 0,
        "mod": 1,
        "background": false,
        "notes": "",
        "cs": false,
        "changeBonus": 0
      },
      "dev": {
        "value": 0,
        "ability": "dex",
        "rt": true,
        "acp": true,
        "rank": 0,
        "mod": 8,
        "background": false,
        "notes": "",
        "cs": false,
        "changeBonus": 0
      },
      "dis": {
        "value": 0,
        "ability": "cha",
        "rt": false,
        "acp": false,
        "rank": 0,
        "mod": 1,
        "background": false,
        "notes": "",
        "cs": false,
        "changeBonus": 0
      },
      "esc": {
        "value": 0,
        "ability": "dex",
        "rt": false,
        "acp": true,
        "rank": 0,
        "mod": 8,
        "background": false,
        "notes": "",
        "cs": false,
        "changeBonus": 0
      },
      "fly": {
        "value": 0,
        "ability": "dex",
        "rt": false,
        "acp": true,
        "rank": 0,
        "mod": 8,
        "background": false,
        "notes": "",
        "cs": false,
        "changeBonus": 0
      },
      "han": {
        "value": 0,
        "ability": "cha",
        "rt": true,
        "acp": false,
        "rank": 5,
        "mod": 9,
        "background": true,
        "notes": "",
        "cs": true,
        "changeBonus": 0
      },
      "hea": {
        "value": 0,
        "ability": "wis",
        "rt": false,
        "acp": false,
        "rank": -1,
        "mod": 2,
        "background": false,
        "notes": "",
        "cs": true,
        "changeBonus": 0
      },
      "int": {
        "value": 0,
        "ability": "cha",
        "rt": false,
        "acp": false,
        "rank": 0,
        "mod": 1,
        "background": false,
        "notes": "",
        "cs": false,
        "changeBonus": 0
      },
      "kar": {
        "value": 0,
        "ability": "int",
        "rt": true,
        "acp": false,
        "rank": 0,
        "mod": 1,
        "background": false,
        "notes": "",
        "cs": false,
        "changeBonus": 0
      },
      "kdu": {
        "value": 0,
        "ability": "int",
        "rt": true,
        "acp": false,
        "rank": 0,
        "mod": 1,
        "background": false,
        "notes": "",
        "cs": false,
        "changeBonus": 0
      },
      "ken": {
        "value": 0,
        "ability": "int",
        "rt": true,
        "acp": false,
        "rank": 0,
        "mod": 1,
        "background": true,
        "notes": "",
        "cs": false,
        "changeBonus": 0
      },
      "kge": {
        "value": 0,
        "ability": "int",
        "rt": true,
        "acp": false,
        "rank": 0,
        "mod": 1,
        "background": true,
        "notes": "",
        "cs": false,
        "changeBonus": 0
      },
      "khi": {
        "value": 0,
        "ability": "int",
        "rt": true,
        "acp": false,
        "rank": 0,
        "mod": 1,
        "background": true,
        "notes": "",
        "cs": false,
        "changeBonus": 0
      },
      "klo": {
        "value": 0,
        "ability": "int",
        "rt": true,
        "acp": false,
        "rank": 0,
        "mod": 1,
        "background": false,
        "notes": "",
        "cs": false,
        "changeBonus": 0
      },
      "kna": {
        "value": 0,
        "ability": "int",
        "rt": true,
        "acp": false,
        "rank": 0,
        "mod": 1,
        "background": false,
        "notes": "",
        "cs": false,
        "changeBonus": 0
      },
      "kno": {
        "value": 0,
        "ability": "int",
        "rt": true,
        "acp": false,
        "rank": 0,
        "mod": 1,
        "background": true,
        "notes": "",
        "cs": false,
        "changeBonus": 0
      },
      "kpl": {
        "value": 0,
        "ability": "int",
        "rt": true,
        "acp": false,
        "rank": 0,
        "mod": 1,
        "background": false,
        "notes": "",
        "cs": false,
        "changeBonus": 0
      },
      "kre": {
        "value": 0,
        "ability": "int",
        "rt": true,
        "acp": false,
        "rank": 0,
        "mod": 1,
        "background": false,
        "notes": "",
        "cs": false,
        "changeBonus": 0
      },
      "lin": {
        "value": 0,
        "ability": "int",
        "rt": true,
        "acp": false,
        "rank": 0,
        "mod": 1,
        "background": true,
        "notes": "",
        "cs": false,
        "changeBonus": 0
      },
      "lor": {
        "value": 0,
        "ability": "int",
        "rt": true,
        "acp": false,
        "rank": 0,
        "mod": 1,
        "background": true,
        "notes": "",
        "subSkills": {},
        "cs": false,
        "changeBonus": 0
      },
      "per": {
        "value": 0,
        "ability": "wis",
        "rt": false,
        "acp": false,
        "rank": 10,
        "mod": 13,
        "background": false,
        "notes": "",
        "cs": false,
        "changeBonus": 0
      },
      "prf": {
        "value": 0,
        "ability": "cha",
        "rt": false,
        "acp": false,
        "rank": 0,
        "mod": 1,
        "background": true,
        "notes": "",
        "subSkills": {},
        "cs": false,
        "changeBonus": 0
      },
      "pro": {
        "value": 0,
        "ability": "wis",
        "rt": true,
        "acp": false,
        "rank": 0,
        "mod": 3,
        "background": true,
        "notes": "",
        "subSkills": {},
        "cs": true,
        "changeBonus": 0
      },
      "rid": {
        "value": 0,
        "ability": "dex",
        "rt": false,
        "acp": true,
        "rank": 0,
        "mod": 8,
        "background": false,
        "notes": "",
        "cs": true,
        "changeBonus": 0
      },
      "sen": {
        "value": 0,
        "ability": "wis",
        "rt": false,
        "acp": false,
        "rank": 0,
        "mod": 3,
        "background": false,
        "notes": "",
        "cs": false,
        "changeBonus": 0
      },
      "slt": {
        "value": 0,
        "ability": "dex",
        "rt": true,
        "acp": true,
        "rank": 0,
        "mod": 8,
        "background": true,
        "notes": "",
        "cs": false,
        "changeBonus": 0
      },
      "spl": {
        "value": 0,
        "ability": "int",
        "rt": true,
        "acp": false,
        "rank": 0,
        "mod": 1,
        "background": false,
        "notes": "",
        "cs": false,
        "changeBonus": 0
      },
      "ste": {
        "value": 0,
        "ability": "dex",
        "rt": false,
        "acp": true,
        "rank": 5,
        "mod": 13,
        "background": false,
        "notes": "(+21 in snow)",
        "cs": false,
        "changeBonus": 0
      },
      "sur": {
        "value": 0,
        "ability": "wis",
        "rt": false,
        "acp": false,
        "rank": 0,
        "mod": 3,
        "background": false,
        "notes": "",
        "cs": true,
        "changeBonus": 0
      },
      "swm": {
        "value": 0,
        "ability": "str",
        "rt": false,
        "acp": true,
        "rank": 5,
        "mod": 9,
        "background": false,
        "notes": "",
        "cs": false,
        "changeBonus": 0
      },
      "umd": {
        "value": 0,
        "ability": "cha",
        "rt": true,
        "acp": false,
        "rank": 0,
        "mod": 1,
        "background": false,
        "notes": "",
        "cs": false,
        "changeBonus": 0
      }
    },
    "customSkills": {},
    "traits": {
      "size": "med",
      "senses": "low-light vision, scent; Perception +13 \n",
      "dr": "",
      "eres": "",
      "cres": "",
      "regen": "",
      "fastHealing": "",
      "languages": {
        "value": [
          "common"
        ],
        "custom": "Adlet"
      },
      "di": {
        "value": [
          "cold",
          "fire"
        ],
        "custom": ""
      },
      "dv": {
        "value": [
          "fire"
        ],
        "custom": ""
      },
      "ci": {
        "value": [],
        "custom": "  Weaknesses vulnerability to "
      },
      "perception": {
        "_deprecated": true
      },
      "stature": "tall"
    },
    "currency": {
      "pp": 0,
      "gp": 0,
      "sp": 0,
      "cp": 0
    },
    "altCurrency": {
      "pp": 0,
      "gp": 0,
      "sp": 0,
      "cp": 0
    },
    "classes": {}
  },
  "sort": 100001,
  "flags": {
    "pf1": {}
  },
  "img": "systems/pf1/icons/races/human.jpg",
  "token": {
    "flags": {
      "pf1": {
        "lowLightVision": false
      }
    },
    "name": "Adlet",
    "displayName": 0,
    "img": "systems/pf1/icons/races/human.jpg",
    "tint": null,
    "width": 1,
    "height": 1,
    "scale": 1,
    "lockRotation": false,
    "rotation": 0,
    "vision": true,
    "dimSight": 0,
    "brightSight": 0,
    "dimLight": 0,
    "brightLight": 0,
    "sightAngle": 360,
    "lightAngle": 360,
    "lightAlpha": 1,
    "lightAnimation": {
      "speed": 5,
      "intensity": 5
    },
    "actorId": "2AE81UZvQ4nstqVq",
    "actorLink": false,
    "disposition": -1,
    "displayBars": 0,
    "bar1": {
      "attribute": "attributes.hp"
    },
    "bar2": {},
    "randomImg": false
  },
  "items": [
    {
      "_id": "z38OQ2L29o3ALIQ5",
      "name": "Humanoid",
      "type": "class",
      "data": {
        "description": {
          "value": "<p>A humanoid usually has two arms, two legs, and one head, or a human-like torso, arms, and a head. Humanoids have few or no supernatural or extraordinary abilities, but most can speak and usually have well-developed societies. They are usually Small or Medium (with the exception of giants). Every humanoid creature also has a specific subtype to match its race, such as human, giant, goblinoid, reptilian, or tengu.</p>\n<p>Humanoids with 1 Hit Die exchange the features of their humanoid Hit Die for the class features of a PC or NPC class. Humanoids of this sort are typically presented as 1st-level warriors, which means they have average combat ability and poor saving throws. Humanoids with more than 1 Hit Die are the only humanoids who make use of the features of the humanoid type.</p>\n<h2><span id=\"Features\">Features</span></h2>\n<p>A humanoid has the following features (unless otherwise noted in a creature’s entry).</p>\n<ul>\n<li>d8 Hit Die, or by character class.</li>\n<li>Base attack bonus equal to 3/4 total Hit Dice (medium progression).</li>\n<li>One good save, usually&nbsp;<a href=\"https://www.d20pfsrd.com/gamemastering/combat#TOC-Reflex\" rel=\"nofollow\">Reflex</a>.</li>\n<li>Skill points equal to 2 + Int modifier (minimum 1) per Hit Die or by character class. The following are class skills for humanoids without a character class: <a href=\"https://www.d20pfsrd.com/skills/climb\" rel=\"nofollow\">Climb</a>, <a href=\"https://www.d20pfsrd.com/skills/craft\" rel=\"nofollow\">Craft</a>, <a href=\"https://www.d20pfsrd.com/skills/handle-animal\" rel=\"nofollow\">Handle Animal</a>, <a href=\"https://www.d20pfsrd.com/skills/heal\" rel=\"nofollow\">Heal</a>, <a href=\"https://www.d20pfsrd.com/skills/profession\" rel=\"nofollow\">Profession</a>, <a href=\"https://www.d20pfsrd.com/skills/ride\" rel=\"nofollow\">Ride</a>, and <a href=\"https://www.d20pfsrd.com/skills/survival\" rel=\"nofollow\">Survival</a>. Humanoids with a character class use their class’s skill list instead.</li>\n</ul>\n<h2><span id=\"Traits\"><a name=\"TOC-Traits\"></a>Traits</span></h2>\n<p>A humanoid possesses the following traits (unless otherwise noted in a creature’s entry).</p>\n<ul>\n<li>Proficient with all simple weapons, or by character class.</li>\n<li>Proficient with whatever type of armor (light, medium, or heavy) it is described as wearing, or by character class. If a humanoid does not have a class and wears&nbsp;<a href=\"https://www.d20pfsrd.com/basics-ability-scores/glossary#TOC-Armor-Bonus\">armor</a>, it is proficient with that type of armor and all lighter types. Humanoids not indicated as wearing armor are not proficient with armor. Humanoids are proficient with shields if they are proficient with any form of armor.</li>\n<li>Humanoids breathe, eat, and sleep.</li>\n</ul>",
          "chat": "",
          "unidentified": ""
        },
        "tags": [],
        "changes": [],
        "changeFlags": {
          "loseDexToAC": false,
          "noStr": false,
          "noDex": false,
          "oneInt": false,
          "oneWis": false,
          "oneCha": false,
          "noEncumbrance": false,
          "mediumArmorFullSpeed": false,
          "heavyArmorFullSpeed": false
        },
        "links": {
          "children": []
        },
        "tag": "humanoid",
        "useCustomTag": false,
        "armorProf": {
          "value": [],
          "custom": ""
        },
        "weaponProf": {
          "value": [],
          "custom": ""
        },
        "classType": "racial",
        "levels": 1,
        "level": 15,
        "hd": 8,
        "hp": 67,
        "bab": "med",
        "skillsPerLevel": 2,
        "savingThrows": {
          "fort": {
            "value": "low"
          },
          "ref": {
            "value": "high"
          },
          "will": {
            "value": "low"
          }
        },
        "fc": {
          "hp": {
            "value": 0
          },
          "skill": {
            "value": 0
          },
          "alt": {
            "value": 0
          }
        },
        "classSkills": {
          "acr": false,
          "apr": false,
          "art": false,
          "blf": false,
          "clm": true,
          "crf": true,
          "dip": false,
          "dev": false,
          "dis": false,
          "esc": false,
          "fly": false,
          "han": true,
          "hea": true,
          "int": false,
          "kar": false,
          "kdu": false,
          "ken": false,
          "kge": false,
          "khi": false,
          "klo": false,
          "kna": false,
          "kno": false,
          "kpl": false,
          "kre": false,
          "lin": false,
          "lor": false,
          "per": false,
          "prf": false,
          "pro": true,
          "rid": true,
          "sen": false,
          "slt": false,
          "spl": false,
          "ste": false,
          "sur": true,
          "swm": false,
          "umd": false
        },
        "damage": {
          "parts": []
        },
        "range": {
          "maxIncrements": 1
        }
      },
      "sort": 100000,
      "flags": {},
      "img": "systems/pf1/icons/skills/blue_35.jpg",
      "effects": []
    },
    {
      "_id": "lE94namSjexO6Qha",
      "name": "+1 spear",
      "type": "attack",
      "data": {
        "description": {
          "value": "",
          "chat": "",
          "unidentified": ""
        },
        "tags": [],
        "activation": {
          "cost": 1,
          "type": "standard"
        },
        "unchainedAction": {
          "activation": {
            "cost": 2,
            "type": "action"
          }
        },
        "duration": {
          "value": null,
          "units": "inst"
        },
        "target": {
          "value": ""
        },
        "range": {
          "value": null,
          "units": "",
          "maxIncrements": 1,
          "minValue": null,
          "minUnits": "",
          "long": null
        },
        "uses": {
          "value": 0,
          "max": 0,
          "per": "",
          "autoDeductCharges": false,
          "autoDeductChargesCost": "1"
        },
        "measureTemplate": {
          "type": "",
          "size": "0",
          "overrideColor": false,
          "customColor": "",
          "overrideTexture": false,
          "customTexture": ""
        },
        "attackName": "",
        "actionType": "mwak",
        "attackBonus": "1",
        "critConfirmBonus": "",
        "damage": {
          "parts": [
            [
              "sizeRoll(1, 8, @size, 4) + 1",
              "P"
            ]
          ],
          "critParts": [],
          "nonCritParts": []
        },
        "attackParts": [
          [
            -5,
            "Iterative Attack with -5"
          ],
          [
            -10,
            "Iterative Attack with -10"
          ]
        ],
        "formula": "",
        "ability": {
          "attack": "str",
          "damage": "str",
          "damageMult": 1,
          "critRange": 20,
          "critMult": "3"
        },
        "save": {
          "dc": "",
          "type": "",
          "description": ""
        },
        "effectNotes": "",
        "attackNotes": "Reach: 5 ft.\n+1 spear +17/+10/+5 (1d8+7/x3)\nWeapon Qualities: [brace]",
        "soundEffect": "",
        "links": {
          "children": [],
          "charges": []
        },
        "tag": "",
        "useCustomTag": false,
        "attackType": "weapon",
        "masterwork": true,
        "nonlethal": false,
        "enh": "1",
        "proficient": true,
        "primaryAttack": true,
        "showInQuickbar": true,
        "broken": false,
        "held": "normal",
        "conditionals": [],
        "attack": {
          "parts": []
        }
      },
      "sort": 100000,
      "flags": {},
      "img": "icons/svg/mystery-man.svg",
      "effects": []
    },
    {
      "_id": "ShOn8Al2iiY8LGJP",
      "name": "Special Attack: Frozen Breath",
      "type": "attack",
      "data": {
        "description": {
          "value": "",
          "chat": "",
          "unidentified": ""
        },
        "tags": [],
        "activation": {
          "cost": 1,
          "type": "standard"
        },
        "unchainedAction": {
          "activation": {
            "cost": 2,
            "type": "action"
          }
        },
        "duration": {
          "value": null,
          "units": "inst"
        },
        "target": {
          "value": ""
        },
        "range": {
          "value": null,
          "units": "",
          "maxIncrements": 1,
          "minValue": null,
          "minUnits": "",
          "long": null
        },
        "uses": {
          "value": 0,
          "max": 0,
          "per": "",
          "autoDeductCharges": false,
          "autoDeductChargesCost": "1"
        },
        "measureTemplate": {
          "type": "",
          "size": "0",
          "overrideColor": false,
          "customColor": "",
          "overrideTexture": false,
          "customTexture": ""
        },
        "attackName": "",
        "actionType": "other",
        "attackBonus": "-15",
        "critConfirmBonus": "",
        "damage": {
          "parts": [
            [
              0,
              ""
            ]
          ],
          "critParts": [],
          "nonCritParts": []
        },
        "attackParts": [],
        "formula": "",
        "ability": {
          "attack": "str",
          "damage": "str",
          "damageMult": 1,
          "critRange": 20,
          "critMult": 2
        },
        "save": {
          "dc": "",
          "type": "",
          "description": ""
        },
        "effectNotes": "",
        "attackNotes": "",
        "soundEffect": "",
        "links": {
          "children": [],
          "charges": []
        },
        "tag": "",
        "useCustomTag": false,
        "attackType": "weapon",
        "masterwork": false,
        "nonlethal": false,
        "enh": null,
        "proficient": true,
        "primaryAttack": true,
        "showInQuickbar": true,
        "broken": false,
        "held": "normal",
        "conditionals": [],
        "attack": {
          "parts": []
        }
      },
      "sort": 100000,
      "flags": {},
      "img": "icons/svg/mystery-man.svg",
      "effects": []
    },
    {
      "_id": "L1VFfe4zZhVEDiTk",
      "name": "bite",
      "type": "attack",
      "data": {
        "description": {
          "value": "",
          "chat": "",
          "unidentified": ""
        },
        "tags": [],
        "activation": {
          "cost": 1,
          "type": "attack"
        },
        "unchainedAction": {
          "activation": {
            "cost": 1,
            "type": "action"
          }
        },
        "duration": {
          "value": null,
          "units": "inst"
        },
        "target": {
          "value": ""
        },
        "range": {
          "value": null,
          "units": "",
          "maxIncrements": 1,
          "minValue": null,
          "minUnits": "",
          "long": null
        },
        "uses": {
          "value": 0,
          "max": 0,
          "per": "",
          "autoDeductCharges": false,
          "autoDeductChargesCost": "1"
        },
        "measureTemplate": {
          "type": "",
          "size": "0",
          "overrideColor": false,
          "customColor": "",
          "overrideTexture": false,
          "customTexture": ""
        },
        "attackName": "",
        "actionType": "mwak",
        "attackBonus": "-5",
        "critConfirmBonus": "",
        "damage": {
          "parts": [
            [
              "sizeRoll(1, 6, @size, 4) + -2",
              "B, P and S"
            ]
          ],
          "critParts": [],
          "nonCritParts": []
        },
        "attackParts": [],
        "formula": "",
        "ability": {
          "attack": "str",
          "damage": "str",
          "damageMult": 1,
          "critRange": 20,
          "critMult": 2
        },
        "save": {
          "dc": "0",
          "type": "",
          "description": ""
        },
        "effectNotes": "[[1d6]] cold",
        "attackNotes": "Reach: 5 ft.\nbite +10 (1d6+2 plus 1d6 cold)",
        "soundEffect": "",
        "links": {
          "children": [],
          "charges": []
        },
        "tag": "",
        "useCustomTag": false,
        "attackType": "natural",
        "masterwork": false,
        "nonlethal": false,
        "enh": null,
        "proficient": true,
        "primaryAttack": true,
        "showInQuickbar": true,
        "broken": false,
        "held": "normal",
        "conditionals": [],
        "attack": {
          "parts": []
        }
      },
      "sort": 200000,
      "flags": {},
      "img": "systems/pf1/icons/items/inventory/monster-head.jpg",
      "effects": []
    },
    {
      "_id": "3rAUhotzOrv3EC1l",
      "name": "Diehard",
      "type": "feat",
      "data": {
        "description": {
          "value": "",
          "chat": "",
          "unidentified": ""
        },
        "tags": [],
        "activation": {
          "cost": 1,
          "type": ""
        },
        "unchainedAction": {
          "activation": {
            "cost": 1,
            "type": ""
          }
        },
        "duration": {
          "value": null,
          "units": ""
        },
        "target": {
          "value": ""
        },
        "range": {
          "value": null,
          "units": "",
          "maxIncrements": 1,
          "minValue": null,
          "minUnits": "",
          "long": null
        },
        "uses": {
          "value": 0,
          "max": 0,
          "per": null,
          "autoDeductCharges": true,
          "autoDeductChargesCost": "1"
        },
        "measureTemplate": {
          "type": "",
          "size": "0",
          "overrideColor": false,
          "customColor": "",
          "overrideTexture": false,
          "customTexture": ""
        },
        "attackName": "",
        "actionType": null,
        "attackBonus": "",
        "critConfirmBonus": "",
        "damage": {
          "parts": [],
          "critParts": [],
          "nonCritParts": []
        },
        "attackParts": [],
        "formula": "",
        "ability": {
          "attack": null,
          "damage": null,
          "damageMult": 1,
          "critRange": 20,
          "critMult": 2
        },
        "save": {
          "dc": 0,
          "type": "",
          "description": ""
        },
        "effectNotes": "",
        "attackNotes": "",
        "soundEffect": "",
        "changes": [],
        "changeFlags": {
          "loseDexToAC": false,
          "noStr": false,
          "noDex": false,
          "oneInt": false,
          "oneWis": false,
          "oneCha": false,
          "noEncumbrance": false,
          "mediumArmorFullSpeed": false,
          "heavyArmorFullSpeed": false
        },
        "contextNotes": [],
        "links": {
          "children": [],
          "charges": []
        },
        "tag": "",
        "useCustomTag": false,
        "armorProf": {
          "value": [],
          "custom": ""
        },
        "weaponProf": {
          "value": [],
          "custom": ""
        },
        "featType": "feat",
        "associations": {
          "classes": []
        },
        "showInQuickbar": false,
        "nonlethal": false,
        "abilityType": "none",
        "crOffset": "",
        "attack": {
          "parts": []
        }
      },
      "sort": 100000,
      "flags": {},
      "img": "icons/svg/mystery-man.svg",
      "effects": []
    },
    {
      "_id": "1Ji0NmWNjHfcOphP",
      "name": "Dodge",
      "type": "feat",
      "data": {
        "description": {
          "value": "",
          "chat": "",
          "unidentified": ""
        },
        "tags": [],
        "activation": {
          "cost": 1,
          "type": ""
        },
        "unchainedAction": {
          "activation": {
            "cost": 1,
            "type": ""
          }
        },
        "duration": {
          "value": null,
          "units": ""
        },
        "target": {
          "value": ""
        },
        "range": {
          "value": null,
          "units": "",
          "maxIncrements": 1,
          "minValue": null,
          "minUnits": "",
          "long": null
        },
        "uses": {
          "value": 0,
          "max": 0,
          "per": null,
          "autoDeductCharges": true,
          "autoDeductChargesCost": "1"
        },
        "measureTemplate": {
          "type": "",
          "size": "0",
          "overrideColor": false,
          "customColor": "",
          "overrideTexture": false,
          "customTexture": ""
        },
        "attackName": "",
        "actionType": null,
        "attackBonus": "",
        "critConfirmBonus": "",
        "damage": {
          "parts": [],
          "critParts": [],
          "nonCritParts": []
        },
        "attackParts": [],
        "formula": "",
        "ability": {
          "attack": null,
          "damage": null,
          "damageMult": 1,
          "critRange": 20,
          "critMult": 2
        },
        "save": {
          "dc": 0,
          "type": "",
          "description": ""
        },
        "effectNotes": "",
        "attackNotes": "",
        "soundEffect": "",
        "changes": [],
        "changeFlags": {
          "loseDexToAC": false,
          "noStr": false,
          "noDex": false,
          "oneInt": false,
          "oneWis": false,
          "oneCha": false,
          "noEncumbrance": false,
          "mediumArmorFullSpeed": false,
          "heavyArmorFullSpeed": false
        },
        "contextNotes": [],
        "links": {
          "children": [],
          "charges": []
        },
        "tag": "",
        "useCustomTag": false,
        "armorProf": {
          "value": [],
          "custom": ""
        },
        "weaponProf": {
          "value": [],
          "custom": ""
        },
        "featType": "feat",
        "associations": {
          "classes": []
        },
        "showInQuickbar": false,
        "nonlethal": false,
        "abilityType": "none",
        "crOffset": "",
        "attack": {
          "parts": []
        }
      },
      "sort": 100000,
      "flags": {},
      "img": "icons/svg/mystery-man.svg",
      "effects": []
    },
    {
      "_id": "ROp71xEyJKWPYyd8",
      "name": "Endurance",
      "type": "feat",
      "data": {
        "description": {
          "value": "",
          "chat": "",
          "unidentified": ""
        },
        "tags": [],
        "activation": {
          "cost": 1,
          "type": ""
        },
        "unchainedAction": {
          "activation": {
            "cost": 1,
            "type": ""
          }
        },
        "duration": {
          "value": null,
          "units": ""
        },
        "target": {
          "value": ""
        },
        "range": {
          "value": null,
          "units": "",
          "maxIncrements": 1,
          "minValue": null,
          "minUnits": "",
          "long": null
        },
        "uses": {
          "value": 0,
          "max": 0,
          "per": null,
          "autoDeductCharges": true,
          "autoDeductChargesCost": "1"
        },
        "measureTemplate": {
          "type": "",
          "size": "0",
          "overrideColor": false,
          "customColor": "",
          "overrideTexture": false,
          "customTexture": ""
        },
        "attackName": "",
        "actionType": null,
        "attackBonus": "",
        "critConfirmBonus": "",
        "damage": {
          "parts": [],
          "critParts": [],
          "nonCritParts": []
        },
        "attackParts": [],
        "formula": "",
        "ability": {
          "attack": null,
          "damage": null,
          "damageMult": 1,
          "critRange": 20,
          "critMult": 2
        },
        "save": {
          "dc": 0,
          "type": "",
          "description": ""
        },
        "effectNotes": "",
        "attackNotes": "",
        "soundEffect": "",
        "changes": [],
        "changeFlags": {
          "loseDexToAC": false,
          "noStr": false,
          "noDex": false,
          "oneInt": false,
          "oneWis": false,
          "oneCha": false,
          "noEncumbrance": false,
          "mediumArmorFullSpeed": false,
          "heavyArmorFullSpeed": false
        },
        "contextNotes": [],
        "links": {
          "children": [],
          "charges": []
        },
        "tag": "",
        "useCustomTag": false,
        "armorProf": {
          "value": [],
          "custom": ""
        },
        "weaponProf": {
          "value": [],
          "custom": ""
        },
        "featType": "feat",
        "associations": {
          "classes": []
        },
        "showInQuickbar": false,
        "nonlethal": false,
        "abilityType": "none",
        "crOffset": "",
        "attack": {
          "parts": []
        }
      },
      "sort": 100000,
      "flags": {},
      "img": "icons/svg/mystery-man.svg",
      "effects": []
    },
    {
      "_id": "GIbDvFlFZo4V7J0u",
      "name": "Improved Initiative",
      "type": "feat",
      "data": {
        "description": {
          "value": "",
          "chat": "",
          "unidentified": ""
        },
        "tags": [],
        "activation": {
          "cost": 1,
          "type": ""
        },
        "unchainedAction": {
          "activation": {
            "cost": 1,
            "type": ""
          }
        },
        "duration": {
          "value": null,
          "units": ""
        },
        "target": {
          "value": ""
        },
        "range": {
          "value": null,
          "units": "",
          "maxIncrements": 1,
          "minValue": null,
          "minUnits": "",
          "long": null
        },
        "uses": {
          "value": 0,
          "max": 0,
          "per": null,
          "autoDeductCharges": true,
          "autoDeductChargesCost": "1"
        },
        "measureTemplate": {
          "type": "",
          "size": "0",
          "overrideColor": false,
          "customColor": "",
          "overrideTexture": false,
          "customTexture": ""
        },
        "attackName": "",
        "actionType": null,
        "attackBonus": "",
        "critConfirmBonus": "",
        "damage": {
          "parts": [],
          "critParts": [],
          "nonCritParts": []
        },
        "attackParts": [],
        "formula": "",
        "ability": {
          "attack": null,
          "damage": null,
          "damageMult": 1,
          "critRange": 20,
          "critMult": 2
        },
        "save": {
          "dc": 0,
          "type": "",
          "description": ""
        },
        "effectNotes": "",
        "attackNotes": "",
        "soundEffect": "",
        "changes": [],
        "changeFlags": {
          "loseDexToAC": false,
          "noStr": false,
          "noDex": false,
          "oneInt": false,
          "oneWis": false,
          "oneCha": false,
          "noEncumbrance": false,
          "mediumArmorFullSpeed": false,
          "heavyArmorFullSpeed": false
        },
        "contextNotes": [],
        "links": {
          "children": [],
          "charges": []
        },
        "tag": "",
        "useCustomTag": false,
        "armorProf": {
          "value": [],
          "custom": ""
        },
        "weaponProf": {
          "value": [],
          "custom": ""
        },
        "featType": "feat",
        "associations": {
          "classes": []
        },
        "showInQuickbar": false,
        "nonlethal": false,
        "abilityType": "none",
        "crOffset": "",
        "attack": {
          "parts": []
        }
      },
      "sort": 100000,
      "flags": {},
      "img": "icons/svg/mystery-man.svg",
      "effects": []
    },
    {
      "_id": "VjjzTrYKperSUXWM",
      "name": "Power Attack",
      "type": "feat",
      "data": {
        "description": {
          "value": "",
          "chat": "",
          "unidentified": ""
        },
        "tags": [],
        "activation": {
          "cost": 1,
          "type": ""
        },
        "unchainedAction": {
          "activation": {
            "cost": 1,
            "type": ""
          }
        },
        "duration": {
          "value": null,
          "units": ""
        },
        "target": {
          "value": ""
        },
        "range": {
          "value": null,
          "units": "",
          "maxIncrements": 1,
          "minValue": null,
          "minUnits": "",
          "long": null
        },
        "uses": {
          "value": 0,
          "max": 0,
          "per": null,
          "autoDeductCharges": true,
          "autoDeductChargesCost": "1"
        },
        "measureTemplate": {
          "type": "",
          "size": "0",
          "overrideColor": false,
          "customColor": "",
          "overrideTexture": false,
          "customTexture": ""
        },
        "attackName": "",
        "actionType": null,
        "attackBonus": "",
        "critConfirmBonus": "",
        "damage": {
          "parts": [],
          "critParts": [],
          "nonCritParts": []
        },
        "attackParts": [],
        "formula": "",
        "ability": {
          "attack": null,
          "damage": null,
          "damageMult": 1,
          "critRange": 20,
          "critMult": 2
        },
        "save": {
          "dc": 0,
          "type": "",
          "description": ""
        },
        "effectNotes": "",
        "attackNotes": "",
        "soundEffect": "",
        "changes": [],
        "changeFlags": {
          "loseDexToAC": false,
          "noStr": false,
          "noDex": false,
          "oneInt": false,
          "oneWis": false,
          "oneCha": false,
          "noEncumbrance": false,
          "mediumArmorFullSpeed": false,
          "heavyArmorFullSpeed": false
        },
        "contextNotes": [],
        "links": {
          "children": [],
          "charges": []
        },
        "tag": "",
        "useCustomTag": false,
        "armorProf": {
          "value": [],
          "custom": ""
        },
        "weaponProf": {
          "value": [],
          "custom": ""
        },
        "featType": "feat",
        "associations": {
          "classes": []
        },
        "showInQuickbar": false,
        "nonlethal": false,
        "abilityType": "none",
        "crOffset": "",
        "attack": {
          "parts": []
        }
      },
      "sort": 100000,
      "flags": {},
      "img": "icons/svg/mystery-man.svg",
      "effects": []
    },
    {
      "_id": "DtuGeY79GloWEsaw",
      "name": "Run",
      "type": "feat",
      "data": {
        "description": {
          "value": "",
          "chat": "",
          "unidentified": ""
        },
        "tags": [],
        "activation": {
          "cost": 1,
          "type": ""
        },
        "unchainedAction": {
          "activation": {
            "cost": 1,
            "type": ""
          }
        },
        "duration": {
          "value": null,
          "units": ""
        },
        "target": {
          "value": ""
        },
        "range": {
          "value": null,
          "units": "",
          "maxIncrements": 1,
          "minValue": null,
          "minUnits": "",
          "long": null
        },
        "uses": {
          "value": 0,
          "max": 0,
          "per": null,
          "autoDeductCharges": true,
          "autoDeductChargesCost": "1"
        },
        "measureTemplate": {
          "type": "",
          "size": "0",
          "overrideColor": false,
          "customColor": "",
          "overrideTexture": false,
          "customTexture": ""
        },
        "attackName": "",
        "actionType": null,
        "attackBonus": "",
        "critConfirmBonus": "",
        "damage": {
          "parts": [],
          "critParts": [],
          "nonCritParts": []
        },
        "attackParts": [],
        "formula": "",
        "ability": {
          "attack": null,
          "damage": null,
          "damageMult": 1,
          "critRange": 20,
          "critMult": 2
        },
        "save": {
          "dc": 0,
          "type": "",
          "description": ""
        },
        "effectNotes": "",
        "attackNotes": "",
        "soundEffect": "",
        "changes": [],
        "changeFlags": {
          "loseDexToAC": false,
          "noStr": false,
          "noDex": false,
          "oneInt": false,
          "oneWis": false,
          "oneCha": false,
          "noEncumbrance": false,
          "mediumArmorFullSpeed": false,
          "heavyArmorFullSpeed": false
        },
        "contextNotes": [],
        "links": {
          "children": [],
          "charges": []
        },
        "tag": "",
        "useCustomTag": false,
        "armorProf": {
          "value": [],
          "custom": ""
        },
        "weaponProf": {
          "value": [],
          "custom": ""
        },
        "featType": "feat",
        "associations": {
          "classes": []
        },
        "showInQuickbar": false,
        "nonlethal": false,
        "abilityType": "none",
        "crOffset": "",
        "attack": {
          "parts": []
        }
      },
      "sort": 100000,
      "flags": {},
      "img": "icons/svg/mystery-man.svg",
      "effects": []
    },
    {
      "_id": "uNBMkL5a7hWemYFZ",
      "name": "Self-Sufficient",
      "type": "feat",
      "data": {
        "description": {
          "value": "",
          "chat": "",
          "unidentified": ""
        },
        "tags": [],
        "activation": {
          "cost": 1,
          "type": ""
        },
        "unchainedAction": {
          "activation": {
            "cost": 1,
            "type": ""
          }
        },
        "duration": {
          "value": null,
          "units": ""
        },
        "target": {
          "value": ""
        },
        "range": {
          "value": null,
          "units": "",
          "maxIncrements": 1,
          "minValue": null,
          "minUnits": "",
          "long": null
        },
        "uses": {
          "value": 0,
          "max": 0,
          "per": null,
          "autoDeductCharges": true,
          "autoDeductChargesCost": "1"
        },
        "measureTemplate": {
          "type": "",
          "size": "0",
          "overrideColor": false,
          "customColor": "",
          "overrideTexture": false,
          "customTexture": ""
        },
        "attackName": "",
        "actionType": null,
        "attackBonus": "",
        "critConfirmBonus": "",
        "damage": {
          "parts": [],
          "critParts": [],
          "nonCritParts": []
        },
        "attackParts": [],
        "formula": "",
        "ability": {
          "attack": null,
          "damage": null,
          "damageMult": 1,
          "critRange": 20,
          "critMult": 2
        },
        "save": {
          "dc": 0,
          "type": "",
          "description": ""
        },
        "effectNotes": "",
        "attackNotes": "",
        "soundEffect": "",
        "changes": [],
        "changeFlags": {
          "loseDexToAC": false,
          "noStr": false,
          "noDex": false,
          "oneInt": false,
          "oneWis": false,
          "oneCha": false,
          "noEncumbrance": false,
          "mediumArmorFullSpeed": false,
          "heavyArmorFullSpeed": false
        },
        "contextNotes": [],
        "links": {
          "children": [],
          "charges": []
        },
        "tag": "",
        "useCustomTag": false,
        "armorProf": {
          "value": [],
          "custom": ""
        },
        "weaponProf": {
          "value": [],
          "custom": ""
        },
        "featType": "feat",
        "associations": {
          "classes": []
        },
        "showInQuickbar": false,
        "nonlethal": false,
        "abilityType": "none",
        "crOffset": "",
        "attack": {
          "parts": []
        }
      },
      "sort": 100000,
      "flags": {},
      "img": "icons/svg/mystery-man.svg",
      "effects": []
    },
    {
      "_id": "NSOhszC7W5qMsFWJ",
      "name": "Weapon Focus (spear) ",
      "type": "feat",
      "data": {
        "description": {
          "value": "",
          "chat": "",
          "unidentified": ""
        },
        "tags": [],
        "activation": {
          "cost": 1,
          "type": ""
        },
        "unchainedAction": {
          "activation": {
            "cost": 1,
            "type": ""
          }
        },
        "duration": {
          "value": null,
          "units": ""
        },
        "target": {
          "value": ""
        },
        "range": {
          "value": null,
          "units": "",
          "maxIncrements": 1,
          "minValue": null,
          "minUnits": "",
          "long": null
        },
        "uses": {
          "value": 0,
          "max": 0,
          "per": null,
          "autoDeductCharges": true,
          "autoDeductChargesCost": "1"
        },
        "measureTemplate": {
          "type": "",
          "size": "0",
          "overrideColor": false,
          "customColor": "",
          "overrideTexture": false,
          "customTexture": ""
        },
        "attackName": "",
        "actionType": null,
        "attackBonus": "",
        "critConfirmBonus": "",
        "damage": {
          "parts": [],
          "critParts": [],
          "nonCritParts": []
        },
        "attackParts": [],
        "formula": "",
        "ability": {
          "attack": null,
          "damage": null,
          "damageMult": 1,
          "critRange": 20,
          "critMult": 2
        },
        "save": {
          "dc": 0,
          "type": "",
          "description": ""
        },
        "effectNotes": "",
        "attackNotes": "",
        "soundEffect": "",
        "changes": [],
        "changeFlags": {
          "loseDexToAC": false,
          "noStr": false,
          "noDex": false,
          "oneInt": false,
          "oneWis": false,
          "oneCha": false,
          "noEncumbrance": false,
          "mediumArmorFullSpeed": false,
          "heavyArmorFullSpeed": false
        },
        "contextNotes": [],
        "links": {
          "children": [],
          "charges": []
        },
        "tag": "",
        "useCustomTag": false,
        "armorProf": {
          "value": [],
          "custom": ""
        },
        "weaponProf": {
          "value": [],
          "custom": ""
        },
        "featType": "feat",
        "associations": {
          "classes": []
        },
        "showInQuickbar": false,
        "nonlethal": false,
        "abilityType": "none",
        "crOffset": "",
        "attack": {
          "parts": []
        }
      },
      "sort": 100000,
      "flags": {},
      "img": "icons/svg/mystery-man.svg",
      "effects": []
    },
    {
      "_id": "6D9U9yxga5SjHhZZ",
      "name": "SQ: arctic stride",
      "type": "feat",
      "data": {
        "description": {
          "value": "",
          "chat": "",
          "unidentified": ""
        },
        "tags": [],
        "activation": {
          "cost": 1,
          "type": ""
        },
        "unchainedAction": {
          "activation": {
            "cost": 1,
            "type": ""
          }
        },
        "duration": {
          "value": null,
          "units": ""
        },
        "target": {
          "value": ""
        },
        "range": {
          "value": null,
          "units": "",
          "maxIncrements": 1,
          "minValue": null,
          "minUnits": "",
          "long": null
        },
        "uses": {
          "value": 0,
          "max": 0,
          "per": null,
          "autoDeductCharges": true,
          "autoDeductChargesCost": "1"
        },
        "measureTemplate": {
          "type": "",
          "size": "0",
          "overrideColor": false,
          "customColor": "",
          "overrideTexture": false,
          "customTexture": ""
        },
        "attackName": "",
        "actionType": "",
        "attackBonus": "",
        "critConfirmBonus": "",
        "damage": {
          "parts": [],
          "critParts": [],
          "nonCritParts": []
        },
        "attackParts": [],
        "formula": "",
        "ability": {
          "attack": "",
          "damage": "",
          "damageMult": 1,
          "critRange": 20,
          "critMult": 2
        },
        "save": {
          "dc": "",
          "type": "",
          "description": ""
        },
        "effectNotes": "",
        "attackNotes": "",
        "soundEffect": "",
        "changes": [],
        "changeFlags": {
          "loseDexToAC": false,
          "noStr": false,
          "noDex": false,
          "oneInt": false,
          "oneWis": false,
          "oneCha": false,
          "noEncumbrance": false,
          "mediumArmorFullSpeed": false,
          "heavyArmorFullSpeed": false
        },
        "contextNotes": [],
        "links": {
          "children": [],
          "charges": []
        },
        "tag": "",
        "useCustomTag": false,
        "armorProf": {
          "value": [],
          "custom": ""
        },
        "weaponProf": {
          "value": [],
          "custom": ""
        },
        "featType": "misc",
        "associations": {
          "classes": []
        },
        "showInQuickbar": false,
        "nonlethal": false,
        "abilityType": "",
        "crOffset": "0",
        "attack": {
          "parts": []
        }
      },
      "sort": 1000000,
      "flags": {},
      "img": "icons/svg/mystery-man.svg",
      "effects": []
    },
    {
      "_id": "4aJSnzwWi9YbjyeY",
      "name": "sbc | Conversion Changes",
      "type": "buff",
      "data": {
        "description": {
          "value": "<h2>Actor created with Lavaeolous' StatBlock Converter</h2>\n<p>This Buff contains data that could not be represented in other ways. It is advised to re-check the stats in this when adding new features, such as Feats (e.g. Improved Initiative).</p>",
          "chat": "",
          "unidentified": ""
        },
        "tags": [],
        "changes": [
          {
            "_id": "ez823mtc",
            "formula": "4",
            "operator": "+",
            "target": "misc",
            "subTarget": "init",
            "modifier": "untyped",
            "priority": 1,
            "value": 0
          },
          {
            "_id": "xgqe722v",
            "formula": "1",
            "operator": "+",
            "target": "ac",
            "subTarget": "ac",
            "modifier": "dodge",
            "priority": 1,
            "value": 0
          },
          {
            "_id": "ja03us8s",
            "formula": "0",
            "operator": "+",
            "target": "savingThrows",
            "subTarget": "fort",
            "modifier": "untyped",
            "priority": 1,
            "value": 0
          },
          {
            "_id": "w3v6nvdu",
            "formula": "0",
            "operator": "+",
            "target": "savingThrows",
            "subTarget": "ref",
            "modifier": "untyped",
            "priority": 1,
            "value": 0
          },
          {
            "_id": "4ga8dque",
            "formula": "0",
            "operator": "+",
            "target": "savingThrows",
            "subTarget": "will",
            "modifier": "untyped",
            "priority": 1,
            "value": 0
          }
        ],
        "changeFlags": {
          "loseDexToAC": false,
          "noStr": false,
          "noDex": false,
          "oneInt": false,
          "oneWis": false,
          "oneCha": false,
          "noEncumbrance": false,
          "mediumArmorFullSpeed": false,
          "heavyArmorFullSpeed": false
        },
        "contextNotes": [],
        "links": {
          "children": []
        },
        "tag": "",
        "useCustomTag": false,
        "buffType": "perm",
        "active": true,
        "level": "",
        "hideFromToken": true,
        "damage": {
          "parts": []
        },
        "range": {
          "maxIncrements": 1
        }
      },
      "sort": 100001,
      "flags": {},
      "img": "systems/pf1/icons/skills/yellow_36.jpg",
      "effects": []
    },
    {
      "_id": "2zyr6klf97jyr5ng",
      "name": "pass without trace",
      "type": "spell",
      "data": {
        "description": {
          "value": "<div class=\"spell-description\">\n  <p>\n    <strong>School</strong>&nbsp;transmutation;\n    <strong>Level</strong>&nbsp;druid 1, hunter 1, occultist 1, ranger 1, shaman 1;\n    \n    \n    \n    \n  </p>\n  <p>\n    <strong>Casting Time</strong>&nbsp;1 standard action<br>\n    <strong>Components</strong>&nbsp;V, S, DF<br>\n  </p>\n  <p>\n    <strong>Range</strong>&nbsp;touch<br>\n    \n    <strong>Targets</strong>&nbsp;one creature/level touched<br>\n    \n    <strong>Duration</strong>&nbsp;1 hour/level<br>\n    <strong>Saving Throw</strong>&nbsp;Will negates (harmless);&nbsp;<strong>Spell Resistance</strong>&nbsp;yes<br>\n  </p>\n  <h2>Description</h2>\n  <p>The subject or subjects of this spell do not leave footprints or a scent trail while moving. Tracking the subjects is impossible by nonmagical means.</p>\n</div>\n",
          "chat": "",
          "unidentified": ""
        },
        "tags": [],
        "activation": {
          "cost": 1,
          "type": "standard"
        },
        "unchainedAction": {
          "activation": {
            "cost": 2,
            "type": "action"
          }
        },
        "duration": {
          "value": null,
          "units": ""
        },
        "target": {
          "value": "one creature/level touched"
        },
        "range": {
          "value": null,
          "units": "touch",
          "maxIncrements": 1,
          "minValue": null,
          "minUnits": "",
          "long": null
        },
        "uses": {
          "value": null,
          "max": null,
          "per": null,
          "autoDeductCharges": true,
          "autoDeductChargesCost": "1"
        },
        "measureTemplate": {
          "type": "",
          "size": "0",
          "overrideColor": false,
          "customColor": "",
          "overrideTexture": false,
          "customTexture": ""
        },
        "attackName": "",
        "actionType": "spellsave",
        "attackBonus": "",
        "critConfirmBonus": "",
        "damage": {
          "parts": [],
          "critParts": [],
          "nonCritParts": []
        },
        "attackParts": [],
        "formula": "",
        "ability": {
          "attack": "",
          "damage": "",
          "damageMult": 1,
          "critRange": 20,
          "critMult": 2
        },
        "save": {
          "dc": "0",
          "type": "will",
          "description": "Will negates (harmless)"
        },
        "effectNotes": "",
        "attackNotes": "",
        "soundEffect": "",
        "links": {
          "children": []
        },
        "learnedAt": {
          "class": [
            [
              "druid",
              1
            ],
            [
              "ranger",
              1
            ],
            [
              "shaman",
              1
            ],
            [
              "occultist",
              1
            ],
            [
              "hunter",
              1
            ]
          ],
          "domain": [],
          "subDomain": [],
          "elementalSchool": [],
          "bloodline": []
        },
        "level": 0,
        "clOffset": 0,
        "slOffset": 0,
        "school": "trs",
        "subschool": "",
        "types": "",
        "nonlethal": false,
        "conditionals": [],
        "components": {
          "value": "",
          "verbal": true,
          "somatic": true,
          "material": false,
          "focus": false,
          "divineFocus": 1
        },
        "castTime": "",
        "materials": {
          "value": "",
          "focus": "",
          "gpValue": 0
        },
        "spellbook": "spelllike",
        "preparation": {
          "preparedAmount": 0,
          "maxAmount": 0,
          "autoDeductCharges": true,
          "spontaneousPrepared": true,
          "mode": "prepared"
        },
        "atWill": false,
        "sr": true,
        "shortDescription": "<p>The subject or subjects of this spell do not leave footprints or a scent trail while moving. Tracking the subjects is impossible by nonmagical means.</p>",
        "spellDuration": "1 hour/level",
        "spellEffect": "",
        "spellArea": "",
        "showInQuickbar": false,
        "spellPoints": {
          "cost": "1 + @sl"
        },
        "domain": false,
        "slotCost": 1,
        "attack": {
          "parts": []
        }
      },
      "sort": 1100000,
      "flags": {},
      "img": "systems/pf1/icons/misc/magic-swirl.png",
      "effects": []
    },
    {
      "_id": "n879x6fw79jiofew",
      "name": "ray of frost",
      "type": "spell",
      "data": {
        "description": {
          "value": "<div class=\"spell-description\">\n  <p>\n    <strong>School</strong>&nbsp;evocation&nbsp;[cold];\n    <strong>Level</strong>&nbsp;magus 0, sorcerer/wizard 0;\n    \n    \n    \n    \n  </p>\n  <p>\n    <strong>Casting Time</strong>&nbsp;1 standard action<br>\n    <strong>Components</strong>&nbsp;V, S<br>\n  </p>\n  <p>\n    <strong>Range</strong>&nbsp;close (25 ft. + 5 ft./2 levels)<br>\n    \n    \n    <strong>Effect</strong>&nbsp;ray<br>\n    <strong>Duration</strong>&nbsp;instantaneous<br>\n    <strong>Saving Throw</strong>&nbsp;none;&nbsp;<strong>Spell Resistance</strong>&nbsp;yes<br>\n  </p>\n  <h2>Description</h2>\n  <p>A ray of freezing air and ice projects from your pointing finger.</p><p>You must succeed on a ranged touch attack with the ray to deal damage to a target. The ray deals 1d3 points of cold damage.</p>\n</div>\n",
          "chat": "",
          "unidentified": ""
        },
        "tags": [],
        "activation": {
          "cost": 1,
          "type": "standard"
        },
        "unchainedAction": {
          "activation": {
            "cost": 2,
            "type": "action"
          }
        },
        "duration": {
          "value": null,
          "units": ""
        },
        "target": {
          "value": ""
        },
        "range": {
          "value": null,
          "units": "close",
          "maxIncrements": 1,
          "minValue": null,
          "minUnits": "",
          "long": null
        },
        "uses": {
          "value": null,
          "max": null,
          "per": null,
          "autoDeductCharges": true,
          "autoDeductChargesCost": "1"
        },
        "measureTemplate": {
          "type": "",
          "size": "0",
          "overrideColor": false,
          "customColor": "",
          "overrideTexture": false,
          "customTexture": ""
        },
        "attackName": "",
        "actionType": "rsak",
        "attackBonus": "",
        "critConfirmBonus": "",
        "damage": {
          "parts": [
            [
              "1d3",
              "Cold"
            ]
          ],
          "critParts": [],
          "nonCritParts": []
        },
        "attackParts": [],
        "formula": "",
        "ability": {
          "attack": "dex",
          "damage": "",
          "damageMult": 1,
          "critRange": 20,
          "critMult": 2
        },
        "save": {
          "dc": "0",
          "type": "",
          "description": ""
        },
        "effectNotes": "",
        "attackNotes": "",
        "soundEffect": "",
        "links": {
          "children": []
        },
        "learnedAt": {
          "class": [
            [
              "sorcerer/wizard",
              0
            ],
            [
              "magus",
              0
            ]
          ],
          "domain": [],
          "subDomain": [],
          "elementalSchool": [],
          "bloodline": []
        },
        "level": 0,
        "clOffset": 0,
        "slOffset": 0,
        "school": "evo",
        "subschool": "",
        "types": "cold",
        "nonlethal": false,
        "conditionals": [],
        "components": {
          "value": "",
          "verbal": true,
          "somatic": true,
          "material": false,
          "focus": false,
          "divineFocus": 0
        },
        "castTime": "",
        "materials": {
          "value": "",
          "focus": "",
          "gpValue": 0
        },
        "spellbook": "spelllike",
        "preparation": {
          "preparedAmount": 0,
          "maxAmount": 0,
          "autoDeductCharges": true,
          "spontaneousPrepared": true,
          "mode": "prepared"
        },
        "atWill": true,
        "sr": true,
        "shortDescription": "<p>A ray of freezing air and ice projects from your pointing finger.</p><p>You must succeed on a ranged touch attack with the ray to deal damage to a target. The ray deals 1d3 points of cold damage.</p>",
        "spellDuration": "instantaneous",
        "spellEffect": "ray",
        "spellArea": "",
        "showInQuickbar": false,
        "spellPoints": {
          "cost": "1 + @sl"
        },
        "domain": false,
        "slotCost": 1,
        "attack": {
          "parts": []
        }
      },
      "sort": 1200000,
      "flags": {},
      "img": "systems/pf1/icons/misc/magic-swirl.png",
      "effects": []
    },
    {
      "_id": "g33euis7yi9pwddy",
      "name": "fog cloud",
      "type": "spell",
      "data": {
        "description": {
          "value": "<div class=\"spell-description\">\n  <p>\n    <strong>School</strong>&nbsp;conjuration&nbsp;(creation);\n    <strong>Level</strong>&nbsp;druid 2, hunter 2, magus 2, shaman 2, sorcerer/wizard 2, unchained Summoner 2, witch 2;\n    <strong>Domain</strong>&nbsp;Water 2, Weather 2;\n    \n    \n    \n  </p>\n  <p>\n    <strong>Casting Time</strong>&nbsp;1 standard action<br>\n    <strong>Components</strong>&nbsp;V, S<br>\n  </p>\n  <p>\n    <strong>Range</strong>&nbsp;medium (100 ft. + 10 ft./level)<br>\n    \n    \n    <strong>Effect</strong>&nbsp;fog spreads in 20-ft. radius<br>\n    <strong>Duration</strong>&nbsp;10 min./level<br>\n    <strong>Saving Throw</strong>&nbsp;none;&nbsp;<strong>Spell Resistance</strong>&nbsp;no<br>\n  </p>\n  <h2>Description</h2>\n  <p>A bank of fog billows out from the point you designate. The fog obscures all sight, including darkvision, beyond 5 feet. A creature within 5 feet has concealment (attacks have a 20% miss chance).</p><p>Creatures farther away have total concealment (50% miss chance, and the attacker can't use sight to locate the target).</p><p>A moderate wind (11+ mph) disperses the fog in 4 rounds; a strong wind (21+ mph) disperses the fog in 1 round.</p><p>The spell does not function underwater.</p>\n</div>\n",
          "chat": "",
          "unidentified": ""
        },
        "tags": [],
        "activation": {
          "cost": 1,
          "type": "standard"
        },
        "unchainedAction": {
          "activation": {
            "cost": 2,
            "type": "action"
          }
        },
        "duration": {
          "value": null,
          "units": ""
        },
        "target": {
          "value": ""
        },
        "range": {
          "value": null,
          "units": "medium",
          "maxIncrements": 1,
          "minValue": null,
          "minUnits": "",
          "long": null
        },
        "uses": {
          "value": null,
          "max": null,
          "per": null,
          "autoDeductCharges": true,
          "autoDeductChargesCost": "1"
        },
        "measureTemplate": {
          "type": "",
          "size": "0",
          "overrideColor": false,
          "customColor": "",
          "overrideTexture": false,
          "customTexture": ""
        },
        "attackName": "",
        "actionType": "other",
        "attackBonus": "",
        "critConfirmBonus": "",
        "damage": {
          "parts": [],
          "critParts": [],
          "nonCritParts": []
        },
        "attackParts": [],
        "formula": "",
        "ability": {
          "attack": "",
          "damage": "",
          "damageMult": 1,
          "critRange": 20,
          "critMult": 2
        },
        "save": {
          "dc": "0",
          "type": "",
          "description": ""
        },
        "effectNotes": "",
        "attackNotes": "",
        "soundEffect": "",
        "links": {
          "children": []
        },
        "learnedAt": {
          "class": [
            [
              "sorcerer/wizard",
              2
            ],
            [
              "druid",
              2
            ],
            [
              "witch",
              2
            ],
            [
              "magus",
              2
            ],
            [
              "shaman",
              2
            ],
            [
              "hunter",
              2
            ],
            [
              "unchained Summoner",
              2
            ]
          ],
          "domain": [
            [
              "Water",
              2
            ],
            [
              "Weather",
              2
            ]
          ],
          "subDomain": [],
          "elementalSchool": [],
          "bloodline": []
        },
        "level": 0,
        "clOffset": 0,
        "slOffset": 0,
        "school": "con",
        "subschool": "creation",
        "types": "",
        "nonlethal": false,
        "conditionals": [],
        "components": {
          "value": "",
          "verbal": true,
          "somatic": true,
          "material": false,
          "focus": false,
          "divineFocus": 0
        },
        "castTime": "",
        "materials": {
          "value": "",
          "focus": "",
          "gpValue": 0
        },
        "spellbook": "spelllike",
        "preparation": {
          "preparedAmount": 3,
          "maxAmount": 3,
          "autoDeductCharges": true,
          "spontaneousPrepared": true,
          "mode": "prepared"
        },
        "atWill": false,
        "sr": false,
        "shortDescription": "<p>A bank of fog billows out from the point you designate. The fog obscures all sight, including darkvision, beyond 5 feet. A creature within 5 feet has concealment (attacks have a 20% miss chance).</p><p>Creatures farther away have total concealment (50% miss chance, and the attacker can't use sight to locate the target).</p><p>A moderate wind (11+ mph) disperses the fog in 4 rounds; a strong wind (21+ mph) disperses the fog in 1 round.</p><p>The spell does not function underwater.</p>",
        "spellDuration": "10 min./level",
        "spellEffect": "fog spreads in 20-ft. radius",
        "spellArea": "",
        "showInQuickbar": false,
        "spellPoints": {
          "cost": "1 + @sl"
        },
        "domain": false,
        "slotCost": 1,
        "attack": {
          "parts": []
        }
      },
      "sort": 1300000,
      "flags": {},
      "img": "systems/pf1/icons/misc/magic-swirl.png",
      "effects": []
    },
    {
      "_id": "qnp4eosajai8s3sf",
      "name": "sleet storm",
      "type": "spell",
      "data": {
        "description": {
          "value": "<div class=\"spell-description\">\n  <p>\n    <strong>School</strong>&nbsp;conjuration&nbsp;(creation)&nbsp;[cold];\n    <strong>Level</strong>&nbsp;bloodrager 3, druid 3, hunter 3, magus 3, shaman 3, sorcerer/wizard 3, witch 3;\n    <strong>Domain</strong>&nbsp;Weather 4;\n    \n    \n    \n  </p>\n  <p>\n    <strong>Casting Time</strong>&nbsp;1 standard action<br>\n    <strong>Components</strong>&nbsp;V, S, M/DF (dust and water)<br>\n  </p>\n  <p>\n    <strong>Range</strong>&nbsp;long (400 ft. + 40 ft./level)<br>\n    <strong>Area</strong>&nbsp;cylinder (40-ft. radius, 20 ft. high)<br>\n    \n    \n    <strong>Duration</strong>&nbsp;1 round/level<br>\n    <strong>Saving Throw</strong>&nbsp;none;&nbsp;<strong>Spell Resistance</strong>&nbsp;no<br>\n  </p>\n  <h2>Description</h2>\n  <p>Driving sleet blocks all sight (even darkvision) within it and causes the ground in the area to be icy. A creature can walk within or through the area of sleet at half normal speed with a DC 10 Acrobatics check. Failure means it can't move in that round, while failure by 5 or more means it falls (see the Acrobatics skill for details).</p><p>The sleet extinguishes torches and small fires.</p>\n</div>\n",
          "chat": "",
          "unidentified": ""
        },
        "tags": [],
        "activation": {
          "cost": 1,
          "type": "standard"
        },
        "unchainedAction": {
          "activation": {
            "cost": 2,
            "type": "action"
          }
        },
        "duration": {
          "value": null,
          "units": ""
        },
        "target": {
          "value": ""
        },
        "range": {
          "value": null,
          "units": "long",
          "maxIncrements": 1,
          "minValue": null,
          "minUnits": "",
          "long": null
        },
        "uses": {
          "value": null,
          "max": null,
          "per": null,
          "autoDeductCharges": true,
          "autoDeductChargesCost": "1"
        },
        "measureTemplate": {
          "type": "",
          "size": "0",
          "overrideColor": false,
          "customColor": "",
          "overrideTexture": false,
          "customTexture": ""
        },
        "attackName": "",
        "actionType": "",
        "attackBonus": "",
        "critConfirmBonus": "",
        "damage": {
          "parts": [],
          "critParts": [],
          "nonCritParts": []
        },
        "attackParts": [],
        "formula": "",
        "ability": {
          "attack": "",
          "damage": "",
          "damageMult": 1,
          "critRange": 20,
          "critMult": 2
        },
        "save": {
          "dc": "0",
          "type": "",
          "description": ""
        },
        "effectNotes": "",
        "attackNotes": "",
        "soundEffect": "",
        "links": {
          "children": []
        },
        "learnedAt": {
          "class": [
            [
              "sorcerer/wizard",
              3
            ],
            [
              "druid",
              3
            ],
            [
              "witch",
              3
            ],
            [
              "magus",
              3
            ],
            [
              "bloodrager",
              3
            ],
            [
              "shaman",
              3
            ],
            [
              "hunter",
              3
            ]
          ],
          "domain": [
            [
              "Weather",
              4
            ]
          ],
          "subDomain": [],
          "elementalSchool": [],
          "bloodline": []
        },
        "level": 0,
        "clOffset": 0,
        "slOffset": 0,
        "school": "con",
        "subschool": "creation",
        "types": "cold",
        "nonlethal": false,
        "conditionals": [],
        "components": {
          "value": "",
          "verbal": true,
          "somatic": true,
          "material": true,
          "focus": false,
          "divineFocus": 2
        },
        "castTime": "",
        "materials": {
          "value": "dust and water",
          "focus": "",
          "gpValue": 0
        },
        "spellbook": "spelllike",
        "preparation": {
          "preparedAmount": 3,
          "maxAmount": 3,
          "autoDeductCharges": true,
          "spontaneousPrepared": true,
          "mode": "prepared"
        },
        "atWill": false,
        "sr": false,
        "shortDescription": "<p>Driving sleet blocks all sight (even darkvision) within it and causes the ground in the area to be icy. A creature can walk within or through the area of sleet at half normal speed with a DC 10 Acrobatics check. Failure means it can't move in that round, while failure by 5 or more means it falls (see the Acrobatics skill for details).</p><p>The sleet extinguishes torches and small fires.</p>",
        "spellDuration": "1 round/level",
        "spellEffect": "",
        "spellArea": "cylinder (40-ft. radius, 20 ft. high)",
        "showInQuickbar": false,
        "spellPoints": {
          "cost": "1 + @sl"
        },
        "domain": false,
        "slotCost": 1,
        "attack": {
          "parts": []
        }
      },
      "sort": 1400000,
      "flags": {},
      "img": "systems/pf1/icons/misc/magic-swirl.png",
      "effects": []
    },
    {
      "_id": "t1uhggjfimtabp4v",
      "name": "ice storm",
      "type": "spell",
      "data": {
        "description": {
          "value": "<div class=\"spell-description\">\n  <p>\n    <strong>School</strong>&nbsp;evocation&nbsp;[cold];\n    <strong>Level</strong>&nbsp;bloodrager 4, druid 4, hunter 4, magus 4, occultist 4, shaman 4, sorcerer/wizard 4, witch 4;\n    <strong>Domain</strong>&nbsp;Water 5, Weather 5;\n    \n    \n    \n  </p>\n  <p>\n    <strong>Casting Time</strong>&nbsp;1 standard action<br>\n    <strong>Components</strong>&nbsp;V, S, M/DF (dust and water)<br>\n  </p>\n  <p>\n    <strong>Range</strong>&nbsp;long (400 ft. + 40 ft./level)<br>\n    <strong>Area</strong>&nbsp;cylinder (20-ft. radius, 40 ft. high)<br>\n    \n    \n    <strong>Duration</strong>&nbsp;1 round/level (D)<br>\n    <strong>Saving Throw</strong>&nbsp;none;&nbsp;<strong>Spell Resistance</strong>&nbsp;yes<br>\n  </p>\n  <h2>Description</h2>\n  <p>Great magical hailstones pound down upon casting this spell, dealing 3d6 points of bludgeoning damage and 2d6 points of cold damage to every creature in the area. This damage only occurs once, when the spell is cast. For the remaining duration of the spell, heavy snow and sleet rains down in the area. Creatures inside this area take a -4 penalty on Perception skill checks and the entire area is treated as difficult terrain. At the end of the duration, the snow and hail disappear, leaving no aftereffects (other than the damage dealt).</p>\n</div>\n",
          "chat": "",
          "unidentified": ""
        },
        "tags": [],
        "activation": {
          "cost": 1,
          "type": "standard"
        },
        "unchainedAction": {
          "activation": {
            "cost": 2,
            "type": "action"
          }
        },
        "duration": {
          "value": null,
          "units": ""
        },
        "target": {
          "value": ""
        },
        "range": {
          "value": null,
          "units": "long",
          "maxIncrements": 1,
          "minValue": null,
          "minUnits": "",
          "long": null
        },
        "uses": {
          "value": null,
          "max": null,
          "per": null,
          "autoDeductCharges": true,
          "autoDeductChargesCost": "1"
        },
        "measureTemplate": {
          "type": "",
          "size": "0",
          "overrideColor": false,
          "customColor": "",
          "overrideTexture": false,
          "customTexture": ""
        },
        "attackName": "",
        "actionType": "",
        "attackBonus": "",
        "critConfirmBonus": "",
        "damage": {
          "parts": [],
          "critParts": [],
          "nonCritParts": []
        },
        "attackParts": [],
        "formula": "",
        "ability": {
          "attack": "",
          "damage": "",
          "damageMult": 1,
          "critRange": 20,
          "critMult": 2
        },
        "save": {
          "dc": "0",
          "type": "",
          "description": ""
        },
        "effectNotes": "",
        "attackNotes": "",
        "soundEffect": "",
        "links": {
          "children": []
        },
        "learnedAt": {
          "class": [
            [
              "sorcerer/wizard",
              4
            ],
            [
              "druid",
              4
            ],
            [
              "witch",
              4
            ],
            [
              "magus",
              4
            ],
            [
              "bloodrager",
              4
            ],
            [
              "shaman",
              4
            ],
            [
              "occultist",
              4
            ],
            [
              "hunter",
              4
            ]
          ],
          "domain": [
            [
              "Water",
              5
            ],
            [
              "Weather",
              5
            ]
          ],
          "subDomain": [],
          "elementalSchool": [],
          "bloodline": []
        },
        "level": 0,
        "clOffset": 0,
        "slOffset": 0,
        "school": "evo",
        "subschool": "",
        "types": "cold",
        "nonlethal": false,
        "conditionals": [],
        "components": {
          "value": "",
          "verbal": true,
          "somatic": true,
          "material": true,
          "focus": false,
          "divineFocus": 2
        },
        "castTime": "",
        "materials": {
          "value": "dust and water",
          "focus": "",
          "gpValue": 0
        },
        "spellbook": "spelllike",
        "preparation": {
          "preparedAmount": 1,
          "maxAmount": 1,
          "autoDeductCharges": true,
          "spontaneousPrepared": true,
          "mode": "prepared"
        },
        "atWill": false,
        "sr": true,
        "shortDescription": "<p>Great magical hailstones pound down upon casting this spell, dealing 3d6 points of bludgeoning damage and 2d6 points of cold damage to every creature in the area. This damage only occurs once, when the spell is cast. For the remaining duration of the spell, heavy snow and sleet rains down in the area. Creatures inside this area take a -4 penalty on Perception skill checks and the entire area is treated as difficult terrain. At the end of the duration, the snow and hail disappear, leaving no aftereffects (other than the damage dealt).</p>",
        "spellDuration": "1 round/level (D)",
        "spellEffect": "",
        "spellArea": "cylinder (20-ft. radius, 40 ft. high)",
        "showInQuickbar": false,
        "spellPoints": {
          "cost": "1 + @sl"
        },
        "domain": false,
        "slotCost": 1,
        "attack": {
          "parts": []
        }
      },
      "sort": 1500000,
      "flags": {},
      "img": "systems/pf1/icons/misc/magic-swirl.png",
      "effects": []
    },
    {
      "_id": "1mkigzpu5hohovgw",
      "name": "wind walk",
      "type": "spell",
      "data": {
        "description": {
          "value": "<div class=\"spell-description\">\n  <p>\n    <strong>School</strong>&nbsp;transmutation&nbsp;[air];\n    <strong>Level</strong>&nbsp;alchemist 6, cleric/oracle 6, druid 7, shaman 7;\n    \n    <strong>Subdomain</strong>&nbsp;Wind 6;\n    \n    \n  </p>\n  <p>\n    <strong>Casting Time</strong>&nbsp;1 standard action<br>\n    <strong>Components</strong>&nbsp;V, S, DF<br>\n  </p>\n  <p>\n    <strong>Range</strong>&nbsp;touch<br>\n    \n    <strong>Targets</strong>&nbsp;you and one touched creature per three levels<br>\n    \n    <strong>Duration</strong>&nbsp;1 hour/level ; see text<br>\n    <strong>Saving Throw</strong>&nbsp;none and Will negates (harmless);&nbsp;<strong>Spell Resistance</strong>&nbsp;no<br>\n  </p>\n  <h2>Description</h2>\n  <p>You alter the substance of your body to a cloudlike vapor (as the <i>gaseous form</i> spell) and move through the air, possibly at great speed. You can take other creatures with you, each of which acts independently.</p><p>Normally, a wind walker flies at a speed of 10 feet with perfect maneuverability. If desired by the subject, a magical wind wafts a wind walker along at up to 600 feet per round (60 mph) with poor maneuverability. Wind walkers are not invisible but rather appear misty and translucent. If fully clothed in white, they are 80% likely to be mistaken for clouds, fog, vapors, or the like.</p><p>A wind walker can regain its physical form as desired and later resume the cloud form. Each change to and from vaporous form takes 5 rounds, which counts toward the duration of the spell (as does any time spent in physical form). As noted above, you can dismiss the spell, and you can even dismiss it for individual wind walkers and not others.</p><p>For the last minute of the spell's duration, a wind walker in cloud form automatically descends 60 feet per round (for a total of 600 feet), though it may descend faster if it wishes. This descent serves as a warning that the spell is about to end.</p>\n</div>\n",
          "chat": "",
          "unidentified": ""
        },
        "tags": [],
        "activation": {
          "cost": 1,
          "type": "standard"
        },
        "unchainedAction": {
          "activation": {
            "cost": 2,
            "type": "action"
          }
        },
        "duration": {
          "value": null,
          "units": ""
        },
        "target": {
          "value": "you and one touched creature per three levels"
        },
        "range": {
          "value": null,
          "units": "touch",
          "maxIncrements": 1,
          "minValue": null,
          "minUnits": "",
          "long": null
        },
        "uses": {
          "value": null,
          "max": null,
          "per": null,
          "autoDeductCharges": true,
          "autoDeductChargesCost": "1"
        },
        "measureTemplate": {
          "type": "",
          "size": "0",
          "overrideColor": false,
          "customColor": "",
          "overrideTexture": false,
          "customTexture": ""
        },
        "attackName": "",
        "actionType": "spellsave",
        "attackBonus": "",
        "critConfirmBonus": "",
        "damage": {
          "parts": [],
          "critParts": [],
          "nonCritParts": []
        },
        "attackParts": [],
        "formula": "",
        "ability": {
          "attack": "",
          "damage": "",
          "damageMult": 1,
          "critRange": 20,
          "critMult": 2
        },
        "save": {
          "dc": "0",
          "type": "will",
          "description": "none and Will negates (harmless)"
        },
        "effectNotes": "",
        "attackNotes": "",
        "soundEffect": "",
        "links": {
          "children": []
        },
        "learnedAt": {
          "class": [
            [
              "cleric/oracle",
              6
            ],
            [
              "druid",
              7
            ],
            [
              "alchemist",
              6
            ],
            [
              "shaman",
              7
            ]
          ],
          "domain": [],
          "subDomain": [
            [
              "Wind",
              6
            ]
          ],
          "elementalSchool": [],
          "bloodline": []
        },
        "level": 0,
        "clOffset": 0,
        "slOffset": 0,
        "school": "trs",
        "subschool": "",
        "types": "air",
        "nonlethal": false,
        "conditionals": [],
        "components": {
          "value": "",
          "verbal": true,
          "somatic": true,
          "material": false,
          "focus": false,
          "divineFocus": 1
        },
        "castTime": "",
        "materials": {
          "value": "",
          "focus": "",
          "gpValue": 0
        },
        "spellbook": "spelllike",
        "preparation": {
          "preparedAmount": 1,
          "maxAmount": 1,
          "autoDeductCharges": true,
          "spontaneousPrepared": true,
          "mode": "prepared"
        },
        "atWill": false,
        "sr": false,
        "shortDescription": "<p>You alter the substance of your body to a cloudlike vapor (as the <i>gaseous form</i> spell) and move through the air, possibly at great speed. You can take other creatures with you, each of which acts independently.</p><p>Normally, a wind walker flies at a speed of 10 feet with perfect maneuverability. If desired by the subject, a magical wind wafts a wind walker along at up to 600 feet per round (60 mph) with poor maneuverability. Wind walkers are not invisible but rather appear misty and translucent. If fully clothed in white, they are 80% likely to be mistaken for clouds, fog, vapors, or the like.</p><p>A wind walker can regain its physical form as desired and later resume the cloud form. Each change to and from vaporous form takes 5 rounds, which counts toward the duration of the spell (as does any time spent in physical form). As noted above, you can dismiss the spell, and you can even dismiss it for individual wind walkers and not others.</p><p>For the last minute of the spell's duration, a wind walker in cloud form automatically descends 60 feet per round (for a total of 600 feet), though it may descend faster if it wishes. This descent serves as a warning that the spell is about to end.</p>",
        "spellDuration": "1 hour/level ; see text",
        "spellEffect": "",
        "spellArea": "",
        "showInQuickbar": false,
        "spellPoints": {
          "cost": "1 + @sl"
        },
        "domain": false,
        "slotCost": 1,
        "attack": {
          "parts": []
        }
      },
      "sort": 1600000,
      "flags": {},
      "img": "systems/pf1/icons/misc/magic-swirl.png",
      "effects": []
    }
  ],
  "effects": []
}