{
  "_id": "n8k4pdmjjg8xuv7l",
  "name": "Arcane Mark",
  "permission": {
    "default": 0
  },
  "type": "spell",
  "data": {
    "description": {
      "value": "<div class=\"spell-description\">\n  <p>\n    <strong>School</strong>&nbsp;universal;\n    <strong>Level</strong>&nbsp;magus 0, psychic 0, shaman 0, sorcerer/wizard 0, summoner 0, unchained Summoner 0;\n    \n    \n    \n    \n  </p>\n  <p>\n    <strong>Casting Time</strong>&nbsp;1 standard action<br>\n    <strong>Components</strong>&nbsp;V, S<br>\n  </p>\n  <p>\n    <strong>Range</strong>&nbsp;touch<br>\n    \n    \n    <strong>Effect</strong>&nbsp;one personal rune or mark, all of which must fit within 1 sq. ft.<br>\n    <strong>Duration</strong>&nbsp;permanent<br>\n    <strong>Saving Throw</strong>&nbsp;none;&nbsp;<strong>Spell Resistance</strong>&nbsp;no<br>\n  </p>\n  <h2>Description</h2>\n  <p>This spell allows you to inscribe your personal rune or mark, which can consist of no more than six characters. The writing can be visible or invisible. An <i>arcane mark</i> spell enables you to etch the rune upon any substance without harm to the material upon which it is placed. If an invisible mark is made, a <i>detect magic</i> spell causes it to glow and be visible, though not necessarily understandable.</p><p><i>See invisibility</i>, <i>true seeing</i>, a <i>gem of seeing</i>, or a <i>robe of eyes</i> likewise allows the user to see an invisible <i>arcane mark</i>. A <i>read magic</i> spell reveals the words, if any. The mark cannot be dispelled, but it can be removed by the caster or by an <i>erase</i> spell.</p><p>If an <i>arcane mark</i> is placed on a living being, the effect gradually fades in about a month.</p><p><i>Arcane mark</i> must be cast on an object prior to casting <i>instant summons</i> on the same object (see that spell description for details).</p>\n</div>\n",
      "chat": "",
      "unidentified": ""
    },
    "tags": [],
    "activation": {
      "cost": 1,
      "type": "standard"
    },
    "unchainedAction": {
      "activation": {
        "cost": 2,
        "type": "action"
      }
    },
    "duration": {
      "value": null,
      "units": ""
    },
    "target": {
      "value": ""
    },
    "range": {
      "value": null,
      "units": "touch",
      "maxIncrements": 1,
      "minValue": null,
      "minUnits": ""
    },
    "uses": {
      "value": 0,
      "max": 0,
      "per": "",
      "autoDeductCharges": true,
      "autoDeductChargesCost": "1"
    },
    "measureTemplate": {
      "type": "",
      "size": "0",
      "overrideColor": false,
      "customColor": "",
      "overrideTexture": false,
      "customTexture": ""
    },
    "attackName": "",
    "actionType": "other",
    "attackBonus": "",
    "critConfirmBonus": "",
    "damage": {
      "parts": [],
      "critParts": [],
      "nonCritParts": []
    },
    "attackParts": [],
    "formula": "",
    "ability": {
      "attack": "",
      "damage": "",
      "damageMult": 1,
      "critRange": 20,
      "critMult": 2
    },
    "save": {
      "dc": "0",
      "type": "",
      "description": ""
    },
    "effectNotes": "",
    "attackNotes": "",
    "soundEffect": "",
    "links": {
      "children": []
    },
    "learnedAt": {
      "class": [
        [
          "sorcerer/wizard",
          0
        ],
        [
          "summoner",
          0
        ],
        [
          "magus",
          0
        ],
        [
          "shaman",
          0
        ],
        [
          "psychic",
          0
        ],
        [
          "unchained Summoner",
          0
        ]
      ],
      "domain": [],
      "subDomain": [],
      "elementalSchool": [],
      "bloodline": []
    },
    "level": 0,
    "clOffset": 0,
    "slOffset": 0,
    "school": "uni",
    "subschool": "",
    "types": "",
    "nonlethal": false,
    "conditionals": [],
    "components": {
      "value": "",
      "verbal": true,
      "somatic": true,
      "material": false,
      "focus": false,
      "divineFocus": 0
    },
    "castTime": "",
    "materials": {
      "value": "",
      "focus": "",
      "gpValue": 0
    },
    "spellbook": "primary",
    "preparation": {
      "preparedAmount": 0,
      "maxAmount": 0,
      "autoDeductCharges": false,
      "spontaneousPrepared": true,
      "mode": "prepared"
    },
    "atWill": false,
    "sr": false,
    "shortDescription": "<p>This spell allows you to inscribe your personal rune or mark, which can consist of no more than six characters. The writing can be visible or invisible. An <i>arcane mark</i> spell enables you to etch the rune upon any substance without harm to the material upon which it is placed. If an invisible mark is made, a <i>detect magic</i> spell causes it to glow and be visible, though not necessarily understandable.</p><p><i>See invisibility</i>, <i>true seeing</i>, a <i>gem of seeing</i>, or a <i>robe of eyes</i> likewise allows the user to see an invisible <i>arcane mark</i>. A <i>read magic</i> spell reveals the words, if any. The mark cannot be dispelled, but it can be removed by the caster or by an <i>erase</i> spell.</p><p>If an <i>arcane mark</i> is placed on a living being, the effect gradually fades in about a month.</p><p><i>Arcane mark</i> must be cast on an object prior to casting <i>instant summons</i> on the same object (see that spell description for details).</p>",
    "spellDuration": "permanent",
    "spellEffect": "one personal rune or mark, all of which must fit within 1 sq. ft.",
    "spellArea": "",
    "showInQuickbar": false,
    "spellPoints": {
      "cost": "1 + @sl"
    },
    "domain": false,
    "slotCost": 1
  },
  "flags": {},
  "img": "systems/pf1/icons/misc/magic-swirl.png",
  "effects": []
}