{
  "_id": "774kmgcb7ygviht0",
  "name": "Beast Shape II",
  "permission": {
    "default": 0
  },
  "type": "spell",
  "data": {
    "description": {
      "value": "<div class=\"spell-description\">\n  <p>\n    <strong>School</strong>&nbsp;transmutation&nbsp;(polymorph);\n    <strong>Level</strong>&nbsp;alchemist 4, bloodrager 4, magus 4, sorcerer/wizard 4;\n    \n    \n    \n    \n  </p>\n  <p>\n    <strong>Casting Time</strong>&nbsp;1 standard action<br>\n    <strong>Components</strong>&nbsp;V, S, M (a piece of the creature whose form you plan to assume)<br>\n  </p>\n  <p>\n    <strong>Range</strong>&nbsp;personal<br>\n    \n    <strong>Targets</strong>&nbsp;you<br>\n    \n    <strong>Duration</strong>&nbsp;1 min./level<br>\n    \n  </p>\n  <h2>Description</h2>\n  <p>This spell functions as beast shape I, except that it also allows you to assume the form of a Tiny or Large creature of the animal type. If the form you assume has any of the following abilities, you gain the listed ability: climb 60 feet, fly 60 feet (good maneuverability), swim 60 feet, darkvision 60 feet, low-light vision, scent, grab, pounce, and trip.</p><p><i>Tiny</i> animal: If the form you take is that of a Tiny animal, you gain a +4 size bonus to your Dexterity, a -2 penalty to your Strength, and a +1 natural armor bonus.</p><p><i>Small animal</i>: If the form you take is that of a Small animal, you gain a +2 size bonus to your Dexterity and a +1 natural armor bonus.</p><p><i>Medium animal</i>: If the form you take is that of a Medium animal, you gain a +2 size bonus to your Strength and a +2 natural armor bonus.</p><p><i>Large animal</i>: If the form you take is that of a Large animal, you gain a +4 size bonus to your Strength, a -2 penalty to your Dexterity, and a +4 natural armor bonus.</p>\n</div>\n",
      "chat": "",
      "unidentified": ""
    },
    "tags": [],
    "activation": {
      "cost": 1,
      "type": "standard"
    },
    "unchainedAction": {
      "activation": {
        "cost": 2,
        "type": "action"
      }
    },
    "duration": {
      "value": null,
      "units": ""
    },
    "target": {
      "value": "you"
    },
    "range": {
      "value": null,
      "units": "personal",
      "maxIncrements": 1,
      "minValue": null,
      "minUnits": ""
    },
    "uses": {
      "value": 0,
      "max": 0,
      "per": "",
      "autoDeductCharges": true,
      "autoDeductChargesCost": "1"
    },
    "measureTemplate": {
      "type": "",
      "size": "0",
      "overrideColor": false,
      "customColor": "",
      "overrideTexture": false,
      "customTexture": ""
    },
    "attackName": "",
    "actionType": "",
    "attackBonus": "",
    "critConfirmBonus": "",
    "damage": {
      "parts": [],
      "critParts": [],
      "nonCritParts": []
    },
    "attackParts": [],
    "formula": "",
    "ability": {
      "attack": "",
      "damage": "",
      "damageMult": 1,
      "critRange": 20,
      "critMult": 2
    },
    "save": {
      "dc": "0",
      "type": "",
      "description": ""
    },
    "effectNotes": "",
    "attackNotes": "",
    "soundEffect": "",
    "links": {
      "children": []
    },
    "learnedAt": {
      "class": [
        [
          "sorcerer/wizard",
          4
        ],
        [
          "alchemist",
          4
        ],
        [
          "magus",
          4
        ],
        [
          "bloodrager",
          4
        ]
      ],
      "domain": [],
      "subDomain": [],
      "elementalSchool": [],
      "bloodline": []
    },
    "level": 4,
    "clOffset": 0,
    "slOffset": 0,
    "school": "trs",
    "subschool": "polymorph",
    "types": "",
    "nonlethal": false,
    "conditionals": [],
    "components": {
      "value": "",
      "verbal": true,
      "somatic": true,
      "material": true,
      "focus": false,
      "divineFocus": 0
    },
    "castTime": "",
    "materials": {
      "value": "a piece of the creature whose form you plan to assume",
      "focus": "",
      "gpValue": 0
    },
    "spellbook": "primary",
    "preparation": {
      "preparedAmount": 0,
      "maxAmount": 0,
      "autoDeductCharges": true,
      "spontaneousPrepared": true,
      "mode": "prepared"
    },
    "atWill": false,
    "sr": false,
    "shortDescription": "<p>This spell functions as beast shape I, except that it also allows you to assume the form of a Tiny or Large creature of the animal type. If the form you assume has any of the following abilities, you gain the listed ability: climb 60 feet, fly 60 feet (good maneuverability), swim 60 feet, darkvision 60 feet, low-light vision, scent, grab, pounce, and trip.</p><p><i>Tiny</i> animal: If the form you take is that of a Tiny animal, you gain a +4 size bonus to your Dexterity, a -2 penalty to your Strength, and a +1 natural armor bonus.</p><p><i>Small animal</i>: If the form you take is that of a Small animal, you gain a +2 size bonus to your Dexterity and a +1 natural armor bonus.</p><p><i>Medium animal</i>: If the form you take is that of a Medium animal, you gain a +2 size bonus to your Strength and a +2 natural armor bonus.</p><p><i>Large animal</i>: If the form you take is that of a Large animal, you gain a +4 size bonus to your Strength, a -2 penalty to your Dexterity, and a +4 natural armor bonus.</p>",
    "spellDuration": "1 min./level",
    "spellEffect": "",
    "spellArea": "",
    "showInQuickbar": false,
    "spellPoints": {
      "cost": "1 + @sl"
    },
    "domain": false,
    "slotCost": 1
  },
  "flags": {},
  "img": "systems/pf1/icons/misc/magic-swirl.png",
  "effects": []
}