{
  "_id": "9u7ebo95p6hmrb7p",
  "name": "Black Spot",
  "permission": {
    "default": 0
  },
  "type": "spell",
  "data": {
    "description": {
      "value": "<div class=\"spell-description\">\n  <p>\n    <strong>School</strong>&nbsp;necromancy;\n    <strong>Level</strong>&nbsp;cleric/oracle 4, sorcerer/wizard 5, witch 4;\n    \n    \n    \n    \n  </p>\n  <p>\n    <strong>Casting Time</strong>&nbsp;1 standard action<br>\n    <strong>Components</strong>&nbsp;V, S<br>\n  </p>\n  <p>\n    <strong>Range</strong>&nbsp;touch<br>\n    \n    <strong>Targets</strong>&nbsp;creature touched<br>\n    \n    <strong>Duration</strong>&nbsp;permanent<br>\n    <strong>Saving Throw</strong>&nbsp;Will negates;&nbsp;<strong>Spell Resistance</strong>&nbsp;yes<br>\n  </p>\n  <h2>Description</h2>\n  <p>The <i>black spot</i> is a specific and feared pirate curse. An intangible, illusory <i>black spot</i> manifests above the target's head and remains until the target dies or the curse is lifted. The <i>black spot</i> cannot be covered or hidden by any means, including other illusions.</p><p>The <i>black spot</i> radiates a cursed aura in a 10-foot radius around its target. Anyone within the aura gains a +2 bonus on weapon attack and damage rolls against the target. In addition, the target has a -4 penalty on saving throws against death effects.</p><p>Every day in which a creature bears a <i>black spot</i>, it must make a Fortitude save. On a failed save, the creature takes 1 point of Constitution damage. The damage cannot be healed until the <i>black spot</i> is removed. If the creature's Constitution reaches 0, it dies. Pirates killed by this spell often return as ghosts, but that is not a direct effect of this spell.</p><p>The <i>black spot</i> cannot be dispelled, but it can be removed with <i>break enchantment</i>, <i>limited <i>wish</i></i>, <i>miracle</i>, <i>remove curse</i>, or <i>wish</i>.</p>\n</div>\n",
      "chat": "",
      "unidentified": ""
    },
    "tags": [],
    "activation": {
      "cost": 1,
      "type": "standard"
    },
    "unchainedAction": {
      "activation": {
        "cost": 2,
        "type": "action"
      }
    },
    "duration": {
      "value": null,
      "units": ""
    },
    "target": {
      "value": "creature touched"
    },
    "range": {
      "value": null,
      "units": "touch",
      "maxIncrements": 1,
      "minValue": null,
      "minUnits": ""
    },
    "uses": {
      "value": 0,
      "max": 0,
      "per": "",
      "autoDeductCharges": true,
      "autoDeductChargesCost": "1"
    },
    "measureTemplate": {
      "type": "",
      "size": "0",
      "overrideColor": false,
      "customColor": "",
      "overrideTexture": false,
      "customTexture": ""
    },
    "attackName": "",
    "actionType": "spellsave",
    "attackBonus": "",
    "critConfirmBonus": "",
    "damage": {
      "parts": [],
      "critParts": [],
      "nonCritParts": []
    },
    "attackParts": [],
    "formula": "",
    "ability": {
      "attack": "",
      "damage": "",
      "damageMult": 1,
      "critRange": 20,
      "critMult": 2
    },
    "save": {
      "dc": "0",
      "type": "will",
      "description": "Will negates"
    },
    "effectNotes": "",
    "attackNotes": "",
    "soundEffect": "",
    "links": {
      "children": []
    },
    "learnedAt": {
      "class": [
        [
          "sorcerer/wizard",
          5
        ],
        [
          "cleric/oracle",
          4
        ],
        [
          "witch",
          4
        ]
      ],
      "domain": [],
      "subDomain": [],
      "elementalSchool": [],
      "bloodline": []
    },
    "level": 5,
    "clOffset": 0,
    "slOffset": 0,
    "school": "nec",
    "subschool": "",
    "types": "",
    "nonlethal": false,
    "conditionals": [],
    "components": {
      "value": "",
      "verbal": true,
      "somatic": true,
      "material": false,
      "focus": false,
      "divineFocus": 0
    },
    "castTime": "",
    "materials": {
      "value": "",
      "focus": "",
      "gpValue": 0
    },
    "spellbook": "primary",
    "preparation": {
      "preparedAmount": 0,
      "maxAmount": 0,
      "autoDeductCharges": true,
      "spontaneousPrepared": true,
      "mode": "prepared"
    },
    "atWill": false,
    "sr": true,
    "shortDescription": "<p>The <i>black spot</i> is a specific and feared pirate curse. An intangible, illusory <i>black spot</i> manifests above the target's head and remains until the target dies or the curse is lifted. The <i>black spot</i> cannot be covered or hidden by any means, including other illusions.</p><p>The <i>black spot</i> radiates a cursed aura in a 10-foot radius around its target. Anyone within the aura gains a +2 bonus on weapon attack and damage rolls against the target. In addition, the target has a -4 penalty on saving throws against death effects.</p><p>Every day in which a creature bears a <i>black spot</i>, it must make a Fortitude save. On a failed save, the creature takes 1 point of Constitution damage. The damage cannot be healed until the <i>black spot</i> is removed. If the creature's Constitution reaches 0, it dies. Pirates killed by this spell often return as ghosts, but that is not a direct effect of this spell.</p><p>The <i>black spot</i> cannot be dispelled, but it can be removed with <i>break enchantment</i>, <i>limited <i>wish</i></i>, <i>miracle</i>, <i>remove curse</i>, or <i>wish</i>.</p>",
    "spellDuration": "permanent",
    "spellEffect": "",
    "spellArea": "",
    "showInQuickbar": false,
    "spellPoints": {
      "cost": "1 + @sl"
    },
    "domain": false,
    "slotCost": 1
  },
  "flags": {},
  "img": "systems/pf1/icons/misc/magic-swirl.png",
  "effects": []
}