{
  "_id": "7kil93h63jpy949z",
  "name": "Blast Barrier",
  "permission": {
    "default": 0
  },
  "type": "spell",
  "data": {
    "description": {
      "value": "<div class=\"spell-description\">\n  <p>\n    <strong>School</strong>&nbsp;transmutation&nbsp;[sonic];\n    <strong>Level</strong>&nbsp;druid 4, hunter 3, ranger 3, sorcerer/wizard 3, witch 4;\n    \n    \n    \n    \n  </p>\n  <p>\n    <strong>Casting Time</strong>&nbsp;1 standard action<br>\n    <strong>Components</strong>&nbsp;V, S, M (handful of snow, earth, or gravel)<br>\n  </p>\n  <p>\n    <strong>Range</strong>&nbsp;close (25 ft. + 5 ft./2 levels)<br>\n    \n    \n    <strong>Effect</strong>&nbsp;1-ft.-thick wall up to 10 ft. high by 20 ft. wide<br>\n    <strong>Duration</strong>&nbsp;concentration, up to 1 round/2 levels<br>\n    <strong>Saving Throw</strong>&nbsp;Reflex half (see below);&nbsp;<strong>Spell Resistance</strong>&nbsp;yes<br>\n  </p>\n  <h2>Description</h2>\n  <p>Originally used by the winter witches on the field of battle in the early days of Irrisen, blast barrier has entered the oral traditions of many northern barbarian tribes as legends of winter witches possessing powers to bend the very ground of a battlefield to their will. Blast barrier, however, has proven to be an exceptionally versatile spell as far as terrains are concerned, for it works equally well in swamps, deserts, or any region where the ground is soft or easy to shape.</p><p> When you cast blast barrier, you cause a rippling wall of loose earth, mud, snow, sand, or gravel to spring up in a designated space within the spell's range. This wall provides total cover to all Large or smaller creatures and objects. The barrier can only spring up in an area of natural, unworked ground. The energy that forms the wall's matrix is unstable, and you must concentrate to maintain the wall's shape. A blast barrier has an AC of 9, hardness 0, and 5 hit points per caster level. When a blast barrier reaches 0 hit points, or when you cease concentrating on maintaining it, the energies that maintain the barrier's shape fail with explosive results, sending sharp chunks of the materials comprising the wall and magical energy out along both sides. Any creature that is adjacent to a blast barrier when it explodes takes 2d6 points of slashing damage and 1d6 points of sonic damage per 3 caster levels (maximum 6d6). A successful Reflex save halves the total damage done. Spell resistance applies as well.</p><p> This instability can make using a blast barrier risky, but many of the spellcasters that pioneered the spell became experts at its tactical applications, often using the barriers to cover an escape while lobbing spells and parting shots, hoping to trigger the barrier's destruction just as their would-be pursuers approached.</p>\n</div>\n",
      "chat": "",
      "unidentified": ""
    },
    "tags": [],
    "activation": {
      "cost": 1,
      "type": "standard"
    },
    "unchainedAction": {
      "activation": {
        "cost": 2,
        "type": "action"
      }
    },
    "duration": {
      "value": null,
      "units": ""
    },
    "target": {
      "value": ""
    },
    "range": {
      "value": null,
      "units": "close",
      "maxIncrements": 1,
      "minValue": null,
      "minUnits": ""
    },
    "uses": {
      "value": 0,
      "max": 0,
      "per": "",
      "autoDeductCharges": true,
      "autoDeductChargesCost": "1"
    },
    "measureTemplate": {
      "type": "",
      "size": "0",
      "overrideColor": false,
      "customColor": "",
      "overrideTexture": false,
      "customTexture": ""
    },
    "attackName": "",
    "actionType": "spellsave",
    "attackBonus": "",
    "critConfirmBonus": "",
    "damage": {
      "parts": [],
      "critParts": [],
      "nonCritParts": []
    },
    "attackParts": [],
    "formula": "",
    "ability": {
      "attack": "",
      "damage": "",
      "damageMult": 1,
      "critRange": 20,
      "critMult": 2
    },
    "save": {
      "dc": "0",
      "type": "ref",
      "description": "Reflex half (see below)"
    },
    "effectNotes": "",
    "attackNotes": "",
    "soundEffect": "",
    "links": {
      "children": []
    },
    "learnedAt": {
      "class": [
        [
          "sorcerer/wizard",
          3
        ],
        [
          "druid",
          4
        ],
        [
          "ranger",
          3
        ],
        [
          "witch",
          4
        ],
        [
          "hunter",
          3
        ]
      ],
      "domain": [],
      "subDomain": [],
      "elementalSchool": [],
      "bloodline": []
    },
    "level": 3,
    "clOffset": 0,
    "slOffset": 0,
    "school": "trs",
    "subschool": "",
    "types": "sonic",
    "nonlethal": false,
    "conditionals": [],
    "components": {
      "value": "",
      "verbal": true,
      "somatic": true,
      "material": true,
      "focus": false,
      "divineFocus": 0
    },
    "castTime": "",
    "materials": {
      "value": "handful of snow, earth, or gravel",
      "focus": "",
      "gpValue": 0
    },
    "spellbook": "primary",
    "preparation": {
      "preparedAmount": 0,
      "maxAmount": 0,
      "autoDeductCharges": true,
      "spontaneousPrepared": true,
      "mode": "prepared"
    },
    "atWill": false,
    "sr": true,
    "shortDescription": "<p>Originally used by the winter witches on the field of battle in the early days of Irrisen, blast barrier has entered the oral traditions of many northern barbarian tribes as legends of winter witches possessing powers to bend the very ground of a battlefield to their will. Blast barrier, however, has proven to be an exceptionally versatile spell as far as terrains are concerned, for it works equally well in swamps, deserts, or any region where the ground is soft or easy to shape.</p><p> When you cast blast barrier, you cause a rippling wall of loose earth, mud, snow, sand, or gravel to spring up in a designated space within the spell's range. This wall provides total cover to all Large or smaller creatures and objects. The barrier can only spring up in an area of natural, unworked ground. The energy that forms the wall's matrix is unstable, and you must concentrate to maintain the wall's shape. A blast barrier has an AC of 9, hardness 0, and 5 hit points per caster level. When a blast barrier reaches 0 hit points, or when you cease concentrating on maintaining it, the energies that maintain the barrier's shape fail with explosive results, sending sharp chunks of the materials comprising the wall and magical energy out along both sides. Any creature that is adjacent to a blast barrier when it explodes takes 2d6 points of slashing damage and 1d6 points of sonic damage per 3 caster levels (maximum 6d6). A successful Reflex save halves the total damage done. Spell resistance applies as well.</p><p> This instability can make using a blast barrier risky, but many of the spellcasters that pioneered the spell became experts at its tactical applications, often using the barriers to cover an escape while lobbing spells and parting shots, hoping to trigger the barrier's destruction just as their would-be pursuers approached.</p>",
    "spellDuration": "concentration, up to 1 round/2 levels",
    "spellEffect": "1-ft.-thick wall up to 10 ft. high by 20 ft. wide",
    "spellArea": "",
    "showInQuickbar": false,
    "spellPoints": {
      "cost": "1 + @sl"
    },
    "domain": false,
    "slotCost": 1
  },
  "flags": {},
  "img": "systems/pf1/icons/misc/magic-swirl.png",
  "effects": []
}