{
  "_id": "cx711jp7ufpt5n77",
  "name": "Blaze of Glory",
  "permission": {
    "default": 0
  },
  "type": "spell",
  "data": {
    "description": {
      "value": "<div class=\"spell-description\">\n  <p>\n    <strong>School</strong>&nbsp;conjuration&nbsp;(healing)&nbsp;[good, mind-affecting];\n    <strong>Level</strong>&nbsp;paladin 4;\n    \n    \n    \n    \n  </p>\n  <p>\n    <strong>Casting Time</strong>&nbsp;1 standard action<br>\n    <strong>Components</strong>&nbsp;V<br>\n  </p>\n  <p>\n    \n    <strong>Area</strong>&nbsp;30-ft.-radius burst centered on you<br>\n    \n    \n    <strong>Duration</strong>&nbsp;instantaneous and 1 round/level; see text<br>\n    <strong>Saving Throw</strong>&nbsp;Will partial;&nbsp;<strong>Spell Resistance</strong>&nbsp;yes<br>\n  </p>\n  <h2>Description</h2>\n  <p>You fall unconscious but also unleash a spectacular wave of holy energy that heartens and heals your allies while leaving your opponents daunted and damaged. You can cast this spell as either a standard action on your turn, or as an immediate action when brought to below 0 hit points. If cast as a standard action, you are immediately reduced to -1 hit points, but stable, after casting the spell.</p><p>When you cast this spell, any good creature within range is healed for 1d6 points of damage per two caster levels. All evil creatures within range take the same amount as damage instead (a successful Will save halves this damage). In addition, all allies and enemies within range are affected as if by the <i>prayer</i> spell for 1 round per caster level.</p>\n</div>\n",
      "chat": "",
      "unidentified": ""
    },
    "tags": [],
    "activation": {
      "cost": 1,
      "type": "standard"
    },
    "unchainedAction": {
      "activation": {
        "cost": 2,
        "type": "action"
      }
    },
    "duration": {
      "value": null,
      "units": ""
    },
    "target": {
      "value": ""
    },
    "range": {
      "value": null,
      "units": "",
      "maxIncrements": 1,
      "minValue": null,
      "minUnits": ""
    },
    "uses": {
      "value": 0,
      "max": 0,
      "per": "",
      "autoDeductCharges": true,
      "autoDeductChargesCost": "1"
    },
    "measureTemplate": {
      "type": "",
      "size": "0",
      "overrideColor": false,
      "customColor": "",
      "overrideTexture": false,
      "customTexture": ""
    },
    "attackName": "",
    "actionType": "heal",
    "attackBonus": "",
    "critConfirmBonus": "",
    "damage": {
      "parts": [],
      "critParts": [],
      "nonCritParts": []
    },
    "attackParts": [],
    "formula": "",
    "ability": {
      "attack": "",
      "damage": "",
      "damageMult": 1,
      "critRange": 20,
      "critMult": 2
    },
    "save": {
      "dc": "0",
      "type": "will",
      "description": "Will partial"
    },
    "effectNotes": "",
    "attackNotes": "",
    "soundEffect": "",
    "links": {
      "children": []
    },
    "learnedAt": {
      "class": [
        [
          "paladin",
          4
        ]
      ],
      "domain": [],
      "subDomain": [],
      "elementalSchool": [],
      "bloodline": []
    },
    "level": 4,
    "clOffset": 0,
    "slOffset": 0,
    "school": "con",
    "subschool": "healing",
    "types": "good, mind-affecting",
    "nonlethal": false,
    "conditionals": [],
    "components": {
      "value": "",
      "verbal": true,
      "somatic": false,
      "material": false,
      "focus": false,
      "divineFocus": 0
    },
    "castTime": "",
    "materials": {
      "value": "",
      "focus": "",
      "gpValue": 0
    },
    "spellbook": "primary",
    "preparation": {
      "preparedAmount": 0,
      "maxAmount": 0,
      "autoDeductCharges": true,
      "spontaneousPrepared": true,
      "mode": "prepared"
    },
    "atWill": false,
    "sr": true,
    "shortDescription": "<p>You fall unconscious but also unleash a spectacular wave of holy energy that heartens and heals your allies while leaving your opponents daunted and damaged. You can cast this spell as either a standard action on your turn, or as an immediate action when brought to below 0 hit points. If cast as a standard action, you are immediately reduced to -1 hit points, but stable, after casting the spell.</p><p>When you cast this spell, any good creature within range is healed for 1d6 points of damage per two caster levels. All evil creatures within range take the same amount as damage instead (a successful Will save halves this damage). In addition, all allies and enemies within range are affected as if by the <i>prayer</i> spell for 1 round per caster level.</p>",
    "spellDuration": "instantaneous and 1 round/level; see text",
    "spellEffect": "",
    "spellArea": "30-ft.-radius burst centered on you",
    "showInQuickbar": false,
    "spellPoints": {
      "cost": "1 + @sl"
    },
    "domain": false,
    "slotCost": 1
  },
  "flags": {},
  "img": "systems/pf1/icons/misc/magic-swirl.png",
  "effects": []
}