{
  "_id": "g9koefk7x9szoheo",
  "name": "Control Winds",
  "permission": {
    "default": 0
  },
  "type": "spell",
  "data": {
    "description": {
      "value": "<div class=\"spell-description\">\n  <p>\n    <strong>School</strong>&nbsp;transmutation&nbsp;[air];\n    <strong>Level</strong>&nbsp;druid 5, hunter 5, occultist 5, shaman 5;\n    <strong>Domain</strong>&nbsp;Air 5, Weather 6;\n    \n    \n    \n  </p>\n  <p>\n    <strong>Casting Time</strong>&nbsp;1 standard action<br>\n    <strong>Components</strong>&nbsp;V, S<br>\n  </p>\n  <p>\n    <strong>Range</strong>&nbsp;40 feet<br>\n    <strong>Area</strong>&nbsp;40 ft./level radius cylinder 40 ft. high<br>\n    \n    \n    <strong>Duration</strong>&nbsp;10 min./level<br>\n    <strong>Saving Throw</strong>&nbsp;Fortitude negates;&nbsp;<strong>Spell Resistance</strong>&nbsp;no<br>\n  </p>\n  <h2>Description</h2>\n  <p>You alter wind force in the area surrounding you. You can make the wind blow in a certain direction or manner, increase its strength, or decrease its strength. The new wind direction and strength persist until the spell ends or until you choose to alter your handiwork, which requires concentration. You may create an \"eye\" of calm air up to 80 feet in diameter at the center of the area if you so desire, and you may choose to limit the area to any cylindrical area less than your full limit.</p><p><i>Wind Direction</i>: You may choose one of four basic wind patterns to function over the spell's area.</p><p><ul>     <li> A downdraft blows from the center outward in equal strength in all directions.</p><p>    <li> An updraft blows from the outer edges in toward the center in equal strength from all directions, veering upward before impinging on the eye in the center.</p><p>    <li> Rotation causes the winds to circle the center in clockwise or counterclockwise fashion.</p><p>    <li> A blast simply causes the winds to blow in one direction across the entire area from one side to the other.</ul></p><p> <i>Wind Strength</i>: For every three caster levels, you can increase or decrease wind strength by one level. Each round on your turn, a creature in the wind must make a Fortitude save or suffer the effect of being in the windy area. See Environment for more details.</p><p>Strong winds (21+ mph) make sailing difficult.</p><p>A severe wind (31+ mph) causes minor ship and building damage.</p><p>A windstorm (51+ mph) drives most flying creatures from the skies, uproots small trees, knocks down light wooden structures, tears off roofs, and endangers ships.</p><p>Hurricane force winds (75+ mph) destroy wooden buildings, uproot large trees, and cause most ships to founder.</p><p>A tornado (175+ mph) destroys all nonfortified buildings and often uproots large trees.</p>\n</div>\n",
      "chat": "",
      "unidentified": ""
    },
    "tags": [],
    "activation": {
      "cost": 1,
      "type": "standard"
    },
    "unchainedAction": {
      "activation": {
        "cost": 2,
        "type": "action"
      }
    },
    "duration": {
      "value": null,
      "units": ""
    },
    "target": {
      "value": ""
    },
    "range": {
      "value": 40,
      "units": "ft",
      "maxIncrements": 1,
      "minValue": null,
      "minUnits": ""
    },
    "uses": {
      "value": 0,
      "max": 0,
      "per": "",
      "autoDeductCharges": true,
      "autoDeductChargesCost": "1"
    },
    "measureTemplate": {
      "type": "",
      "size": "0",
      "overrideColor": false,
      "customColor": "",
      "overrideTexture": false,
      "customTexture": ""
    },
    "attackName": "",
    "actionType": "spellsave",
    "attackBonus": "",
    "critConfirmBonus": "",
    "damage": {
      "parts": [],
      "critParts": [],
      "nonCritParts": []
    },
    "attackParts": [],
    "formula": "",
    "ability": {
      "attack": "",
      "damage": "",
      "damageMult": 1,
      "critRange": 20,
      "critMult": 2
    },
    "save": {
      "dc": "0",
      "type": "fort",
      "description": "Fortitude negates"
    },
    "effectNotes": "",
    "attackNotes": "",
    "soundEffect": "",
    "links": {
      "children": []
    },
    "learnedAt": {
      "class": [
        [
          "druid",
          5
        ],
        [
          "shaman",
          5
        ],
        [
          "occultist",
          5
        ],
        [
          "hunter",
          5
        ]
      ],
      "domain": [
        [
          "Air",
          5
        ],
        [
          "Weather",
          6
        ]
      ],
      "subDomain": [],
      "elementalSchool": [],
      "bloodline": []
    },
    "level": 5,
    "clOffset": 0,
    "slOffset": 0,
    "school": "trs",
    "subschool": "",
    "types": "air",
    "nonlethal": false,
    "conditionals": [],
    "components": {
      "value": "",
      "verbal": true,
      "somatic": true,
      "material": false,
      "focus": false,
      "divineFocus": 0
    },
    "castTime": "",
    "materials": {
      "value": "",
      "focus": "",
      "gpValue": 0
    },
    "spellbook": "primary",
    "preparation": {
      "preparedAmount": 0,
      "maxAmount": 0,
      "autoDeductCharges": true,
      "spontaneousPrepared": true,
      "mode": "prepared"
    },
    "atWill": false,
    "sr": false,
    "shortDescription": "<p>You alter wind force in the area surrounding you. You can make the wind blow in a certain direction or manner, increase its strength, or decrease its strength. The new wind direction and strength persist until the spell ends or until you choose to alter your handiwork, which requires concentration. You may create an \"eye\" of calm air up to 80 feet in diameter at the center of the area if you so desire, and you may choose to limit the area to any cylindrical area less than your full limit.</p><p><i>Wind Direction</i>: You may choose one of four basic wind patterns to function over the spell's area.</p><p><ul>     <li> A downdraft blows from the center outward in equal strength in all directions.</p><p>    <li> An updraft blows from the outer edges in toward the center in equal strength from all directions, veering upward before impinging on the eye in the center.</p><p>    <li> Rotation causes the winds to circle the center in clockwise or counterclockwise fashion.</p><p>    <li> A blast simply causes the winds to blow in one direction across the entire area from one side to the other.</ul></p><p> <i>Wind Strength</i>: For every three caster levels, you can increase or decrease wind strength by one level. Each round on your turn, a creature in the wind must make a Fortitude save or suffer the effect of being in the windy area. See Environment for more details.</p><p>Strong winds (21+ mph) make sailing difficult.</p><p>A severe wind (31+ mph) causes minor ship and building damage.</p><p>A windstorm (51+ mph) drives most flying creatures from the skies, uproots small trees, knocks down light wooden structures, tears off roofs, and endangers ships.</p><p>Hurricane force winds (75+ mph) destroy wooden buildings, uproot large trees, and cause most ships to founder.</p><p>A tornado (175+ mph) destroys all nonfortified buildings and often uproots large trees.</p>",
    "spellDuration": "10 min./level",
    "spellEffect": "",
    "spellArea": "40 ft./level radius cylinder 40 ft. high",
    "showInQuickbar": false,
    "spellPoints": {
      "cost": "1 + @sl"
    },
    "domain": false,
    "slotCost": 1
  },
  "flags": {},
  "img": "systems/pf1/icons/misc/magic-swirl.png",
  "effects": []
}