{
  "_id": "i4fjl8679kdo0vgb",
  "name": "Detect the Faithful",
  "permission": {
    "default": 0
  },
  "type": "spell",
  "data": {
    "description": {
      "value": "<div class=\"spell-description\">\n  <p>\n    <strong>School</strong>&nbsp;divination;\n    <strong>Level</strong>&nbsp;antipaladin 1, cleric/oracle 1, druid 1, hunter 1, inquisitor 1, paladin 1, ranger 1, shaman 1;\n    \n    \n    \n    \n  </p>\n  <p>\n    <strong>Casting Time</strong>&nbsp;1 standard action<br>\n    <strong>Components</strong>&nbsp;V, S, DF<br>\n  </p>\n  <p>\n    <strong>Range</strong>&nbsp;60 feet<br>\n    <strong>Area</strong>&nbsp;cone-shaped emanation<br>\n    \n    \n    <strong>Duration</strong>&nbsp;concentration, up to 1 minute/level (D)<br>\n    <strong>Saving Throw</strong>&nbsp;none;&nbsp;<strong>Spell Resistance</strong>&nbsp;no<br>\n  </p>\n  <h2>Description</h2>\n  <p>You can detect other worshipers of your deity (mortal worshipers, outsider servants, and so on). The amount of information revealed depends on how long you focus on a particular area or subject.  <i>1st Round</i>: Presence or absence of the faithful.  <i>2nd Round</i>: Number of individual faithful in the area.  <i>3rd Round</i>: The exact location of each worshiper. If a fellow worshiper is outside your line of sight, then you discern his direction but not his exact location.  Each round, you can rotate to detect worshipers in a new area. The spell can penetrate barriers, but a sheet of lead, 1 foot of stone, 1 inch of common metal, or 3 feet of wood or dirt blocks it. A creature's personal interpretation of its beliefs determines whether or not it is of the same faith as you-hence heretics and splinter cultists of your deity still count as worshipers of that deity. Furthermore, since the spell picks up a creature's current beliefs and feelings, a creature actively pretending to be a member of the same faith also appears to the spell to be a member. Thus, the spell is still useful in locating potential hidden members of the same faith among the general populace, but on its own, it doesn't weed out spies.</p>\n</div>\n",
      "chat": "",
      "unidentified": ""
    },
    "tags": [],
    "activation": {
      "cost": 1,
      "type": "standard"
    },
    "unchainedAction": {
      "activation": {
        "cost": 2,
        "type": "action"
      }
    },
    "duration": {
      "value": null,
      "units": ""
    },
    "target": {
      "value": ""
    },
    "range": {
      "value": 60,
      "units": "ft",
      "maxIncrements": 1,
      "minValue": null,
      "minUnits": ""
    },
    "uses": {
      "value": 0,
      "max": 0,
      "per": "",
      "autoDeductCharges": true,
      "autoDeductChargesCost": "1"
    },
    "measureTemplate": {
      "type": "",
      "size": "0",
      "overrideColor": false,
      "customColor": "",
      "overrideTexture": false,
      "customTexture": ""
    },
    "attackName": "",
    "actionType": "",
    "attackBonus": "",
    "critConfirmBonus": "",
    "damage": {
      "parts": [],
      "critParts": [],
      "nonCritParts": []
    },
    "attackParts": [],
    "formula": "",
    "ability": {
      "attack": "",
      "damage": "",
      "damageMult": 1,
      "critRange": 20,
      "critMult": 2
    },
    "save": {
      "dc": "0",
      "type": "",
      "description": ""
    },
    "effectNotes": "",
    "attackNotes": "",
    "soundEffect": "",
    "links": {
      "children": []
    },
    "learnedAt": {
      "class": [
        [
          "cleric/oracle",
          1
        ],
        [
          "druid",
          1
        ],
        [
          "ranger",
          1
        ],
        [
          "paladin",
          1
        ],
        [
          "inquisitor",
          1
        ],
        [
          "antipaladin",
          1
        ],
        [
          "shaman",
          1
        ],
        [
          "hunter",
          1
        ]
      ],
      "domain": [],
      "subDomain": [],
      "elementalSchool": [],
      "bloodline": []
    },
    "level": 1,
    "clOffset": 0,
    "slOffset": 0,
    "school": "div",
    "subschool": "",
    "types": "",
    "nonlethal": false,
    "conditionals": [],
    "components": {
      "value": "",
      "verbal": true,
      "somatic": true,
      "material": false,
      "focus": false,
      "divineFocus": 1
    },
    "castTime": "",
    "materials": {
      "value": "",
      "focus": "",
      "gpValue": 0
    },
    "spellbook": "primary",
    "preparation": {
      "preparedAmount": 0,
      "maxAmount": 0,
      "autoDeductCharges": true,
      "spontaneousPrepared": true,
      "mode": "prepared"
    },
    "atWill": false,
    "sr": false,
    "shortDescription": "<p>You can detect other worshipers of your deity (mortal worshipers, outsider servants, and so on). The amount of information revealed depends on how long you focus on a particular area or subject.  <i>1st Round</i>: Presence or absence of the faithful.  <i>2nd Round</i>: Number of individual faithful in the area.  <i>3rd Round</i>: The exact location of each worshiper. If a fellow worshiper is outside your line of sight, then you discern his direction but not his exact location.  Each round, you can rotate to detect worshipers in a new area. The spell can penetrate barriers, but a sheet of lead, 1 foot of stone, 1 inch of common metal, or 3 feet of wood or dirt blocks it. A creature's personal interpretation of its beliefs determines whether or not it is of the same faith as you-hence heretics and splinter cultists of your deity still count as worshipers of that deity. Furthermore, since the spell picks up a creature's current beliefs and feelings, a creature actively pretending to be a member of the same faith also appears to the spell to be a member. Thus, the spell is still useful in locating potential hidden members of the same faith among the general populace, but on its own, it doesn't weed out spies.</p>",
    "spellDuration": "concentration, up to 1 minute/level (D)",
    "spellEffect": "",
    "spellArea": "cone-shaped emanation",
    "showInQuickbar": false,
    "spellPoints": {
      "cost": "1 + @sl"
    },
    "domain": false,
    "slotCost": 1
  },
  "flags": {},
  "img": "systems/pf1/icons/misc/magic-swirl.png",
  "effects": []
}