{
  "_id": "pasrd8rsy38vmaw6",
  "name": "Diminish Plants",
  "permission": {
    "default": 0
  },
  "type": "spell",
  "data": {
    "description": {
      "value": "<div class=\"spell-description\">\n  <p>\n    <strong>School</strong>&nbsp;transmutation;\n    <strong>Level</strong>&nbsp;druid 3, hunter 3, ranger 3;\n    \n    \n    \n    \n  </p>\n  <p>\n    <strong>Casting Time</strong>&nbsp;1 standard action<br>\n    <strong>Components</strong>&nbsp;V, S, DF<br>\n  </p>\n  <p>\n    \n    <strong>Area</strong>&nbsp;see text<br>\n    <strong>Targets</strong>&nbsp;see text<br>\n    \n    <strong>Duration</strong>&nbsp;instantaneous<br>\n    <strong>Saving Throw</strong>&nbsp;none;&nbsp;<strong>Spell Resistance</strong>&nbsp;no<br>\n  </p>\n  <h2>Description</h2>\n  <p>This spell has two versions.</p><p><i>Prune Growth</i>: This version of the spell causes normal vegetation within long range (400 feet + 40 feet per level) to shrink to about one-third normal size, becoming untangled and less bushy. The affected vegetation appears to have been carefully pruned and trimmed. This version of <i>diminish plants</i> automatically dispels any spells or effects that enhance plants, such as <i>entangle</i>, <i>plant growth</i>, and <i>Wall of Thorns</i>.</p><p>At your option, the area can be a 100-foot-radius circle, a 150-foot-radius semicircle, or a 200-foot-radius quarter-circle. You may also designate portions of the area that are not affected.</p><p><i>Stunt Growth</i>: This version of the spell targets all normal plants within a range of 1/2 mile, reducing their potential productivity over the course of the following year to half normal.</p><p>This spell has no effect on plant creatures.</p>\n</div>\n",
      "chat": "",
      "unidentified": ""
    },
    "tags": [],
    "activation": {
      "cost": 1,
      "type": "standard"
    },
    "unchainedAction": {
      "activation": {
        "cost": 2,
        "type": "action"
      }
    },
    "duration": {
      "value": null,
      "units": ""
    },
    "target": {
      "value": "see text"
    },
    "range": {
      "value": null,
      "units": "",
      "maxIncrements": 1,
      "minValue": null,
      "minUnits": ""
    },
    "uses": {
      "value": 0,
      "max": 0,
      "per": "",
      "autoDeductCharges": true,
      "autoDeductChargesCost": "1"
    },
    "measureTemplate": {
      "type": "",
      "size": "0",
      "overrideColor": false,
      "customColor": "",
      "overrideTexture": false,
      "customTexture": ""
    },
    "attackName": "",
    "actionType": "",
    "attackBonus": "",
    "critConfirmBonus": "",
    "damage": {
      "parts": [],
      "critParts": [],
      "nonCritParts": []
    },
    "attackParts": [],
    "formula": "",
    "ability": {
      "attack": "",
      "damage": "",
      "damageMult": 1,
      "critRange": 20,
      "critMult": 2
    },
    "save": {
      "dc": "0",
      "type": "",
      "description": ""
    },
    "effectNotes": "",
    "attackNotes": "",
    "soundEffect": "",
    "links": {
      "children": []
    },
    "learnedAt": {
      "class": [
        [
          "druid",
          3
        ],
        [
          "ranger",
          3
        ],
        [
          "hunter",
          3
        ]
      ],
      "domain": [],
      "subDomain": [],
      "elementalSchool": [],
      "bloodline": []
    },
    "level": 3,
    "clOffset": 0,
    "slOffset": 0,
    "school": "trs",
    "subschool": "",
    "types": "",
    "nonlethal": false,
    "conditionals": [],
    "components": {
      "value": "",
      "verbal": true,
      "somatic": true,
      "material": false,
      "focus": false,
      "divineFocus": 1
    },
    "castTime": "",
    "materials": {
      "value": "",
      "focus": "",
      "gpValue": 0
    },
    "spellbook": "primary",
    "preparation": {
      "preparedAmount": 0,
      "maxAmount": 0,
      "autoDeductCharges": true,
      "spontaneousPrepared": true,
      "mode": "prepared"
    },
    "atWill": false,
    "sr": false,
    "shortDescription": "<p>This spell has two versions.</p><p><i>Prune Growth</i>: This version of the spell causes normal vegetation within long range (400 feet + 40 feet per level) to shrink to about one-third normal size, becoming untangled and less bushy. The affected vegetation appears to have been carefully pruned and trimmed. This version of <i>diminish plants</i> automatically dispels any spells or effects that enhance plants, such as <i>entangle</i>, <i>plant growth</i>, and <i>Wall of Thorns</i>.</p><p>At your option, the area can be a 100-foot-radius circle, a 150-foot-radius semicircle, or a 200-foot-radius quarter-circle. You may also designate portions of the area that are not affected.</p><p><i>Stunt Growth</i>: This version of the spell targets all normal plants within a range of 1/2 mile, reducing their potential productivity over the course of the following year to half normal.</p><p>This spell has no effect on plant creatures.</p>",
    "spellDuration": "instantaneous",
    "spellEffect": "",
    "spellArea": "see text",
    "showInQuickbar": false,
    "spellPoints": {
      "cost": "1 + @sl"
    },
    "domain": false,
    "slotCost": 1
  },
  "flags": {},
  "img": "systems/pf1/icons/misc/magic-swirl.png",
  "effects": []
}