{
  "_id": "x3t6kiraduh9y4oh",
  "name": "Earth Tremor",
  "permission": {
    "default": 0
  },
  "type": "spell",
  "data": {
    "description": {
      "value": "<div class=\"spell-description\">\n  <p>\n    <strong>School</strong>&nbsp;transmutation&nbsp;[earth];\n    <strong>Level</strong>&nbsp;bloodrager 3, druid 3, hunter 3, magus 3, shaman 3, sorcerer/wizard 3, witch 3;\n    \n    \n    \n    \n  </p>\n  <p>\n    <strong>Casting Time</strong>&nbsp;1 standard action<br>\n    <strong>Components</strong>&nbsp;V, S<br>\n  </p>\n  <p>\n    \n    <strong>Area</strong>&nbsp;30-ft. line, 20-ft. cone-shaped spread, or 10-ft.-radius spread (see text)<br>\n    \n    \n    <strong>Duration</strong>&nbsp;instantaneous<br>\n    <strong>Saving Throw</strong>&nbsp;Reflex half (see text);&nbsp;<strong>Spell Resistance</strong>&nbsp;no<br>\n  </p>\n  <h2>Description</h2>\n  <p>You strike the ground and unleash a tremor of seismic force, hurling up earth, rock, and sand. You choose whether the earth tremor affects a 30-foot line, a 20-foot cone-shaped spread, or a 10-foot-radius spread centered on you. The space you occupy is not affected by earth tremor. The area you choose becomes dense rubble that costs 2 squares of movement to enter. Dense rubble adds 5 to the DC of Acrobatics checks and adds 2 to the DC of Stealth checks. Creatures on the ground in the area take 1d4 points of bludgeoning damage per caster level you have (maximum 10d4) or half damage on a successful save. Medium or smaller creatures that fail their saves are knocked prone.</p><p> This spell can be cast only on a surface of earth, sand, or stone. It has no effect if you are in a wooden or metal structure or if you are not touching the ground.</p>\n</div>\n",
      "chat": "",
      "unidentified": ""
    },
    "tags": [],
    "activation": {
      "cost": 1,
      "type": "standard"
    },
    "unchainedAction": {
      "activation": {
        "cost": 2,
        "type": "action"
      }
    },
    "duration": {
      "value": null,
      "units": ""
    },
    "target": {
      "value": ""
    },
    "range": {
      "value": null,
      "units": "",
      "maxIncrements": 1,
      "minValue": null,
      "minUnits": ""
    },
    "uses": {
      "value": 0,
      "max": 0,
      "per": "",
      "autoDeductCharges": true,
      "autoDeductChargesCost": "1"
    },
    "measureTemplate": {
      "type": "",
      "size": "0",
      "overrideColor": false,
      "customColor": "",
      "overrideTexture": false,
      "customTexture": ""
    },
    "attackName": "",
    "actionType": "spellsave",
    "attackBonus": "",
    "critConfirmBonus": "",
    "damage": {
      "parts": [],
      "critParts": [],
      "nonCritParts": []
    },
    "attackParts": [],
    "formula": "",
    "ability": {
      "attack": "",
      "damage": "",
      "damageMult": 1,
      "critRange": 20,
      "critMult": 2
    },
    "save": {
      "dc": "0",
      "type": "ref",
      "description": "Reflex half (see text)"
    },
    "effectNotes": "",
    "attackNotes": "",
    "soundEffect": "",
    "links": {
      "children": []
    },
    "learnedAt": {
      "class": [
        [
          "sorcerer/wizard",
          3
        ],
        [
          "druid",
          3
        ],
        [
          "witch",
          3
        ],
        [
          "magus",
          3
        ],
        [
          "bloodrager",
          3
        ],
        [
          "shaman",
          3
        ],
        [
          "hunter",
          3
        ]
      ],
      "domain": [],
      "subDomain": [],
      "elementalSchool": [],
      "bloodline": []
    },
    "level": 3,
    "clOffset": 0,
    "slOffset": 0,
    "school": "trs",
    "subschool": "",
    "types": "earth",
    "nonlethal": false,
    "conditionals": [],
    "components": {
      "value": "",
      "verbal": true,
      "somatic": true,
      "material": false,
      "focus": false,
      "divineFocus": 0
    },
    "castTime": "",
    "materials": {
      "value": "",
      "focus": "",
      "gpValue": 0
    },
    "spellbook": "primary",
    "preparation": {
      "preparedAmount": 0,
      "maxAmount": 0,
      "autoDeductCharges": true,
      "spontaneousPrepared": true,
      "mode": "prepared"
    },
    "atWill": false,
    "sr": false,
    "shortDescription": "<p>You strike the ground and unleash a tremor of seismic force, hurling up earth, rock, and sand. You choose whether the earth tremor affects a 30-foot line, a 20-foot cone-shaped spread, or a 10-foot-radius spread centered on you. The space you occupy is not affected by earth tremor. The area you choose becomes dense rubble that costs 2 squares of movement to enter. Dense rubble adds 5 to the DC of Acrobatics checks and adds 2 to the DC of Stealth checks. Creatures on the ground in the area take 1d4 points of bludgeoning damage per caster level you have (maximum 10d4) or half damage on a successful save. Medium or smaller creatures that fail their saves are knocked prone.</p><p> This spell can be cast only on a surface of earth, sand, or stone. It has no effect if you are in a wooden or metal structure or if you are not touching the ground.</p>",
    "spellDuration": "instantaneous",
    "spellEffect": "",
    "spellArea": "30-ft. line, 20-ft. cone-shaped spread, or 10-ft.-radius spread (see text)",
    "showInQuickbar": false,
    "spellPoints": {
      "cost": "1 + @sl"
    },
    "domain": false,
    "slotCost": 1
  },
  "flags": {},
  "img": "systems/pf1/icons/misc/magic-swirl.png",
  "effects": []
}