{
  "_id": "khfprkujokr9uigq",
  "name": "Energy Drain",
  "permission": {
    "default": 0
  },
  "type": "spell",
  "data": {
    "description": {
      "value": "<div class=\"spell-description\">\n  <p>\n    <strong>School</strong>&nbsp;necromancy;\n    <strong>Level</strong>&nbsp;cleric/oracle 9, shaman 9, sorcerer/wizard 9;\n    \n    <strong>Subdomain</strong>&nbsp;Loss 9, Undead 9;\n    \n    <strong>Bloodline</strong>&nbsp;Accursed 9, Undead 9;\n  </p>\n  <p>\n    <strong>Casting Time</strong>&nbsp;1 standard action<br>\n    <strong>Components</strong>&nbsp;V, S<br>\n  </p>\n  <p>\n    <strong>Range</strong>&nbsp;close (25 ft. + 5 ft./2 levels)<br>\n    \n    \n    <strong>Effect</strong>&nbsp;ray of negative energy<br>\n    <strong>Duration</strong>&nbsp;instantaneous<br>\n    <strong>Saving Throw</strong>&nbsp;Fortitude partial; see text for enervation;&nbsp;<strong>Spell Resistance</strong>&nbsp;yes<br>\n  </p>\n  <h2>Description</h2>\n  <p>This spell functions like <i>enervation</i>, except that the creature struck gains 2d4 temporary negative levels. Twenty-four hours after gaining them, the subject must make a Fortitude saving throw (DC = <i>energy drain</i> spell's save DC) for each negative level. If the save succeeds, that negative level is removed. If it fails, that negative level becomes permanent.</p><p>An undead creature struck by the ray gains 2d4x5 temporary hit points for 1 hour.</p>\n</div>\n",
      "chat": "",
      "unidentified": ""
    },
    "tags": [],
    "activation": {
      "cost": 1,
      "type": "standard"
    },
    "unchainedAction": {
      "activation": {
        "cost": 2,
        "type": "action"
      }
    },
    "duration": {
      "value": null,
      "units": ""
    },
    "target": {
      "value": ""
    },
    "range": {
      "value": null,
      "units": "close",
      "maxIncrements": 1,
      "minValue": null,
      "minUnits": ""
    },
    "uses": {
      "value": 0,
      "max": 0,
      "per": "",
      "autoDeductCharges": true,
      "autoDeductChargesCost": "1"
    },
    "measureTemplate": {
      "type": "",
      "size": "0",
      "overrideColor": false,
      "customColor": "",
      "overrideTexture": false,
      "customTexture": ""
    },
    "attackName": "",
    "actionType": "spellsave",
    "attackBonus": "",
    "critConfirmBonus": "",
    "damage": {
      "parts": [],
      "critParts": [],
      "nonCritParts": []
    },
    "attackParts": [],
    "formula": "",
    "ability": {
      "attack": "",
      "damage": "",
      "damageMult": 1,
      "critRange": 20,
      "critMult": 2
    },
    "save": {
      "dc": "0",
      "type": "fort",
      "description": "Fortitude partial; see text for enervation"
    },
    "effectNotes": "",
    "attackNotes": "",
    "soundEffect": "",
    "links": {
      "children": []
    },
    "learnedAt": {
      "class": [
        [
          "sorcerer/wizard",
          9
        ],
        [
          "cleric/oracle",
          9
        ],
        [
          "shaman",
          9
        ]
      ],
      "domain": [],
      "subDomain": [
        [
          "Loss",
          9
        ],
        [
          "Undead",
          9
        ]
      ],
      "elementalSchool": [],
      "bloodline": [
        [
          "Accursed",
          9
        ],
        [
          "Undead",
          9
        ]
      ]
    },
    "level": 9,
    "clOffset": 0,
    "slOffset": 0,
    "school": "nec",
    "subschool": "",
    "types": "",
    "nonlethal": false,
    "conditionals": [],
    "components": {
      "value": "",
      "verbal": true,
      "somatic": true,
      "material": false,
      "focus": false,
      "divineFocus": 0
    },
    "castTime": "",
    "materials": {
      "value": "",
      "focus": "",
      "gpValue": 0
    },
    "spellbook": "primary",
    "preparation": {
      "preparedAmount": 0,
      "maxAmount": 0,
      "autoDeductCharges": true,
      "spontaneousPrepared": true,
      "mode": "prepared"
    },
    "atWill": false,
    "sr": true,
    "shortDescription": "<p>This spell functions like <i>enervation</i>, except that the creature struck gains 2d4 temporary negative levels. Twenty-four hours after gaining them, the subject must make a Fortitude saving throw (DC = <i>energy drain</i> spell's save DC) for each negative level. If the save succeeds, that negative level is removed. If it fails, that negative level becomes permanent.</p><p>An undead creature struck by the ray gains 2d4x5 temporary hit points for 1 hour.</p>",
    "spellDuration": "instantaneous",
    "spellEffect": "ray of negative energy",
    "spellArea": "",
    "showInQuickbar": false,
    "spellPoints": {
      "cost": "1 + @sl"
    },
    "domain": false,
    "slotCost": 1
  },
  "flags": {},
  "img": "systems/pf1/icons/misc/magic-swirl.png",
  "effects": []
}