{
  "_id": "vi5fko8sb8mxlk0i",
  "name": "Fire Trap",
  "permission": {
    "default": 0
  },
  "type": "spell",
  "data": {
    "description": {
      "value": "<div class=\"spell-description\">\n  <p>\n    <strong>School</strong>&nbsp;abjuration&nbsp;[fire];\n    <strong>Level</strong>&nbsp;druid 2, hunter 2, occultist 4, sorcerer/wizard 4;\n    \n    \n    \n    \n  </p>\n  <p>\n    <strong>Casting Time</strong>&nbsp;10 minutes<br>\n    <strong>Components</strong>&nbsp;V, S, M (gold dust worth 25 gp)<br>\n  </p>\n  <p>\n    <strong>Range</strong>&nbsp;touch<br>\n    \n    <strong>Targets</strong>&nbsp;object touched<br>\n    \n    <strong>Duration</strong>&nbsp;permanent until discharged (D)<br>\n      <strong>Saving Throw</strong>&nbsp;Reflex half; see text;&nbsp;\n      <strong>Spell Resistance</strong>&nbsp;yes<br>\n  </p>\n  <h2>Description</h2>\n  <p><i>Fire trap</i> creates a fiery explosion when an intruder opens the item that the trap protects. A <i>fire trap</i> spell can ward any object that can be opened and closed.</p><p>When casting <i>fire trap</i>, you select a point on the object as the spell's center. When someone other than you opens the object, a fiery explosion fills the area within a 5-foot radius around the spell's center. The flames deal 1d4 points of fire damage + 1 point per caster level (maximum +20). The item protected by the trap is not harmed by this explosion.</p><p>A fire-trapped item cannot have a second closure or warding spell placed on it. A <i>knock</i> spell does not bypass a <i>fire trap</i>. An unsuccessful <i>dispel magic</i> spell does not detonate the spell.</p><p>Underwater, this ward deals half damage and creates a large cloud of steam.</p><p>You can use the fire-trapped object without discharging it, as can any individual to whom the object was specifically attuned when cast. Attuning a fire-trapped object to an individual usually involves setting a password that you can share with friends.</p><p>Magic traps such as <i>fire trap</i> are hard to detect and disable. A character with trapfinding can use the Perception skill to find a <i>fire trap</i> and Disable Device to thwart it. The DC in each case is 25 + spell level (DC 27 for a druid's <i>fire trap</i> or DC 29 for the arcane version).</p>\n</div>\n",
      "chat": "",
      "unidentified": ""
    },
    "tags": [],
    "activation": {
      "cost": 10,
      "type": "minute"
    },
    "unchainedAction": {
      "activation": {
        "cost": 10,
        "type": "minute"
      }
    },
    "duration": {
      "value": null,
      "units": ""
    },
    "target": {
      "value": "object touched"
    },
    "range": {
      "value": null,
      "units": "touch",
      "maxIncrements": 1,
      "minValue": null,
      "minUnits": ""
    },
    "uses": {
      "value": 0,
      "max": 0,
      "per": "",
      "autoDeductCharges": true,
      "autoDeductChargesCost": "1"
    },
    "measureTemplate": {
      "type": "",
      "size": "0",
      "overrideColor": false,
      "customColor": "",
      "overrideTexture": false,
      "customTexture": ""
    },
    "attackName": "",
    "actionType": "spellsave",
    "attackBonus": "",
    "critConfirmBonus": "",
    "damage": {
      "parts": [],
      "critParts": [],
      "nonCritParts": []
    },
    "attackParts": [],
    "formula": "",
    "ability": {
      "attack": "",
      "damage": "",
      "damageMult": 1,
      "critRange": 20,
      "critMult": 2
    },
    "save": {
      "dc": "0",
      "type": "ref",
      "description": "Reflex half; see text"
    },
    "effectNotes": "",
    "attackNotes": "",
    "soundEffect": "",
    "links": {
      "children": []
    },
    "learnedAt": {
      "class": [
        [
          "sorcerer/wizard",
          4
        ],
        [
          "druid",
          2
        ],
        [
          "occultist",
          4
        ],
        [
          "hunter",
          2
        ]
      ],
      "domain": [],
      "subDomain": [],
      "elementalSchool": [],
      "bloodline": []
    },
    "level": 4,
    "clOffset": 0,
    "slOffset": 0,
    "school": "abj",
    "subschool": "",
    "types": "fire",
    "nonlethal": false,
    "conditionals": [],
    "components": {
      "value": "",
      "verbal": true,
      "somatic": true,
      "material": true,
      "focus": false,
      "divineFocus": 0
    },
    "castTime": "",
    "materials": {
      "value": "gold dust worth 25 gp",
      "focus": "",
      "gpValue": 25
    },
    "spellbook": "",
    "preparation": {
      "preparedAmount": 0,
      "maxAmount": 0,
      "autoDeductCharges": false,
      "spontaneousPrepared": false,
      "mode": "prepared"
    },
    "atWill": false,
    "sr": true,
    "shortDescription": "<p><i>Fire trap</i> creates a fiery explosion when an intruder opens the item that the trap protects. A <i>fire trap</i> spell can ward any object that can be opened and closed.</p><p>When casting <i>fire trap</i>, you select a point on the object as the spell's center. When someone other than you opens the object, a fiery explosion fills the area within a 5-foot radius around the spell's center. The flames deal 1d4 points of fire damage + 1 point per caster level (maximum +20). The item protected by the trap is not harmed by this explosion.</p><p>A fire-trapped item cannot have a second closure or warding spell placed on it. A <i>knock</i> spell does not bypass a <i>fire trap</i>. An unsuccessful <i>dispel magic</i> spell does not detonate the spell.</p><p>Underwater, this ward deals half damage and creates a large cloud of steam.</p><p>You can use the fire-trapped object without discharging it, as can any individual to whom the object was specifically attuned when cast. Attuning a fire-trapped object to an individual usually involves setting a password that you can share with friends.</p><p>Magic traps such as <i>fire trap</i> are hard to detect and disable. A character with trapfinding can use the Perception skill to find a <i>fire trap</i> and Disable Device to thwart it. The DC in each case is 25 + spell level (DC 27 for a druid's <i>fire trap</i> or DC 29 for the arcane version).</p>",
    "spellDuration": "permanent until discharged (D)",
    "spellEffect": "",
    "spellArea": "",
    "showInQuickbar": false,
    "spellPoints": {
      "cost": ""
    },
    "domain": false,
    "slotCost": 1
  },
  "flags": {},
  "img": "systems/pf1/icons/misc/magic-swirl.png",
  "effects": []
}