{
  "_id": "o6ihjdvdnrffzohj",
  "name": "Flesh Wall",
  "permission": {
    "default": 0
  },
  "type": "spell",
  "data": {
    "description": {
      "value": "<div class=\"spell-description\">\n  <p>\n    <strong>School</strong>&nbsp;necromancy&nbsp;[evil];\n    <strong>Level</strong>&nbsp;cleric/oracle 6, shaman 6, sorcerer/wizard 6, spiritualist 5, summoner 5, unchained Summoner 5, witch 6;\n    \n    \n    \n    \n  </p>\n  <p>\n    <strong>Casting Time</strong>&nbsp;1 standard action<br>\n    <strong>Components</strong>&nbsp;V, S, M (one corpse for every 5-ft. square of the wall), DF<br>\n  </p>\n  <p>\n    <strong>Range</strong>&nbsp;medium (100 ft. + 10 ft./level)<br>\n    \n    \n    <strong>Effect</strong>&nbsp;a wall of corpses with an area of up to one 5-ft. square/ level (S)<br>\n    <strong>Duration</strong>&nbsp;concentration + 1 round/level (D)<br>\n    <strong>Saving Throw</strong>&nbsp;none;&nbsp;<strong>Spell Resistance</strong>&nbsp;no<br>\n  </p>\n  <h2>Description</h2>\n  <p>You animate corpses, forming them into a wall of joined flesh and limbs. The wall inserts itself into any surrounding nonliving material if its area is sufficient to do so. The wall can't be created so that it occupies the same space as a creature or another object. The wall must be vertical, but can be shaped as you see fit.  The wall is considered to be undead. It uses your Will saving throw to resist channel energy.  A <i>flesh wall</i> is 2 feet thick. Each 5-foot square of the wall has 12 hit points and DR 5/slashing. A section of wall whose hit points drop to 0 is breached. As a move action, you can cause the fleshwall to constrict, shrinking it by a 5-foot square to fill the hole. Additionally, as a standard action, you can cause a 5-foot square of  the wall to permanently detach, forming a human zombie (<i>Bestiary</i> 288) under your verbal control (this zombie doesn't count against your normal limit of commanded undead). The zombie reverts back into a normal corpse when the spell's effect ends. Each 5-foot square of the wall makes a single slam attack against an adjacent enemy on your turn, as a human zombie. The squares of the wall threaten their adjacent squares and can even provide flanking.  Creatures can force their way slowly through the wall by making a Strength check as a full-round action. The DC to move through the wall is equal to 15 + your caster level. A creature that fails the check is trapped in the wall, takes 3d6 points of crushing damage, and is denied its Dexterity bonus to AC against the wall's slam attack. The creature can make an attempt to escape the wall on its next turn.  You can use zombies already under your control as the material components for a <i>flesh wall</i>. However, they and any other corpses in the wall revert back to inanimate corpses when the spell ends.</p>\n</div>\n",
      "chat": "",
      "unidentified": ""
    },
    "tags": [],
    "activation": {
      "cost": 1,
      "type": "standard"
    },
    "unchainedAction": {
      "activation": {
        "cost": 2,
        "type": "action"
      }
    },
    "duration": {
      "value": null,
      "units": ""
    },
    "target": {
      "value": ""
    },
    "range": {
      "value": null,
      "units": "medium",
      "maxIncrements": 1,
      "minValue": null,
      "minUnits": ""
    },
    "uses": {
      "value": 0,
      "max": 0,
      "per": "",
      "autoDeductCharges": true,
      "autoDeductChargesCost": "1"
    },
    "measureTemplate": {
      "type": "",
      "size": "0",
      "overrideColor": false,
      "customColor": "",
      "overrideTexture": false,
      "customTexture": ""
    },
    "attackName": "",
    "actionType": "other",
    "attackBonus": "",
    "critConfirmBonus": "",
    "damage": {
      "parts": [],
      "critParts": [],
      "nonCritParts": []
    },
    "attackParts": [],
    "formula": "",
    "ability": {
      "attack": "",
      "damage": "",
      "damageMult": 1,
      "critRange": 20,
      "critMult": 2
    },
    "save": {
      "dc": "0",
      "type": "",
      "description": ""
    },
    "effectNotes": "",
    "attackNotes": "",
    "soundEffect": "",
    "links": {
      "children": []
    },
    "learnedAt": {
      "class": [
        [
          "sorcerer/wizard",
          6
        ],
        [
          "cleric/oracle",
          6
        ],
        [
          "summoner",
          5
        ],
        [
          "witch",
          6
        ],
        [
          "shaman",
          6
        ],
        [
          "spiritualist",
          5
        ],
        [
          "unchained Summoner",
          5
        ]
      ],
      "domain": [],
      "subDomain": [],
      "elementalSchool": [],
      "bloodline": []
    },
    "level": 6,
    "clOffset": 0,
    "slOffset": 0,
    "school": "nec",
    "subschool": "",
    "types": "evil",
    "nonlethal": false,
    "conditionals": [],
    "components": {
      "value": "",
      "verbal": true,
      "somatic": true,
      "material": true,
      "focus": false,
      "divineFocus": 1
    },
    "castTime": "",
    "materials": {
      "value": "one corpse for every 5-ft. square of the wall",
      "focus": "",
      "gpValue": 0
    },
    "spellbook": "primary",
    "preparation": {
      "preparedAmount": 0,
      "maxAmount": 0,
      "autoDeductCharges": true,
      "spontaneousPrepared": true,
      "mode": "prepared"
    },
    "atWill": false,
    "sr": false,
    "shortDescription": "<p>You animate corpses, forming them into a wall of joined flesh and limbs. The wall inserts itself into any surrounding nonliving material if its area is sufficient to do so. The wall can't be created so that it occupies the same space as a creature or another object. The wall must be vertical, but can be shaped as you see fit.  The wall is considered to be undead. It uses your Will saving throw to resist channel energy.  A <i>flesh wall</i> is 2 feet thick. Each 5-foot square of the wall has 12 hit points and DR 5/slashing. A section of wall whose hit points drop to 0 is breached. As a move action, you can cause the fleshwall to constrict, shrinking it by a 5-foot square to fill the hole. Additionally, as a standard action, you can cause a 5-foot square of  the wall to permanently detach, forming a human zombie (<i>Bestiary</i> 288) under your verbal control (this zombie doesn't count against your normal limit of commanded undead). The zombie reverts back into a normal corpse when the spell's effect ends. Each 5-foot square of the wall makes a single slam attack against an adjacent enemy on your turn, as a human zombie. The squares of the wall threaten their adjacent squares and can even provide flanking.  Creatures can force their way slowly through the wall by making a Strength check as a full-round action. The DC to move through the wall is equal to 15 + your caster level. A creature that fails the check is trapped in the wall, takes 3d6 points of crushing damage, and is denied its Dexterity bonus to AC against the wall's slam attack. The creature can make an attempt to escape the wall on its next turn.  You can use zombies already under your control as the material components for a <i>flesh wall</i>. However, they and any other corpses in the wall revert back to inanimate corpses when the spell ends.</p>",
    "spellDuration": "concentration + 1 round/level (D)",
    "spellEffect": "a wall of corpses with an area of up to one 5-ft. square/ level (S)",
    "spellArea": "",
    "showInQuickbar": false,
    "spellPoints": {
      "cost": "1 + @sl"
    },
    "domain": false,
    "slotCost": 1
  },
  "flags": {},
  "img": "systems/pf1/icons/misc/magic-swirl.png",
  "effects": []
}