{
  "_id": "yuftnxwtc9du93ho",
  "name": "Hex Glyph",
  "permission": {
    "default": 0
  },
  "type": "spell",
  "data": {
    "description": {
      "value": "<div class=\"spell-description\">\n  <p>\n    <strong>School</strong>&nbsp;abjuration;\n    <strong>Level</strong>&nbsp;shaman 3, witch 3;\n    \n    \n    \n    \n  </p>\n  <p>\n    <strong>Casting Time</strong>&nbsp;10 minutes<br>\n    <strong>Components</strong>&nbsp;V, S, M (powdered diamond worth 200 gp)<br>\n  </p>\n  <p>\n    <strong>Range</strong>&nbsp;touch<br>\n    <strong>Area</strong>&nbsp;object touched or up to 5 sq. ft./level<br>\n    <strong>Targets</strong>&nbsp;object touched or up to 5 sq. ft./level<br>\n    \n    <strong>Duration</strong>&nbsp;permanent until discharged (D)<br>\n      <strong>Saving Throw</strong>&nbsp;see text;&nbsp;\n      <strong>Spell Resistance</strong>&nbsp;no<br>\n  </p>\n  <h2>Description</h2>\n  <p>This spell functions like the spell glyph version of <i>Glyph of Warding</i>, except you can store a hex you know (but not a major hex or a grand hex) instead of a spell. If the hex has a target, it targets the intruder. If the hex has an area or an amorphous effect, the area or effect is centered on the intruder. The triggered hex uses this spell's caster level and DC.</p><p><i>Read magic</i> allows its caster to identify a <i>hex glyph</i> with a successful DC 13 Knowledge (arcana) check. Identifying the glyph does not discharge it and indicates that it stores a hex, but does not indicate the effect of that hex.</p>\n</div>\n",
      "chat": "",
      "unidentified": ""
    },
    "tags": [],
    "activation": {
      "cost": 10,
      "type": "minute"
    },
    "unchainedAction": {
      "activation": {
        "cost": 10,
        "type": "minute"
      }
    },
    "duration": {
      "value": null,
      "units": ""
    },
    "target": {
      "value": "object touched or up to 5 sq. ft./level"
    },
    "range": {
      "value": null,
      "units": "touch",
      "maxIncrements": 1,
      "minValue": null,
      "minUnits": ""
    },
    "uses": {
      "value": 0,
      "max": 0,
      "per": "",
      "autoDeductCharges": true,
      "autoDeductChargesCost": "1"
    },
    "measureTemplate": {
      "type": "",
      "size": "0",
      "overrideColor": false,
      "customColor": "",
      "overrideTexture": false,
      "customTexture": ""
    },
    "attackName": "",
    "actionType": "spellsave",
    "attackBonus": "",
    "critConfirmBonus": "",
    "damage": {
      "parts": [],
      "critParts": [],
      "nonCritParts": []
    },
    "attackParts": [],
    "formula": "",
    "ability": {
      "attack": "",
      "damage": "",
      "damageMult": 1,
      "critRange": 20,
      "critMult": 2
    },
    "save": {
      "dc": "0",
      "type": "",
      "description": "see text"
    },
    "effectNotes": "",
    "attackNotes": "",
    "soundEffect": "",
    "links": {
      "children": []
    },
    "learnedAt": {
      "class": [
        [
          "witch",
          3
        ],
        [
          "shaman",
          3
        ]
      ],
      "domain": [],
      "subDomain": [],
      "elementalSchool": [],
      "bloodline": []
    },
    "level": 3,
    "clOffset": 0,
    "slOffset": 0,
    "school": "abj",
    "subschool": "",
    "types": "",
    "nonlethal": false,
    "conditionals": [],
    "components": {
      "value": "",
      "verbal": true,
      "somatic": true,
      "material": true,
      "focus": false,
      "divineFocus": 0
    },
    "castTime": "",
    "materials": {
      "value": "powdered diamond worth 200 gp",
      "focus": "",
      "gpValue": 200
    },
    "spellbook": "",
    "preparation": {
      "preparedAmount": 0,
      "maxAmount": 0,
      "autoDeductCharges": false,
      "spontaneousPrepared": false,
      "mode": "prepared"
    },
    "atWill": false,
    "sr": false,
    "shortDescription": "<p>This spell functions like the spell glyph version of <i>Glyph of Warding</i>, except you can store a hex you know (but not a major hex or a grand hex) instead of a spell. If the hex has a target, it targets the intruder. If the hex has an area or an amorphous effect, the area or effect is centered on the intruder. The triggered hex uses this spell's caster level and DC.</p><p><i>Read magic</i> allows its caster to identify a <i>hex glyph</i> with a successful DC 13 Knowledge (arcana) check. Identifying the glyph does not discharge it and indicates that it stores a hex, but does not indicate the effect of that hex.</p>",
    "spellDuration": "permanent until discharged (D)",
    "spellEffect": "",
    "spellArea": "object touched or up to 5 sq. ft./level",
    "showInQuickbar": false,
    "spellPoints": {
      "cost": ""
    },
    "domain": false,
    "slotCost": 1
  },
  "flags": {},
  "img": "systems/pf1/icons/misc/magic-swirl.png",
  "effects": []
}