{
  "_id": "itde2069xtim9l1d",
  "name": "Mad Monkeys",
  "permission": {
    "default": 0
  },
  "type": "spell",
  "data": {
    "description": {
      "value": "<div class=\"spell-description\">\n  <p>\n    <strong>School</strong>&nbsp;conjuration&nbsp;(summoning);\n    <strong>Level</strong>&nbsp;bard 3, druid 3, hunter 3, sorcerer/wizard 3, summoner 3, unchained Summoner 3;\n    \n    \n    \n    \n  </p>\n  <p>\n    <strong>Casting Time</strong>&nbsp;1 round<br>\n    <strong>Components</strong>&nbsp;V, S, DF<br>\n  </p>\n  <p>\n    <strong>Range</strong>&nbsp;close (25 ft. + 5 ft./2 levels)<br>\n    \n    \n    <strong>Effect</strong>&nbsp;swarm of monkeys<br>\n    <strong>Duration</strong>&nbsp;1 round/level<br>\n    <strong>Saving Throw</strong>&nbsp;none;&nbsp;<strong>Spell Resistance</strong>&nbsp;no<br>\n  </p>\n  <h2>Description</h2>\n  <p>You summon a swarm of screeching, mischievous monkeys. The swarm understands and obeys your commands and has the statistics of a monkey swarm (<i>Bestiary 2</i> 212). Creatures failing a saving throw against the mad monkeys' distraction attack are deafened for 1 minute as well as nauseated. The monkeys attempt one disarm or steal combat maneuver each turn as a free action against any creature that begins its turn in the swarm, using your caster level plus your casting ability score bonus (Intelligence for wizards; Wisdom for druids; Charisma for bards, sorcerers, and summoners) for its CMB. Recovering an item from the monkeys requires a successful disarm or steal attempt against that CMB + 10. An object stolen by the monkeys takes swarm damage each round the swarm is in possession of the object.</p>\n</div>\n",
      "chat": "",
      "unidentified": ""
    },
    "tags": [],
    "activation": {
      "cost": 1,
      "type": "round"
    },
    "unchainedAction": {
      "activation": {
        "cost": 3,
        "type": "action"
      }
    },
    "duration": {
      "value": null,
      "units": ""
    },
    "target": {
      "value": ""
    },
    "range": {
      "value": null,
      "units": "close",
      "maxIncrements": 1,
      "minValue": null,
      "minUnits": ""
    },
    "uses": {
      "value": 0,
      "max": 0,
      "per": "",
      "autoDeductCharges": true,
      "autoDeductChargesCost": "1"
    },
    "measureTemplate": {
      "type": "",
      "size": "0",
      "overrideColor": false,
      "customColor": "",
      "overrideTexture": false,
      "customTexture": ""
    },
    "attackName": "",
    "actionType": "other",
    "attackBonus": "",
    "critConfirmBonus": "",
    "damage": {
      "parts": [],
      "critParts": [],
      "nonCritParts": []
    },
    "attackParts": [],
    "formula": "",
    "ability": {
      "attack": "",
      "damage": "",
      "damageMult": 1,
      "critRange": 20,
      "critMult": 2
    },
    "save": {
      "dc": "0",
      "type": "",
      "description": ""
    },
    "effectNotes": "",
    "attackNotes": "",
    "soundEffect": "",
    "links": {
      "children": []
    },
    "learnedAt": {
      "class": [
        [
          "sorcerer/wizard",
          3
        ],
        [
          "druid",
          3
        ],
        [
          "bard",
          3
        ],
        [
          "summoner",
          3
        ],
        [
          "hunter",
          3
        ],
        [
          "unchained Summoner",
          3
        ]
      ],
      "domain": [],
      "subDomain": [],
      "elementalSchool": [],
      "bloodline": []
    },
    "level": 3,
    "clOffset": 0,
    "slOffset": 0,
    "school": "con",
    "subschool": "summoning",
    "types": "",
    "nonlethal": false,
    "conditionals": [],
    "components": {
      "value": "",
      "verbal": true,
      "somatic": true,
      "material": false,
      "focus": false,
      "divineFocus": 1
    },
    "castTime": "",
    "materials": {
      "value": "",
      "focus": "",
      "gpValue": 0
    },
    "spellbook": "primary",
    "preparation": {
      "preparedAmount": 0,
      "maxAmount": 0,
      "autoDeductCharges": true,
      "spontaneousPrepared": true,
      "mode": "prepared"
    },
    "atWill": false,
    "sr": false,
    "shortDescription": "<p>You summon a swarm of screeching, mischievous monkeys. The swarm understands and obeys your commands and has the statistics of a monkey swarm (<i>Bestiary 2</i> 212). Creatures failing a saving throw against the mad monkeys' distraction attack are deafened for 1 minute as well as nauseated. The monkeys attempt one disarm or steal combat maneuver each turn as a free action against any creature that begins its turn in the swarm, using your caster level plus your casting ability score bonus (Intelligence for wizards; Wisdom for druids; Charisma for bards, sorcerers, and summoners) for its CMB. Recovering an item from the monkeys requires a successful disarm or steal attempt against that CMB + 10. An object stolen by the monkeys takes swarm damage each round the swarm is in possession of the object.</p>",
    "spellDuration": "1 round/level",
    "spellEffect": "swarm of monkeys",
    "spellArea": "",
    "showInQuickbar": false,
    "spellPoints": {
      "cost": "1 + @sl"
    },
    "domain": false,
    "slotCost": 1
  },
  "flags": {},
  "img": "systems/pf1/icons/misc/magic-swirl.png",
  "effects": []
}