{
  "_id": "jsvjsax2eabrlx8g",
  "name": "Minor Creation",
  "permission": {
    "default": 0
  },
  "type": "spell",
  "data": {
    "description": {
      "value": "<div class=\"spell-description\">\n  <p>\n    <strong>School</strong>&nbsp;conjuration&nbsp;(creation);\n    <strong>Level</strong>&nbsp;adept 4, occultist 3, psychic 4, sorcerer/wizard 4, spiritualist 3, summoner 3, unchained Summoner 3, witch 4;\n    <strong>Domain</strong>&nbsp;Artifice 4;\n    \n    \n    <strong>Bloodline</strong>&nbsp;Djinni 4;\n  </p>\n  <p>\n    <strong>Casting Time</strong>&nbsp;1 minute<br>\n    <strong>Components</strong>&nbsp;V, S, M (a tiny piece of matter of the same sort of item you plan to create with minor creation)<br>\n  </p>\n  <p>\n    \n    \n    \n    <strong>Effect</strong>&nbsp;unattended, nonmagical object of nonliving plant matter, up to 1 cu. ft./level<br>\n    <strong>Duration</strong>&nbsp;1 hour/level<br>\n    <strong>Saving Throw</strong>&nbsp;none;&nbsp;<strong>Spell Resistance</strong>&nbsp;no<br>\n  </p>\n  <h2>Description</h2>\n  <p>You create a nonmagical, unattended object of nonliving vegetable matter. The volume of the item created cannot exceed 1 cubic foot per caster level. You must succeed on an appropriate Craft skill check to make a complex item.</p><p>Attempting to use any created object as a material component causes the spell to fail.</p>\n</div>\n",
      "chat": "",
      "unidentified": ""
    },
    "tags": [],
    "activation": {
      "cost": 1,
      "type": "minute"
    },
    "unchainedAction": {
      "activation": {
        "cost": 1,
        "type": "minute"
      }
    },
    "duration": {
      "value": null,
      "units": ""
    },
    "target": {
      "value": ""
    },
    "range": {
      "value": 0,
      "units": "ft",
      "maxIncrements": 1,
      "minValue": null,
      "minUnits": ""
    },
    "uses": {
      "value": 0,
      "max": 0,
      "per": "",
      "autoDeductCharges": true,
      "autoDeductChargesCost": "1"
    },
    "measureTemplate": {
      "type": "",
      "size": "0",
      "overrideColor": false,
      "customColor": "",
      "overrideTexture": false,
      "customTexture": ""
    },
    "attackName": "",
    "actionType": "other",
    "attackBonus": "",
    "critConfirmBonus": "",
    "damage": {
      "parts": [],
      "critParts": [],
      "nonCritParts": []
    },
    "attackParts": [],
    "formula": "",
    "ability": {
      "attack": "",
      "damage": "",
      "damageMult": 1,
      "critRange": 20,
      "critMult": 2
    },
    "save": {
      "dc": "0",
      "type": "",
      "description": ""
    },
    "effectNotes": "",
    "attackNotes": "",
    "soundEffect": "",
    "links": {
      "children": []
    },
    "learnedAt": {
      "class": [
        [
          "sorcerer/wizard",
          4
        ],
        [
          "summoner",
          3
        ],
        [
          "witch",
          4
        ],
        [
          "adept",
          4
        ],
        [
          "psychic",
          4
        ],
        [
          "occultist",
          3
        ],
        [
          "spiritualist",
          3
        ],
        [
          "unchained Summoner",
          3
        ]
      ],
      "domain": [
        [
          "Artifice",
          4
        ]
      ],
      "subDomain": [],
      "elementalSchool": [],
      "bloodline": [
        [
          "Djinni",
          4
        ]
      ]
    },
    "level": 4,
    "clOffset": 0,
    "slOffset": 0,
    "school": "con",
    "subschool": "creation",
    "types": "",
    "nonlethal": false,
    "conditionals": [],
    "components": {
      "value": "",
      "verbal": true,
      "somatic": true,
      "material": true,
      "focus": false,
      "divineFocus": 0
    },
    "castTime": "",
    "materials": {
      "value": "a tiny piece of matter of the same sort of item you plan to create with minor creation",
      "focus": "",
      "gpValue": 0
    },
    "spellbook": "primary",
    "preparation": {
      "preparedAmount": 0,
      "maxAmount": 0,
      "autoDeductCharges": true,
      "spontaneousPrepared": true,
      "mode": "prepared"
    },
    "atWill": false,
    "sr": false,
    "shortDescription": "<p>You create a nonmagical, unattended object of nonliving vegetable matter. The volume of the item created cannot exceed 1 cubic foot per caster level. You must succeed on an appropriate Craft skill check to make a complex item.</p><p>Attempting to use any created object as a material component causes the spell to fail.</p>",
    "spellDuration": "1 hour/level",
    "spellEffect": "unattended, nonmagical object of nonliving plant matter, up to 1 cu. ft./level",
    "spellArea": "",
    "showInQuickbar": false,
    "spellPoints": {
      "cost": "1 + @sl"
    },
    "domain": false,
    "slotCost": 1
  },
  "flags": {},
  "img": "systems/pf1/icons/misc/magic-swirl.png",
  "effects": []
}