{
  "_id": "8ikma6e6wqrx1dh7",
  "name": "Murderous Crow",
  "permission": {
    "default": 0
  },
  "type": "spell",
  "data": {
    "description": {
      "value": "<div class=\"spell-description\">\n  <p>\n    <strong>School</strong>&nbsp;conjuration&nbsp;(summoning)&nbsp;[see text];\n    <strong>Level</strong>&nbsp;antipaladin 1, cleric/oracle 1, paladin 1, sorcerer/wizard 1, summoner 1, unchained Summoner 1, witch 1;\n    \n    \n    \n    \n  </p>\n  <p>\n    <strong>Casting Time</strong>&nbsp;1 round<br>\n    <strong>Components</strong>&nbsp;V, S, F (a crow&#x27;s feather)<br>\n  </p>\n  <p>\n    <strong>Range</strong>&nbsp;medium (100 ft. + 10 ft./level)<br>\n    \n    \n    <strong>Effect</strong>&nbsp;one crow<br>\n    <strong>Duration</strong>&nbsp;1 round/level<br>\n    <strong>Saving Throw</strong>&nbsp;none;&nbsp;<strong>Spell Resistance</strong>&nbsp;no<br>\n  </p>\n  <h2>Description</h2>\n  <p>You conjure a supernaturally vicious and clever crow to watch over you on the battlefield. Choose one of the following templates; the crow has that template and this spell gains the descriptor listed in parentheses: celestial (good), entropicB2 (chaotic), fiendish (evil), or resoluteB2 (lawful). In addition to its normal abilities, the crow gains the Improved StealAPG feat  as a bonus feat and gains an eye rake attack. If both of its claw attacks hit the same living foe in a single round, that foe must succeed at a DC 13 Reflex save or be blinded as the bird scratches and tears at the foe's eyes. The blindness lasts for 1d4 days or until healed with <i>remove blindness</i>.  If the focus leaves your possession, the crow vanishes and the spell ends.</p>\n</div>\n",
      "chat": "",
      "unidentified": ""
    },
    "tags": [],
    "activation": {
      "cost": 1,
      "type": "round"
    },
    "unchainedAction": {
      "activation": {
        "cost": 3,
        "type": "action"
      }
    },
    "duration": {
      "value": null,
      "units": ""
    },
    "target": {
      "value": ""
    },
    "range": {
      "value": null,
      "units": "medium",
      "maxIncrements": 1,
      "minValue": null,
      "minUnits": ""
    },
    "uses": {
      "value": 0,
      "max": 0,
      "per": "",
      "autoDeductCharges": true,
      "autoDeductChargesCost": "1"
    },
    "measureTemplate": {
      "type": "",
      "size": "0",
      "overrideColor": false,
      "customColor": "",
      "overrideTexture": false,
      "customTexture": ""
    },
    "attackName": "",
    "actionType": "other",
    "attackBonus": "",
    "critConfirmBonus": "",
    "damage": {
      "parts": [],
      "critParts": [],
      "nonCritParts": []
    },
    "attackParts": [],
    "formula": "",
    "ability": {
      "attack": "",
      "damage": "",
      "damageMult": 1,
      "critRange": 20,
      "critMult": 2
    },
    "save": {
      "dc": "0",
      "type": "",
      "description": ""
    },
    "effectNotes": "",
    "attackNotes": "",
    "soundEffect": "",
    "links": {
      "children": []
    },
    "learnedAt": {
      "class": [
        [
          "sorcerer/wizard",
          1
        ],
        [
          "cleric/oracle",
          1
        ],
        [
          "paladin",
          1
        ],
        [
          "summoner",
          1
        ],
        [
          "witch",
          1
        ],
        [
          "antipaladin",
          1
        ],
        [
          "unchained Summoner",
          1
        ]
      ],
      "domain": [],
      "subDomain": [],
      "elementalSchool": [],
      "bloodline": []
    },
    "level": 1,
    "clOffset": 0,
    "slOffset": 0,
    "school": "con",
    "subschool": "summoning",
    "types": "see text",
    "nonlethal": false,
    "conditionals": [],
    "components": {
      "value": "",
      "verbal": true,
      "somatic": true,
      "material": false,
      "focus": true,
      "divineFocus": 0
    },
    "castTime": "",
    "materials": {
      "value": "",
      "focus": "a crow's feather",
      "gpValue": 0
    },
    "spellbook": "primary",
    "preparation": {
      "preparedAmount": 0,
      "maxAmount": 0,
      "autoDeductCharges": true,
      "spontaneousPrepared": true,
      "mode": "prepared"
    },
    "atWill": false,
    "sr": false,
    "shortDescription": "<p>You conjure a supernaturally vicious and clever crow to watch over you on the battlefield. Choose one of the following templates; the crow has that template and this spell gains the descriptor listed in parentheses: celestial (good), entropicB2 (chaotic), fiendish (evil), or resoluteB2 (lawful). In addition to its normal abilities, the crow gains the Improved StealAPG feat  as a bonus feat and gains an eye rake attack. If both of its claw attacks hit the same living foe in a single round, that foe must succeed at a DC 13 Reflex save or be blinded as the bird scratches and tears at the foe's eyes. The blindness lasts for 1d4 days or until healed with <i>remove blindness</i>.  If the focus leaves your possession, the crow vanishes and the spell ends.</p>",
    "spellDuration": "1 round/level",
    "spellEffect": "one crow",
    "spellArea": "",
    "showInQuickbar": false,
    "spellPoints": {
      "cost": "1 + @sl"
    },
    "domain": false,
    "slotCost": 1
  },
  "flags": {},
  "img": "systems/pf1/icons/misc/magic-swirl.png",
  "effects": []
}