{
  "_id": "8wjn8wfe7pirs54o",
  "name": "Primal Regression",
  "permission": {
    "default": 0
  },
  "type": "spell",
  "data": {
    "description": {
      "value": "<div class=\"spell-description\">\n  <p>\n    <strong>School</strong>&nbsp;enchantment&nbsp;(compulsion)&nbsp;[mind-affecting];\n    <strong>Level</strong>&nbsp;druid 6, hunter 6, mesmerist 5, psychic 6, shaman 6, witch 7;\n    \n    \n    \n    \n  </p>\n  <p>\n    <strong>Casting Time</strong>&nbsp;1 standard action<br>\n    <strong>Components</strong>&nbsp;S<br>\n  </p>\n  <p>\n    <strong>Range</strong>&nbsp;close (25 ft. + 5 ft./2 levels)<br>\n    \n    <strong>Targets</strong>&nbsp;one creature/2 levels, no two of which can be more than 30 feet apart<br>\n    \n    <strong>Duration</strong>&nbsp;1 minute/level<br>\n    <strong>Saving Throw</strong>&nbsp;Will negates;&nbsp;<strong>Spell Resistance</strong>&nbsp;yes<br>\n  </p>\n  <h2>Description</h2>\n  <p>This spell sequesters the targets' ability for higher reasoning, allowing their darker impulses to come to the fore. An affected target becomes a ravening monster-savage, bloodthirsty, and brutish. Until the spell ends, the targets have all of the following benefits and drawbacks.  <ul><li> Targets' Intelligence and Charisma scores drop to 3 (if the scores were higher), and they are unable to use Intelligence-or Charisma-based skills, cast spells, understand language, or communicate coherently.  <li> Targets take a -4 penalty on Will saves.  <li> Targets gain a +6 enhancement bonus to Strength, a +2 natural armor bonus to AC, and 2d8 temporary hit points. These temporary hit points disappear at the end of the spell's duration. </ul> When the spell ends, each affected creature must succeed at a Will saving throw or take 1d4 points of Intelligence drain and 1d4 points of Charisma damage.</p>\n</div>\n",
      "chat": "",
      "unidentified": ""
    },
    "tags": [],
    "activation": {
      "cost": 1,
      "type": "standard"
    },
    "unchainedAction": {
      "activation": {
        "cost": 2,
        "type": "action"
      }
    },
    "duration": {
      "value": null,
      "units": ""
    },
    "target": {
      "value": "one creature/2 levels, no two of which can be more than 30 feet apart"
    },
    "range": {
      "value": null,
      "units": "close",
      "maxIncrements": 1,
      "minValue": null,
      "minUnits": ""
    },
    "uses": {
      "value": 0,
      "max": 0,
      "per": "",
      "autoDeductCharges": true,
      "autoDeductChargesCost": "1"
    },
    "measureTemplate": {
      "type": "",
      "size": "0",
      "overrideColor": false,
      "customColor": "",
      "overrideTexture": false,
      "customTexture": ""
    },
    "attackName": "",
    "actionType": "spellsave",
    "attackBonus": "",
    "critConfirmBonus": "",
    "damage": {
      "parts": [],
      "critParts": [],
      "nonCritParts": []
    },
    "attackParts": [],
    "formula": "",
    "ability": {
      "attack": "",
      "damage": "",
      "damageMult": 1,
      "critRange": 20,
      "critMult": 2
    },
    "save": {
      "dc": "0",
      "type": "will",
      "description": "Will negates"
    },
    "effectNotes": "",
    "attackNotes": "",
    "soundEffect": "",
    "links": {
      "children": []
    },
    "learnedAt": {
      "class": [
        [
          "druid",
          6
        ],
        [
          "witch",
          7
        ],
        [
          "shaman",
          6
        ],
        [
          "psychic",
          6
        ],
        [
          "mesmerist",
          5
        ],
        [
          "hunter",
          6
        ]
      ],
      "domain": [],
      "subDomain": [],
      "elementalSchool": [],
      "bloodline": []
    },
    "level": 6,
    "clOffset": 0,
    "slOffset": 0,
    "school": "enc",
    "subschool": "compulsion",
    "types": "mind-affecting",
    "nonlethal": false,
    "conditionals": [],
    "components": {
      "value": "",
      "verbal": false,
      "somatic": true,
      "material": false,
      "focus": false,
      "divineFocus": 0
    },
    "castTime": "",
    "materials": {
      "value": "",
      "focus": "",
      "gpValue": 0
    },
    "spellbook": "primary",
    "preparation": {
      "preparedAmount": 0,
      "maxAmount": 0,
      "autoDeductCharges": true,
      "spontaneousPrepared": true,
      "mode": "prepared"
    },
    "atWill": false,
    "sr": true,
    "shortDescription": "<p>This spell sequesters the targets' ability for higher reasoning, allowing their darker impulses to come to the fore. An affected target becomes a ravening monster-savage, bloodthirsty, and brutish. Until the spell ends, the targets have all of the following benefits and drawbacks.  <ul><li> Targets' Intelligence and Charisma scores drop to 3 (if the scores were higher), and they are unable to use Intelligence-or Charisma-based skills, cast spells, understand language, or communicate coherently.  <li> Targets take a -4 penalty on Will saves.  <li> Targets gain a +6 enhancement bonus to Strength, a +2 natural armor bonus to AC, and 2d8 temporary hit points. These temporary hit points disappear at the end of the spell's duration. </ul> When the spell ends, each affected creature must succeed at a Will saving throw or take 1d4 points of Intelligence drain and 1d4 points of Charisma damage.</p>",
    "spellDuration": "1 minute/level",
    "spellEffect": "",
    "spellArea": "",
    "showInQuickbar": false,
    "spellPoints": {
      "cost": "1 + @sl"
    },
    "domain": false,
    "slotCost": 1
  },
  "flags": {},
  "img": "systems/pf1/icons/misc/magic-swirl.png",
  "effects": []
}