{
  "_id": "0r3tdcs6jf9qkjjr",
  "name": "Screaming Flames",
  "permission": {
    "default": 0
  },
  "type": "spell",
  "data": {
    "description": {
      "value": "<div class=\"spell-description\">\n  <p>\n    <strong>School</strong>&nbsp;evocation&nbsp;[evil, fire, mind-affecting];\n    <strong>Level</strong>&nbsp;antipaladin 3, cleric/oracle 3;\n    \n    \n    \n    \n  </p>\n  <p>\n    <strong>Casting Time</strong>&nbsp;1 standard action<br>\n    <strong>Components</strong>&nbsp;V, S, M/DF (a charred animal or humanoid skull fragment)<br>\n  </p>\n  <p>\n    <strong>Range</strong>&nbsp;close (25 ft. + 5 ft./2 levels)<br>\n    \n    \n    <strong>Effect</strong>&nbsp;a sheet of flame up to 15 ft. long and 10 ft. high that moves 15 ft. in a straight line.<br>\n    <strong>Duration</strong>&nbsp;instantaneous<br>\n    <strong>Saving Throw</strong>&nbsp;Reflex half and Will negates (see text);&nbsp;<strong>Spell Resistance</strong>&nbsp;yes<br>\n  </p>\n  <h2>Description</h2>\n  <p>A sheer wall of flame appears and rushes away from you. Tendrils of fire reach out of it, shaped into skulls screaming in agony. When the wall passes through a creature's space, that creature must succeed at a Reflex save or take 1d8 points of fire damage for every 2 caster levels you have (maximum 5d8). Any creature taking fire damage must also succeed at a Will save or take 1d3 points of Wisdom damage. Deaf creatures receive a +4 circumstance bonus on their Will saves.  If your campaign uses the sanity system (see page 12), a creature takes 1d6 points of sanity damage instead of Wisdom damage.</p>\n</div>\n",
      "chat": "",
      "unidentified": ""
    },
    "tags": [],
    "activation": {
      "cost": 1,
      "type": "standard"
    },
    "unchainedAction": {
      "activation": {
        "cost": 2,
        "type": "action"
      }
    },
    "duration": {
      "value": null,
      "units": ""
    },
    "target": {
      "value": ""
    },
    "range": {
      "value": null,
      "units": "close",
      "maxIncrements": 1,
      "minValue": null,
      "minUnits": ""
    },
    "uses": {
      "value": 0,
      "max": 0,
      "per": "",
      "autoDeductCharges": true,
      "autoDeductChargesCost": "1"
    },
    "measureTemplate": {
      "type": "",
      "size": "0",
      "overrideColor": false,
      "customColor": "",
      "overrideTexture": false,
      "customTexture": ""
    },
    "attackName": "",
    "actionType": "spellsave",
    "attackBonus": "",
    "critConfirmBonus": "",
    "damage": {
      "parts": [],
      "critParts": [],
      "nonCritParts": []
    },
    "attackParts": [],
    "formula": "",
    "ability": {
      "attack": "",
      "damage": "",
      "damageMult": 1,
      "critRange": 20,
      "critMult": 2
    },
    "save": {
      "dc": "0",
      "type": "ref",
      "description": "Reflex half and Will negates (see text)"
    },
    "effectNotes": "",
    "attackNotes": "",
    "soundEffect": "",
    "links": {
      "children": []
    },
    "learnedAt": {
      "class": [
        [
          "cleric/oracle",
          3
        ],
        [
          "antipaladin",
          3
        ]
      ],
      "domain": [],
      "subDomain": [],
      "elementalSchool": [],
      "bloodline": []
    },
    "level": 3,
    "clOffset": 0,
    "slOffset": 0,
    "school": "evo",
    "subschool": "",
    "types": "evil, fire, mind-affecting",
    "nonlethal": false,
    "conditionals": [],
    "components": {
      "value": "",
      "verbal": true,
      "somatic": true,
      "material": true,
      "focus": false,
      "divineFocus": 2
    },
    "castTime": "",
    "materials": {
      "value": "a charred animal or humanoid skull fragment",
      "focus": "",
      "gpValue": 0
    },
    "spellbook": "primary",
    "preparation": {
      "preparedAmount": 0,
      "maxAmount": 0,
      "autoDeductCharges": true,
      "spontaneousPrepared": true,
      "mode": "prepared"
    },
    "atWill": false,
    "sr": true,
    "shortDescription": "<p>A sheer wall of flame appears and rushes away from you. Tendrils of fire reach out of it, shaped into skulls screaming in agony. When the wall passes through a creature's space, that creature must succeed at a Reflex save or take 1d8 points of fire damage for every 2 caster levels you have (maximum 5d8). Any creature taking fire damage must also succeed at a Will save or take 1d3 points of Wisdom damage. Deaf creatures receive a +4 circumstance bonus on their Will saves.  If your campaign uses the sanity system (see page 12), a creature takes 1d6 points of sanity damage instead of Wisdom damage.</p>",
    "spellDuration": "instantaneous",
    "spellEffect": "a sheet of flame up to 15 ft. long and 10 ft. high that moves 15 ft. in a straight line.",
    "spellArea": "",
    "showInQuickbar": false,
    "spellPoints": {
      "cost": "1 + @sl"
    },
    "domain": false,
    "slotCost": 1
  },
  "flags": {},
  "img": "systems/pf1/icons/misc/magic-swirl.png",
  "effects": []
}