{
  "_id": "4me7ddc17nowrs6f",
  "name": "Sessile Spirit",
  "permission": {
    "default": 0
  },
  "type": "spell",
  "data": {
    "description": {
      "value": "<div class=\"spell-description\">\n  <p>\n    <strong>School</strong>&nbsp;necromancy;\n    <strong>Level</strong>&nbsp;cleric/oracle 5, inquisitor 4, medium 2, occultist 3, shaman 4, spiritualist 3, witch 5;\n    \n    \n    \n    \n  </p>\n  <p>\n    <strong>Casting Time</strong>&nbsp;1 standard action<br>\n    <strong>Components</strong>&nbsp;V, S<br>\n  </p>\n  <p>\n    <strong>Range</strong>&nbsp;medium (100 ft. + 10 ft./level)<br>\n    \n    <strong>Targets</strong>&nbsp;one creature or object (see text)<br>\n    \n    <strong>Duration</strong>&nbsp;1 round/level (D)<br>\n    <strong>Saving Throw</strong>&nbsp;Will negates (harmless);&nbsp;<strong>Spell Resistance</strong>&nbsp;yes<br>\n  </p>\n  <h2>Description</h2>\n  <p>You reach into the target creature and cause that spirits within to become dormant and inactive. If the target is a medium with a spirit inhabiting its body or a spiritualist with a phantom inhabiting its consciousness (or a member of another class using the spirit or phantom class features), a failed save renders that spirit or phantom powerless, suppressing any benefits the spirit or phantom normally provides to its host, including bonus feats and spells known.  If a spirit within the target is a creature using a <i>possession</i> effect, including <i>possess object</i>, <i>possession</i>, or a ghost's malevolence, the spell targets the possessing creature rather than the creature it inhabits. On a failed save, the possessing spirit isn't exorcised from the target but is dazed for the duration of the spell.</p>\n</div>\n",
      "chat": "",
      "unidentified": ""
    },
    "tags": [],
    "activation": {
      "cost": 1,
      "type": "standard"
    },
    "unchainedAction": {
      "activation": {
        "cost": 2,
        "type": "action"
      }
    },
    "duration": {
      "value": null,
      "units": ""
    },
    "target": {
      "value": "one creature or object (see text)"
    },
    "range": {
      "value": null,
      "units": "medium",
      "maxIncrements": 1,
      "minValue": null,
      "minUnits": ""
    },
    "uses": {
      "value": 0,
      "max": 0,
      "per": "",
      "autoDeductCharges": true,
      "autoDeductChargesCost": "1"
    },
    "measureTemplate": {
      "type": "",
      "size": "0",
      "overrideColor": false,
      "customColor": "",
      "overrideTexture": false,
      "customTexture": ""
    },
    "attackName": "",
    "actionType": "spellsave",
    "attackBonus": "",
    "critConfirmBonus": "",
    "damage": {
      "parts": [],
      "critParts": [],
      "nonCritParts": []
    },
    "attackParts": [],
    "formula": "",
    "ability": {
      "attack": "",
      "damage": "",
      "damageMult": 1,
      "critRange": 20,
      "critMult": 2
    },
    "save": {
      "dc": "0",
      "type": "will",
      "description": "Will negates (harmless)"
    },
    "effectNotes": "",
    "attackNotes": "",
    "soundEffect": "",
    "links": {
      "children": []
    },
    "learnedAt": {
      "class": [
        [
          "cleric/oracle",
          5
        ],
        [
          "witch",
          5
        ],
        [
          "inquisitor",
          4
        ],
        [
          "shaman",
          4
        ],
        [
          "medium",
          2
        ],
        [
          "occultist",
          3
        ],
        [
          "spiritualist",
          3
        ]
      ],
      "domain": [],
      "subDomain": [],
      "elementalSchool": [],
      "bloodline": []
    },
    "level": 5,
    "clOffset": 0,
    "slOffset": 0,
    "school": "nec",
    "subschool": "",
    "types": "",
    "nonlethal": false,
    "conditionals": [],
    "components": {
      "value": "",
      "verbal": true,
      "somatic": true,
      "material": false,
      "focus": false,
      "divineFocus": 0
    },
    "castTime": "",
    "materials": {
      "value": "",
      "focus": "",
      "gpValue": 0
    },
    "spellbook": "primary",
    "preparation": {
      "preparedAmount": 0,
      "maxAmount": 0,
      "autoDeductCharges": true,
      "spontaneousPrepared": true,
      "mode": "prepared"
    },
    "atWill": false,
    "sr": true,
    "shortDescription": "<p>You reach into the target creature and cause that spirits within to become dormant and inactive. If the target is a medium with a spirit inhabiting its body or a spiritualist with a phantom inhabiting its consciousness (or a member of another class using the spirit or phantom class features), a failed save renders that spirit or phantom powerless, suppressing any benefits the spirit or phantom normally provides to its host, including bonus feats and spells known.  If a spirit within the target is a creature using a <i>possession</i> effect, including <i>possess object</i>, <i>possession</i>, or a ghost's malevolence, the spell targets the possessing creature rather than the creature it inhabits. On a failed save, the possessing spirit isn't exorcised from the target but is dazed for the duration of the spell.</p>",
    "spellDuration": "1 round/level (D)",
    "spellEffect": "",
    "spellArea": "",
    "showInQuickbar": false,
    "spellPoints": {
      "cost": "1 + @sl"
    },
    "domain": false,
    "slotCost": 1
  },
  "flags": {},
  "img": "systems/pf1/icons/misc/magic-swirl.png",
  "effects": []
}