{
  "_id": "e5rl0alxulueu3xe",
  "name": "Stoke the Inner Fire",
  "permission": {
    "default": 0
  },
  "type": "spell",
  "data": {
    "description": {
      "value": "<div class=\"spell-description\">\n  <p>\n    <strong>School</strong>&nbsp;transmutation&nbsp;[fire];\n    <strong>Level</strong>&nbsp;cleric/oracle 2, inquisitor 2;\n    \n    \n    \n    \n  </p>\n  <p>\n    <strong>Casting Time</strong>&nbsp;1 standard action<br>\n    <strong>Components</strong>&nbsp;V<br>\n  </p>\n  <p>\n    <strong>Range</strong>&nbsp;personal<br>\n    \n    <strong>Targets</strong>&nbsp;you<br>\n    \n    <strong>Duration</strong>&nbsp;1 round/level<br>\n    \n  </p>\n  <h2>Description</h2>\n  <p>You increase the natural heat within your body, transferring it to your weapons and armor. As a swift action, you may grant one of your natural or manufactured weapons the <i>flaming</i> special ability for 1 round. If you have the fire subtype, your weapon instead gains the <i>flaming</i> burst special ability. If the weapon leaves your hand for any reason, it loses the <i>flaming</i> (or <i>flaming</i> burst) special ability until you spend a swift action to activate it again. You can only have <i>Stoke the Inner Fire</i> active on one weapon at a time, and spending a swift action to imbue a second weapon with the spell's power immediately ends its effect on the first weapon.  The spell also builds a wall of searing heat between your armor and your flesh. Anyone striking you with a natural weapon or unarmed strike takes 1 point of fire damage. A creature that grapples you or is grappled by you takes 1 point of fire damage each round the grapple persists. If you have the fire subtype, these damage values increase to 1d6 points of fire damage each. Removing your armor causes this wall of heat to dissipate and ends these effects.</p>\n</div>\n",
      "chat": "",
      "unidentified": ""
    },
    "tags": [],
    "activation": {
      "cost": 1,
      "type": "standard"
    },
    "unchainedAction": {
      "activation": {
        "cost": 2,
        "type": "action"
      }
    },
    "duration": {
      "value": null,
      "units": ""
    },
    "target": {
      "value": "you"
    },
    "range": {
      "value": null,
      "units": "personal",
      "maxIncrements": 1,
      "minValue": null,
      "minUnits": ""
    },
    "uses": {
      "value": 0,
      "max": 0,
      "per": "",
      "autoDeductCharges": true,
      "autoDeductChargesCost": "1"
    },
    "measureTemplate": {
      "type": "",
      "size": "0",
      "overrideColor": false,
      "customColor": "",
      "overrideTexture": false,
      "customTexture": ""
    },
    "attackName": "",
    "actionType": "",
    "attackBonus": "",
    "critConfirmBonus": "",
    "damage": {
      "parts": [],
      "critParts": [],
      "nonCritParts": []
    },
    "attackParts": [],
    "formula": "",
    "ability": {
      "attack": "",
      "damage": "",
      "damageMult": 1,
      "critRange": 20,
      "critMult": 2
    },
    "save": {
      "dc": "0",
      "type": "",
      "description": ""
    },
    "effectNotes": "",
    "attackNotes": "",
    "soundEffect": "",
    "links": {
      "children": []
    },
    "learnedAt": {
      "class": [
        [
          "cleric/oracle",
          2
        ],
        [
          "inquisitor",
          2
        ]
      ],
      "domain": [],
      "subDomain": [],
      "elementalSchool": [],
      "bloodline": []
    },
    "level": 2,
    "clOffset": 0,
    "slOffset": 0,
    "school": "trs",
    "subschool": "",
    "types": "fire",
    "nonlethal": false,
    "conditionals": [],
    "components": {
      "value": "",
      "verbal": true,
      "somatic": false,
      "material": false,
      "focus": false,
      "divineFocus": 0
    },
    "castTime": "",
    "materials": {
      "value": "",
      "focus": "",
      "gpValue": 0
    },
    "spellbook": "primary",
    "preparation": {
      "preparedAmount": 0,
      "maxAmount": 0,
      "autoDeductCharges": true,
      "spontaneousPrepared": true,
      "mode": "prepared"
    },
    "atWill": false,
    "sr": false,
    "shortDescription": "<p>You increase the natural heat within your body, transferring it to your weapons and armor. As a swift action, you may grant one of your natural or manufactured weapons the <i>flaming</i> special ability for 1 round. If you have the fire subtype, your weapon instead gains the <i>flaming</i> burst special ability. If the weapon leaves your hand for any reason, it loses the <i>flaming</i> (or <i>flaming</i> burst) special ability until you spend a swift action to activate it again. You can only have <i>Stoke the Inner Fire</i> active on one weapon at a time, and spending a swift action to imbue a second weapon with the spell's power immediately ends its effect on the first weapon.  The spell also builds a wall of searing heat between your armor and your flesh. Anyone striking you with a natural weapon or unarmed strike takes 1 point of fire damage. A creature that grapples you or is grappled by you takes 1 point of fire damage each round the grapple persists. If you have the fire subtype, these damage values increase to 1d6 points of fire damage each. Removing your armor causes this wall of heat to dissipate and ends these effects.</p>",
    "spellDuration": "1 round/level",
    "spellEffect": "",
    "spellArea": "",
    "showInQuickbar": false,
    "spellPoints": {
      "cost": "1 + @sl"
    },
    "domain": false,
    "slotCost": 1
  },
  "flags": {},
  "img": "systems/pf1/icons/misc/magic-swirl.png",
  "effects": []
}