{
  "_id": "xqij3sw3189p2ehl",
  "name": "Suppressing Stone",
  "permission": {
    "default": 0
  },
  "type": "spell",
  "data": {
    "description": {
      "value": "<div class=\"spell-description\">\n  <p>\n    <strong>School</strong>&nbsp;evocation;\n    <strong>Level</strong>&nbsp;occultist 3, sorcerer/wizard 4;\n    \n    \n    \n    \n  </p>\n  <p>\n    <strong>Casting Time</strong>&nbsp;1 standard action<br>\n    <strong>Components</strong>&nbsp;V, S, F (one ioun stone worth at least 1,000 gp)<br>\n  </p>\n  <p>\n    <strong>Range</strong>&nbsp;personal<br>\n    \n    <strong>Targets</strong>&nbsp;you<br>\n    \n    <strong>Duration</strong>&nbsp;10 minutes/level or until discharged (D)<br>\n    \n  </p>\n  <h2>Description</h2>\n  <p>You infuse arcane power into the focus <i>ioun stone</i>, which must be currently floating around your head. If the <i>ioun stone</i> ever ceases floating around you, the spell ends immediately, and the spell fails if the <i>ioun stone</i> in question is cracked, burned, flawed, or otherwise of lesser value (such as a dull gray <i>ioun stone</i>). While the spell is active, you gain a +1 resistance bonus on saving throws against mind-affecting effects for every 4 caster levels (maximum +5 at caster level 20). Whenever you fail a saving throw against a mind-affecting spell or effect, you can burn out the focus, transforming it irrevocably into a dull gray <i>ioun stone</i> and ending this spell, but suppressing the mind-affecting effect for 1 round per 2,500 gp of value of the focus (minimum 1 round). Rounds during which the effect is suppressed still count against its duration, and the effect can still be dispelled or disrupted during this time.</p>\n</div>\n",
      "chat": "",
      "unidentified": ""
    },
    "tags": [],
    "activation": {
      "cost": 1,
      "type": "standard"
    },
    "unchainedAction": {
      "activation": {
        "cost": 2,
        "type": "action"
      }
    },
    "duration": {
      "value": null,
      "units": ""
    },
    "target": {
      "value": "you"
    },
    "range": {
      "value": null,
      "units": "personal",
      "maxIncrements": 1,
      "minValue": null,
      "minUnits": ""
    },
    "uses": {
      "value": 0,
      "max": 0,
      "per": "",
      "autoDeductCharges": true,
      "autoDeductChargesCost": "1"
    },
    "measureTemplate": {
      "type": "",
      "size": "0",
      "overrideColor": false,
      "customColor": "",
      "overrideTexture": false,
      "customTexture": ""
    },
    "attackName": "",
    "actionType": "",
    "attackBonus": "",
    "critConfirmBonus": "",
    "damage": {
      "parts": [],
      "critParts": [],
      "nonCritParts": []
    },
    "attackParts": [],
    "formula": "",
    "ability": {
      "attack": "",
      "damage": "",
      "damageMult": 1,
      "critRange": 20,
      "critMult": 2
    },
    "save": {
      "dc": "0",
      "type": "",
      "description": ""
    },
    "effectNotes": "",
    "attackNotes": "",
    "soundEffect": "",
    "links": {
      "children": []
    },
    "learnedAt": {
      "class": [
        [
          "sorcerer/wizard",
          4
        ],
        [
          "occultist",
          3
        ]
      ],
      "domain": [],
      "subDomain": [],
      "elementalSchool": [],
      "bloodline": []
    },
    "level": 4,
    "clOffset": 0,
    "slOffset": 0,
    "school": "evo",
    "subschool": "",
    "types": "",
    "nonlethal": false,
    "conditionals": [],
    "components": {
      "value": "",
      "verbal": true,
      "somatic": true,
      "material": false,
      "focus": true,
      "divineFocus": 0
    },
    "castTime": "",
    "materials": {
      "value": "",
      "focus": "one ioun stone worth at least 1,000 gp",
      "gpValue": 0
    },
    "spellbook": "primary",
    "preparation": {
      "preparedAmount": 0,
      "maxAmount": 0,
      "autoDeductCharges": true,
      "spontaneousPrepared": true,
      "mode": "prepared"
    },
    "atWill": false,
    "sr": false,
    "shortDescription": "<p>You infuse arcane power into the focus <i>ioun stone</i>, which must be currently floating around your head. If the <i>ioun stone</i> ever ceases floating around you, the spell ends immediately, and the spell fails if the <i>ioun stone</i> in question is cracked, burned, flawed, or otherwise of lesser value (such as a dull gray <i>ioun stone</i>). While the spell is active, you gain a +1 resistance bonus on saving throws against mind-affecting effects for every 4 caster levels (maximum +5 at caster level 20). Whenever you fail a saving throw against a mind-affecting spell or effect, you can burn out the focus, transforming it irrevocably into a dull gray <i>ioun stone</i> and ending this spell, but suppressing the mind-affecting effect for 1 round per 2,500 gp of value of the focus (minimum 1 round). Rounds during which the effect is suppressed still count against its duration, and the effect can still be dispelled or disrupted during this time.</p>",
    "spellDuration": "10 minutes/level or until discharged (D)",
    "spellEffect": "",
    "spellArea": "",
    "showInQuickbar": false,
    "spellPoints": {
      "cost": "1 + @sl"
    },
    "domain": false,
    "slotCost": 1
  },
  "flags": {},
  "img": "systems/pf1/icons/misc/magic-swirl.png",
  "effects": []
}