{
  "_id": "ye3wcbdcfjiv6z6d",
  "name": "Tears to Wine",
  "permission": {
    "default": 0
  },
  "type": "spell",
  "data": {
    "description": {
      "value": "<div class=\"spell-description\">\n  <p>\n    <strong>School</strong>&nbsp;transmutation;\n    <strong>Level</strong>&nbsp;alchemist 1, bard 1, cleric/oracle 2, druid 1, hunter 1, medium 1, occultist 1, shaman 1, sorcerer/wizard 2, witch 2;\n    \n    \n    \n    \n  </p>\n  <p>\n    <strong>Casting Time</strong>&nbsp;1 standard action<br>\n    <strong>Components</strong>&nbsp;V, S, M (a single grape)<br>\n  </p>\n  <p>\n    <strong>Range</strong>&nbsp;10 feet<br>\n    \n    <strong>Targets</strong>&nbsp;1 cu. ft./2 levels of liquid (see text)<br>\n    \n    <strong>Duration</strong>&nbsp;10 minutes/level<br>\n    <strong>Saving Throw</strong>&nbsp;Will negates (object);&nbsp;<strong>Spell Resistance</strong>&nbsp;yes<br>\n  </p>\n  <h2>Description</h2>\n  <p>Legend claims runelords used this spell to literally benefit from drinking the tears of their captured foes. This spell turns nonmagic liquids-including spoiled, rotten, diseased, poisonous, or otherwise contaminated drinks, tears, seawater, and similar fluids-into mead or wine of average quality. This spell does not prevent subsequent natural decay or spoilage. Unholy water and similar liquids of significance are spoiled by <i>Tears to Wine</i>, but the spell has no effect on creatures of any type or on magic potions.  Creatures that drink the mead or wine created by this spell become sharp-witted and clear-minded, gaining a +2 enhancement bonus on all Intelligence- and Wisdom-based skill checks. This increases to a +5 bonus at caster level 9th, and to +10 (the maximum) at caster level 15th.</p>\n</div>\n",
      "chat": "",
      "unidentified": ""
    },
    "tags": [],
    "activation": {
      "cost": 1,
      "type": "standard"
    },
    "unchainedAction": {
      "activation": {
        "cost": 2,
        "type": "action"
      }
    },
    "duration": {
      "value": null,
      "units": ""
    },
    "target": {
      "value": "1 cu. ft./2 levels of liquid (see text)"
    },
    "range": {
      "value": 10,
      "units": "ft",
      "maxIncrements": 1,
      "minValue": null,
      "minUnits": ""
    },
    "uses": {
      "value": 0,
      "max": 0,
      "per": "",
      "autoDeductCharges": true,
      "autoDeductChargesCost": "1"
    },
    "measureTemplate": {
      "type": "",
      "size": "0",
      "overrideColor": false,
      "customColor": "",
      "overrideTexture": false,
      "customTexture": ""
    },
    "attackName": "",
    "actionType": "spellsave",
    "attackBonus": "",
    "critConfirmBonus": "",
    "damage": {
      "parts": [],
      "critParts": [],
      "nonCritParts": []
    },
    "attackParts": [],
    "formula": "",
    "ability": {
      "attack": "",
      "damage": "",
      "damageMult": 1,
      "critRange": 20,
      "critMult": 2
    },
    "save": {
      "dc": "0",
      "type": "will",
      "description": "Will negates (object)"
    },
    "effectNotes": "",
    "attackNotes": "",
    "soundEffect": "",
    "links": {
      "children": []
    },
    "learnedAt": {
      "class": [
        [
          "sorcerer/wizard",
          2
        ],
        [
          "cleric/oracle",
          2
        ],
        [
          "druid",
          1
        ],
        [
          "bard",
          1
        ],
        [
          "alchemist",
          1
        ],
        [
          "witch",
          2
        ],
        [
          "shaman",
          1
        ],
        [
          "medium",
          1
        ],
        [
          "occultist",
          1
        ],
        [
          "hunter",
          1
        ]
      ],
      "domain": [],
      "subDomain": [],
      "elementalSchool": [],
      "bloodline": []
    },
    "level": 2,
    "clOffset": 0,
    "slOffset": 0,
    "school": "trs",
    "subschool": "",
    "types": "",
    "nonlethal": false,
    "conditionals": [],
    "components": {
      "value": "",
      "verbal": true,
      "somatic": true,
      "material": true,
      "focus": false,
      "divineFocus": 0
    },
    "castTime": "",
    "materials": {
      "value": "a single grape",
      "focus": "",
      "gpValue": 0
    },
    "spellbook": "primary",
    "preparation": {
      "preparedAmount": 0,
      "maxAmount": 0,
      "autoDeductCharges": true,
      "spontaneousPrepared": true,
      "mode": "prepared"
    },
    "atWill": false,
    "sr": true,
    "shortDescription": "<p>Legend claims runelords used this spell to literally benefit from drinking the tears of their captured foes. This spell turns nonmagic liquids-including spoiled, rotten, diseased, poisonous, or otherwise contaminated drinks, tears, seawater, and similar fluids-into mead or wine of average quality. This spell does not prevent subsequent natural decay or spoilage. Unholy water and similar liquids of significance are spoiled by <i>Tears to Wine</i>, but the spell has no effect on creatures of any type or on magic potions.  Creatures that drink the mead or wine created by this spell become sharp-witted and clear-minded, gaining a +2 enhancement bonus on all Intelligence- and Wisdom-based skill checks. This increases to a +5 bonus at caster level 9th, and to +10 (the maximum) at caster level 15th.</p>",
    "spellDuration": "10 minutes/level",
    "spellEffect": "",
    "spellArea": "",
    "showInQuickbar": false,
    "spellPoints": {
      "cost": "1 + @sl"
    },
    "domain": false,
    "slotCost": 1
  },
  "flags": {},
  "img": "systems/pf1/icons/misc/magic-swirl.png",
  "effects": []
}