{
  "_id": "jvemeu2zwk4ay760",
  "name": "Urgathoa's Beacon",
  "permission": {
    "default": 0
  },
  "type": "spell",
  "data": {
    "description": {
      "value": "<div class=\"spell-description\">\n  <p>\n    <strong>School</strong>&nbsp;necromancy&nbsp;(haunted)&nbsp;[emotion, evil, fear, mind-affecting];\n    <strong>Level</strong>&nbsp;antipaladin 2, cleric/oracle 2, inquisitor 2;\n    \n    \n    \n    \n  </p>\n  <p>\n    <strong>Casting Time</strong>&nbsp;1 standard action<br>\n    <strong>Components</strong>&nbsp;V, S, DF<br>\n  </p>\n  <p>\n    <strong>Range</strong>&nbsp;close (25 ft. + 5 ft./2 levels)<br>\n    <strong>Area</strong>&nbsp;one 5-ft. cube/level (S)<br>\n    \n    \n    <strong>Duration</strong>&nbsp;1 hour/level (D)<br>\n    <strong>Saving Throw</strong>&nbsp;Will negates;&nbsp;<strong>Spell Resistance</strong>&nbsp;yes<br>\n  </p>\n  <h2>Description</h2>\n  <p>You shroud an area in Urgathoa's unclean influence, rendering those who pass through it and fail their Will saving throws more enticing to ravenous undead. When an affected creature comes within 60 feet of an undead creature, the spell immediately draws the undead creature's attention, granting it a +4 bonus  on Perception checks to notice the affected creature and on saving throws to resist spells that hide or disguise the affected creature (such as <i>hide from</i> undead). Once the undead creature notices the affected creature, it feels compelled to kill and devour the affected creature, and gains a +1 profane bonus on attack rolls made against the affected creature and a +1 profane bonus on saving throws against the affected creature's spells and special abilities. The undead also ignores any concealment less than total concealment that an affected creature has. Each time the spell draws an undead creature's attention to an affected creature, the spell's haunt-like manifestation occurs during that round.</p>\n</div>\n",
      "chat": "",
      "unidentified": ""
    },
    "tags": [],
    "activation": {
      "cost": 1,
      "type": "standard"
    },
    "unchainedAction": {
      "activation": {
        "cost": 2,
        "type": "action"
      }
    },
    "duration": {
      "value": null,
      "units": ""
    },
    "target": {
      "value": ""
    },
    "range": {
      "value": null,
      "units": "close",
      "maxIncrements": 1,
      "minValue": null,
      "minUnits": ""
    },
    "uses": {
      "value": 0,
      "max": 0,
      "per": "",
      "autoDeductCharges": true,
      "autoDeductChargesCost": "1"
    },
    "measureTemplate": {
      "type": "",
      "size": "0",
      "overrideColor": false,
      "customColor": "",
      "overrideTexture": false,
      "customTexture": ""
    },
    "attackName": "",
    "actionType": "spellsave",
    "attackBonus": "",
    "critConfirmBonus": "",
    "damage": {
      "parts": [],
      "critParts": [],
      "nonCritParts": []
    },
    "attackParts": [],
    "formula": "",
    "ability": {
      "attack": "",
      "damage": "",
      "damageMult": 1,
      "critRange": 20,
      "critMult": 2
    },
    "save": {
      "dc": "0",
      "type": "will",
      "description": "Will negates"
    },
    "effectNotes": "",
    "attackNotes": "",
    "soundEffect": "",
    "links": {
      "children": []
    },
    "learnedAt": {
      "class": [
        [
          "cleric/oracle",
          2
        ],
        [
          "inquisitor",
          2
        ],
        [
          "antipaladin",
          2
        ]
      ],
      "domain": [],
      "subDomain": [],
      "elementalSchool": [],
      "bloodline": []
    },
    "level": 2,
    "clOffset": 0,
    "slOffset": 0,
    "school": "nec",
    "subschool": "haunted",
    "types": "emotion, evil, fear, mind-affecting",
    "nonlethal": false,
    "conditionals": [],
    "components": {
      "value": "",
      "verbal": true,
      "somatic": true,
      "material": false,
      "focus": false,
      "divineFocus": 1
    },
    "castTime": "",
    "materials": {
      "value": "",
      "focus": "",
      "gpValue": 0
    },
    "spellbook": "primary",
    "preparation": {
      "preparedAmount": 0,
      "maxAmount": 0,
      "autoDeductCharges": true,
      "spontaneousPrepared": true,
      "mode": "prepared"
    },
    "atWill": false,
    "sr": true,
    "shortDescription": "<p>You shroud an area in Urgathoa's unclean influence, rendering those who pass through it and fail their Will saving throws more enticing to ravenous undead. When an affected creature comes within 60 feet of an undead creature, the spell immediately draws the undead creature's attention, granting it a +4 bonus  on Perception checks to notice the affected creature and on saving throws to resist spells that hide or disguise the affected creature (such as <i>hide from</i> undead). Once the undead creature notices the affected creature, it feels compelled to kill and devour the affected creature, and gains a +1 profane bonus on attack rolls made against the affected creature and a +1 profane bonus on saving throws against the affected creature's spells and special abilities. The undead also ignores any concealment less than total concealment that an affected creature has. Each time the spell draws an undead creature's attention to an affected creature, the spell's haunt-like manifestation occurs during that round.</p>",
    "spellDuration": "1 hour/level (D)",
    "spellEffect": "",
    "spellArea": "one 5-ft. cube/level (S)",
    "showInQuickbar": false,
    "spellPoints": {
      "cost": "1 + @sl"
    },
    "domain": false,
    "slotCost": 1
  },
  "flags": {},
  "img": "systems/pf1/icons/misc/magic-swirl.png",
  "effects": []
}