{
  "_id": "d41l3wsdq6ch53ul",
  "name": "Verminous Transformation",
  "permission": {
    "default": 0
  },
  "type": "spell",
  "data": {
    "description": {
      "value": "<div class=\"spell-description\">\n  <p>\n    <strong>School</strong>&nbsp;transmutation&nbsp;(polymorph);\n    <strong>Level</strong>&nbsp;alchemist 6, shaman 7, witch 7;\n    \n    \n    \n    \n  </p>\n  <p>\n    <strong>Casting Time</strong>&nbsp;1 standard action<br>\n    <strong>Components</strong>&nbsp;V, S, M (a handful of bat wings, insects, and rat tails)<br>\n  </p>\n  <p>\n    <strong>Range</strong>&nbsp;personal<br>\n    \n    <strong>Targets</strong>&nbsp;you<br>\n    \n    <strong>Duration</strong>&nbsp;1 round/level (D)<br>\n    \n  </p>\n  <h2>Description</h2>\n  <p>You partially transform your body into a swarm of bats, insects, rats, and spiders. As a standard action, you can send out a piece of your body to attack up to four Medium or smaller creatures (or one larger creature) within 10 feet of you. The creatures take 4d6 points of damage and must succeed at a Fortitude save or take 1d3 points of Constitution damage and 1d3 points of Strength damage; the ability damage is a poison effect. Abilities that protect against swarm attacks apply to this damage and spell resistance applies.  Additionally, since your body is partially a swarm, you take only half damage from piercing and slashing attacks, unless those attacks would deal full damage or greater to a swarm (for instance, an area piercing attack would deal full damage to you). You can still be targeted by single-target spells but you gain a +2 circumstance bonus on any saving throws against them.  Casting spells in this form is difficult and any spells with somatic components require a concentration check as if casting defensively; if you are also casting the spell defensively, roll a single concentration check at a -5 penalty.</p>\n</div>\n",
      "chat": "",
      "unidentified": ""
    },
    "tags": [],
    "activation": {
      "cost": 1,
      "type": "standard"
    },
    "unchainedAction": {
      "activation": {
        "cost": 2,
        "type": "action"
      }
    },
    "duration": {
      "value": null,
      "units": ""
    },
    "target": {
      "value": "you"
    },
    "range": {
      "value": null,
      "units": "personal",
      "maxIncrements": 1,
      "minValue": null,
      "minUnits": ""
    },
    "uses": {
      "value": 0,
      "max": 0,
      "per": "",
      "autoDeductCharges": true,
      "autoDeductChargesCost": "1"
    },
    "measureTemplate": {
      "type": "",
      "size": "0",
      "overrideColor": false,
      "customColor": "",
      "overrideTexture": false,
      "customTexture": ""
    },
    "attackName": "",
    "actionType": "",
    "attackBonus": "",
    "critConfirmBonus": "",
    "damage": {
      "parts": [],
      "critParts": [],
      "nonCritParts": []
    },
    "attackParts": [],
    "formula": "",
    "ability": {
      "attack": "",
      "damage": "",
      "damageMult": 1,
      "critRange": 20,
      "critMult": 2
    },
    "save": {
      "dc": "0",
      "type": "",
      "description": ""
    },
    "effectNotes": "",
    "attackNotes": "",
    "soundEffect": "",
    "links": {
      "children": []
    },
    "learnedAt": {
      "class": [
        [
          "alchemist",
          6
        ],
        [
          "witch",
          7
        ],
        [
          "shaman",
          7
        ]
      ],
      "domain": [],
      "subDomain": [],
      "elementalSchool": [],
      "bloodline": []
    },
    "level": 6,
    "clOffset": 0,
    "slOffset": 0,
    "school": "trs",
    "subschool": "polymorph",
    "types": "",
    "nonlethal": false,
    "conditionals": [],
    "components": {
      "value": "",
      "verbal": true,
      "somatic": true,
      "material": true,
      "focus": false,
      "divineFocus": 0
    },
    "castTime": "",
    "materials": {
      "value": "a handful of bat wings, insects, and rat tails",
      "focus": "",
      "gpValue": 0
    },
    "spellbook": "primary",
    "preparation": {
      "preparedAmount": 0,
      "maxAmount": 0,
      "autoDeductCharges": true,
      "spontaneousPrepared": true,
      "mode": "prepared"
    },
    "atWill": false,
    "sr": false,
    "shortDescription": "<p>You partially transform your body into a swarm of bats, insects, rats, and spiders. As a standard action, you can send out a piece of your body to attack up to four Medium or smaller creatures (or one larger creature) within 10 feet of you. The creatures take 4d6 points of damage and must succeed at a Fortitude save or take 1d3 points of Constitution damage and 1d3 points of Strength damage; the ability damage is a poison effect. Abilities that protect against swarm attacks apply to this damage and spell resistance applies.  Additionally, since your body is partially a swarm, you take only half damage from piercing and slashing attacks, unless those attacks would deal full damage or greater to a swarm (for instance, an area piercing attack would deal full damage to you). You can still be targeted by single-target spells but you gain a +2 circumstance bonus on any saving throws against them.  Casting spells in this form is difficult and any spells with somatic components require a concentration check as if casting defensively; if you are also casting the spell defensively, roll a single concentration check at a -5 penalty.</p>",
    "spellDuration": "1 round/level (D)",
    "spellEffect": "",
    "spellArea": "",
    "showInQuickbar": false,
    "spellPoints": {
      "cost": "1 + @sl"
    },
    "domain": false,
    "slotCost": 1
  },
  "flags": {},
  "img": "systems/pf1/icons/misc/magic-swirl.png",
  "effects": []
}